﻿


EVENT   1
 PAGE   1
  281(1)
  250(bytes(0x04,0x08,0x6f,0x3a,0x0c,0x52,0x50,0x47,0x3a,0x3a,0x53,0x45,0x08,0x3a,0x0a,0x40,0x6e,0x61,0x6d,0x65,0x49,0x22,0x09,0x4d,0x6f,0x76,0x65,0x06,0x3a,0x06,0x45,0x54,0x3a,0x0b,0x40,0x70,0x69,0x74,0x63,0x68,0x69,0x69,0x3a,0x0c,0x40,0x76,0x6f,0x6c,0x75,0x6d,0x65,0x69,0x55))
  TeleportPlayer(0,45,23,7,0,0)
  0()



EVENT   2
 PAGE   1
  281(1)
  250(bytes(0x04,0x08,0x6f,0x3a,0x0c,0x52,0x50,0x47,0x3a,0x3a,0x53,0x45,0x08,0x3a,0x0a,0x40,0x6e,0x61,0x6d,0x65,0x49,0x22,0x09,0x4d,0x6f,0x76,0x65,0x06,0x3a,0x06,0x45,0x54,0x3a,0x0b,0x40,0x70,0x69,0x74,0x63,0x68,0x69,0x69,0x3a,0x0c,0x40,0x76,0x6f,0x6c,0x75,0x6d,0x65,0x69,0x55))
  TeleportPlayer(0,45,44,23,0,0)
  0()



EVENT   3
 PAGE   1
  0()



EVENT   4
 PAGE   1
  0()



EVENT   5
 PAGE   1
  281(1)
  250(bytes(0x04,0x08,0x6f,0x3a,0x0c,0x52,0x50,0x47,0x3a,0x3a,0x53,0x45,0x08,0x3a,0x0a,0x40,0x6e,0x61,0x6d,0x65,0x49,0x22,0x09,0x4d,0x6f,0x76,0x65,0x06,0x3a,0x06,0x45,0x54,0x3a,0x0b,0x40,0x70,0x69,0x74,0x63,0x68,0x69,0x69,0x3a,0x0c,0x40,0x76,0x6f,0x6c,0x75,0x6d,0x65,0x69,0x55))
  TeleportPlayer(0,45,6,39,0,0)
  0()



EVENT   6
 PAGE   1
  0()



EVENT   7
 PAGE   1
  0()



EVENT   8
 PAGE   1
  250(bytes(0x04,0x08,0x6f,0x3a,0x0c,0x52,0x50,0x47,0x3a,0x3a,0x53,0x45,0x08,0x3a,0x0a,0x40,0x6e,0x61,0x6d,0x65,0x49,0x22,0x09,0x4d,0x6f,0x76,0x65,0x06,0x3a,0x06,0x45,0x54,0x3a,0x0b,0x40,0x70,0x69,0x74,0x63,0x68,0x69,0x69,0x3a,0x0c,0x40,0x76,0x6f,0x6c,0x75,0x6d,0x65,0x69,0x55))
  TeleportPlayer(0,46,28,30,0,0)
  0()



EVENT   9
 PAGE   1
  250(bytes(0x04,0x08,0x6f,0x3a,0x0c,0x52,0x50,0x47,0x3a,0x3a,0x53,0x45,0x08,0x3a,0x0a,0x40,0x6e,0x61,0x6d,0x65,0x49,0x22,0x09,0x4d,0x6f,0x76,0x65,0x06,0x3a,0x06,0x45,0x54,0x3a,0x0b,0x40,0x70,0x69,0x74,0x63,0x68,0x69,0x69,0x3a,0x0c,0x40,0x76,0x6f,0x6c,0x75,0x6d,0x65,0x69,0x55))
  TeleportPlayer(0,46,29,30,0,0)
  0()



EVENT   10
 PAGE   1
  250(bytes(0x04,0x08,0x6f,0x3a,0x0c,0x52,0x50,0x47,0x3a,0x3a,0x53,0x45,0x08,0x3a,0x0a,0x40,0x6e,0x61,0x6d,0x65,0x49,0x22,0x09,0x4d,0x6f,0x76,0x65,0x06,0x3a,0x06,0x45,0x54,0x3a,0x0b,0x40,0x70,0x69,0x74,0x63,0x68,0x69,0x69,0x3a,0x0c,0x40,0x76,0x6f,0x6c,0x75,0x6d,0x65,0x69,0x55))
  TeleportPlayer(0,46,28,5,0,0)
  0()



EVENT   11
 PAGE   1
  250(bytes(0x04,0x08,0x6f,0x3a,0x0c,0x52,0x50,0x47,0x3a,0x3a,0x53,0x45,0x08,0x3a,0x0a,0x40,0x6e,0x61,0x6d,0x65,0x49,0x22,0x09,0x4d,0x6f,0x76,0x65,0x06,0x3a,0x06,0x45,0x54,0x3a,0x0b,0x40,0x70,0x69,0x74,0x63,0x68,0x69,0x69,0x3a,0x0c,0x40,0x76,0x6f,0x6c,0x75,0x6d,0x65,0x69,0x55))
  TeleportPlayer(0,46,29,5,0,0)
  0()



EVENT   12
 PAGE   1
  281(1)
  250(bytes(0x04,0x08,0x6f,0x3a,0x0c,0x52,0x50,0x47,0x3a,0x3a,0x53,0x45,0x08,0x3a,0x0a,0x40,0x6e,0x61,0x6d,0x65,0x49,0x22,0x09,0x4d,0x6f,0x76,0x65,0x06,0x3a,0x06,0x45,0x54,0x3a,0x0b,0x40,0x70,0x69,0x74,0x63,0x68,0x69,0x69,0x3a,0x0c,0x40,0x76,0x6f,0x6c,0x75,0x6d,0x65,0x69,0x55))
  TeleportPlayer(0,45,26,42,0,0)
  0()



EVENT   13
 PAGE   1
  281(1)
  250(bytes(0x04,0x08,0x6f,0x3a,0x0c,0x52,0x50,0x47,0x3a,0x3a,0x53,0x45,0x08,0x3a,0x0a,0x40,0x6e,0x61,0x6d,0x65,0x49,0x22,0x09,0x4d,0x6f,0x76,0x65,0x06,0x3a,0x06,0x45,0x54,0x3a,0x0b,0x40,0x70,0x69,0x74,0x63,0x68,0x69,0x69,0x3a,0x0c,0x40,0x76,0x6f,0x6c,0x75,0x6d,0x65,0x69,0x55))
  TeleportPlayer(0,45,35,45,0,0)
  0()



EVENT   14
 PAGE   1
  0()



EVENT   15
 PAGE   1
  0()



EVENT   16
 PAGE   1
  281(1)
  250(bytes(0x04,0x08,0x6f,0x3a,0x0c,0x52,0x50,0x47,0x3a,0x3a,0x53,0x45,0x08,0x3a,0x0a,0x40,0x6e,0x61,0x6d,0x65,0x49,0x22,0x09,0x4d,0x6f,0x76,0x65,0x06,0x3a,0x06,0x45,0x54,0x3a,0x0b,0x40,0x70,0x69,0x74,0x63,0x68,0x69,0x69,0x3a,0x0c,0x40,0x76,0x6f,0x6c,0x75,0x6d,0x65,0x69,0x55))
  TeleportPlayer(0,45,24,52,0,0)
  0()



EVENT   17
 PAGE   1
  0()



EVENT   18
 PAGE   1
  281(1)
  250(bytes(0x04,0x08,0x6f,0x3a,0x0c,0x52,0x50,0x47,0x3a,0x3a,0x53,0x45,0x08,0x3a,0x0a,0x40,0x6e,0x61,0x6d,0x65,0x49,0x22,0x09,0x4d,0x6f,0x76,0x65,0x06,0x3a,0x06,0x45,0x54,0x3a,0x0b,0x40,0x70,0x69,0x74,0x63,0x68,0x69,0x69,0x3a,0x0c,0x40,0x76,0x6f,0x6c,0x75,0x6d,0x65,0x69,0x55))
  TeleportPlayer(0,45,45,51,0,0)
  0()



EVENT   19
 PAGE   1
  ShowMessageFace("",0,0,2,1)
  ShowMessage("【やつれた武器屋】")
  ShowMessage("おや、お客さんかい？")
  ShowMessage("どうぞ、買っていってくれ。")
  Shop(1,23,0,0,false)
  605(1,248,0,0)
  605(1,880,0,0)
  605(2,25,0,0)
  605(2,170,0,0)
  0()



EVENT   20
 PAGE   1
  ShowMessageFace("",0,0,2,1)
  ShowMessage("【やつれた道具屋】")
  ShowMessage("あぁぁ……最高だったよ……")
  ShowMessage("……んっ、客かい？")
  Shop(0,2,0,0,false)
  605(0,7,0,0)
  605(0,11,0,0)
  605(0,13,0,0)
  605(0,14,0,0)
  605(0,15,0,0)
  605(0,16,0,0)
  605(0,17,0,0)
  605(0,18,0,0)
  605(0,19,0,0)
  605(0,20,0,0)
  605(0,21,0,0)
  605(0,23,0,0)
  605(0,35,0,0)
  If(1,1005,0,18,0)
   If(4,66,0)
    If(0,2065,0)
     ShowMessageFace("vgirl_fc1",0,0,2,2)
     ShowMessage("【ヴァニラ】")
     ShowMessage("はじめまして、商人のヴァニラです。")
     ShowMessage("脱淫薬を、我が店に仕入れてほしいのですけど……")
     ShowMessageFace("",0,0,2,3)
     ShowMessage("【やつれた道具屋】")
     ShowMessage("脱淫薬は、この村の特産品。")
     ShowMessage("それを仕入れてほしいならば、一つ条件がある。")
     ShowMessageFace("",0,0,2,4)
     ShowMessage("【やつれた道具屋】")
     ShowMessage("……我が村特産のイモも、そちらの店で扱ってくれ。")
     ShowMessage("もう、保管庫が限界なんだよ……")
     ShowMessageFace("vgirl_fc1",0,0,2,5)
     ShowMessage("【ヴァニラ】")
     ShowMessage("そんなにイモが余ってるのか……？")
     ShowMessageFace("",0,0,2,6)
     ShowMessage("商談が進んでいく……")
     ShowMessage("一流商人にも劣らない交渉振りだ！")
     ShowMessageFace("",0,0,2,7)
     ShowMessage("【やつれた道具屋】")
     ShowMessage("それじゃあ、脱淫薬とイモの抱き合わせだ！")
     ShowMessage("覚えときな、お嬢ちゃん。過剰在庫は売れないより危険だぜ。")
     ShowMessageFace("vgirl_fc1",0,0,2,8)
     ShowMessage("【ヴァニラ】")
     ShowMessage("肝に銘じておきます！")
     ShowMessage("今後ともよろしく……なのだ！")
     249(bytes(0x04,0x08,0x6f,0x3a,0x0c,0x52,0x50,0x47,0x3a,0x3a,0x4d,0x45,0x08,0x3a,0x0a,0x40,0x6e,0x61,0x6d,0x65,0x49,0x22,0x0c,0x66,0x61,0x6e,0x66,0x61,0x6c,0x65,0x06,0x3a,0x06,0x45,0x54,0x3a,0x0b,0x40,0x70,0x69,0x74,0x63,0x68,0x69,0x69,0x3a,0x0c,0x40,0x76,0x6f,0x6c,0x75,0x6d,0x65,0x69,0x69))
     ShowMessageFace("",0,0,2,9)
     ShowMessage("ヴァニラの店で脱淫薬とじゃがいもを扱うようになった！")
     ChangeVariable(1005,1005,0,0,19)
     ChangeSwitch(2065,2065,1)
     Wait(60)
     EndEventProcessing()
     0()
    EndIf()
    0()
   EndIf()
   0()
  EndIf()
  0()



EVENT   21
 PAGE   1
  ShowMessageFace("",0,0,2,1)
  ShowMessage("【店主のサキュバス】")
  ShowMessage("ちょっと散らかってるけど、気にしないでね。")
  ShowMessage("さて、注文は何にする……？")
  Shop(0,428,0,0,false)
  605(0,429,0,0)
  605(0,430,0,0)
  605(0,431,0,0)
  0()



EVENT   23
 PAGE   1
  0()



EVENT   24
 PAGE   1
  0()



EVENT   25
 PAGE   1
  0()



EVENT   26
 PAGE   1
  0()



EVENT   27
 PAGE   1
  0()



EVENT   28
 PAGE   1
  108("明かり設定3300300")
  0()



EVENT   29
 PAGE   1
  250(bytes(0x04,0x08,0x6f,0x3a,0x0c,0x52,0x50,0x47,0x3a,0x3a,0x53,0x45,0x08,0x3a,0x0a,0x40,0x6e,0x61,0x6d,0x65,0x49,0x22,0x09,0x4d,0x6f,0x76,0x65,0x06,0x3a,0x06,0x45,0x54,0x3a,0x0b,0x40,0x70,0x69,0x74,0x63,0x68,0x69,0x69,0x3a,0x0c,0x40,0x76,0x6f,0x6c,0x75,0x6d,0x65,0x69,0x55))
  TeleportPlayer(0,46,20,92,0,0)
  0()



EVENT   30
 PAGE   1
  250(bytes(0x04,0x08,0x6f,0x3a,0x0c,0x52,0x50,0x47,0x3a,0x3a,0x53,0x45,0x08,0x3a,0x0a,0x40,0x6e,0x61,0x6d,0x65,0x49,0x22,0x09,0x4d,0x6f,0x76,0x65,0x06,0x3a,0x06,0x45,0x54,0x3a,0x0b,0x40,0x70,0x69,0x74,0x63,0x68,0x69,0x69,0x3a,0x0c,0x40,0x76,0x6f,0x6c,0x75,0x6d,0x65,0x69,0x55))
  TeleportPlayer(0,46,66,62,8,0)
  0()



EVENT   31
 PAGE   1
  108("明かり設定1243070015")
  0()



EVENT   32
 PAGE   1
  108("明かり設定3300300")
  0()



EVENT   33
 PAGE   1
  108("明かり設定3300200")
  0()



EVENT   34
 PAGE   1
  250(bytes(0x04,0x08,0x6f,0x3a,0x0c,0x52,0x50,0x47,0x3a,0x3a,0x53,0x45,0x08,0x3a,0x0a,0x40,0x6e,0x61,0x6d,0x65,0x49,0x22,0x09,0x4d,0x6f,0x76,0x65,0x06,0x3a,0x06,0x45,0x54,0x3a,0x0b,0x40,0x70,0x69,0x74,0x63,0x68,0x69,0x69,0x3a,0x0c,0x40,0x76,0x6f,0x6c,0x75,0x6d,0x65,0x69,0x55))
  TeleportPlayer(0,46,20,92,0,0)
  0()



EVENT   35
 PAGE   1
  250(bytes(0x04,0x08,0x6f,0x3a,0x0c,0x52,0x50,0x47,0x3a,0x3a,0x53,0x45,0x08,0x3a,0x0a,0x40,0x6e,0x61,0x6d,0x65,0x49,0x22,0x09,0x4d,0x6f,0x76,0x65,0x06,0x3a,0x06,0x45,0x54,0x3a,0x0b,0x40,0x70,0x69,0x74,0x63,0x68,0x69,0x69,0x3a,0x0c,0x40,0x76,0x6f,0x6c,0x75,0x6d,0x65,0x69,0x55))
  TeleportPlayer(0,46,20,92,0,0)
  0()



EVENT   36
 PAGE   1
  250(bytes(0x04,0x08,0x6f,0x3a,0x0c,0x52,0x50,0x47,0x3a,0x3a,0x53,0x45,0x08,0x3a,0x0a,0x40,0x6e,0x61,0x6d,0x65,0x49,0x22,0x09,0x4d,0x6f,0x76,0x65,0x06,0x3a,0x06,0x45,0x54,0x3a,0x0b,0x40,0x70,0x69,0x74,0x63,0x68,0x69,0x69,0x3a,0x0c,0x40,0x76,0x6f,0x6c,0x75,0x6d,0x65,0x69,0x55))
  TeleportPlayer(0,46,66,62,8,0)
  0()



EVENT   37
 PAGE   1
  0()



EVENT   38
 PAGE   1
  0()



EVENT   39
 PAGE   1
  0()



EVENT   40
 PAGE   1
  0()



EVENT   41
 PAGE   1
  0()



EVENT   42
 PAGE   1
  250(bytes(0x04,0x08,0x6f,0x3a,0x0c,0x52,0x50,0x47,0x3a,0x3a,0x53,0x45,0x08,0x3a,0x0a,0x40,0x6e,0x61,0x6d,0x65,0x49,0x22,0x09,0x4d,0x6f,0x76,0x65,0x06,0x3a,0x06,0x45,0x54,0x3a,0x0b,0x40,0x70,0x69,0x74,0x63,0x68,0x69,0x69,0x3a,0x0c,0x40,0x76,0x6f,0x6c,0x75,0x6d,0x65,0x69,0x55))
  TeleportPlayer(0,46,66,97,8,0)
  0()



EVENT   43
 PAGE   1
  250(bytes(0x04,0x08,0x6f,0x3a,0x0c,0x52,0x50,0x47,0x3a,0x3a,0x53,0x45,0x08,0x3a,0x0a,0x40,0x6e,0x61,0x6d,0x65,0x49,0x22,0x09,0x4d,0x6f,0x76,0x65,0x06,0x3a,0x06,0x45,0x54,0x3a,0x0b,0x40,0x70,0x69,0x74,0x63,0x68,0x69,0x69,0x3a,0x0c,0x40,0x76,0x6f,0x6c,0x75,0x6d,0x65,0x69,0x55))
  TeleportPlayer(0,46,66,97,8,0)
  0()



EVENT   44
 PAGE   1
  250(bytes(0x04,0x08,0x6f,0x3a,0x0c,0x52,0x50,0x47,0x3a,0x3a,0x53,0x45,0x08,0x3a,0x0a,0x40,0x6e,0x61,0x6d,0x65,0x49,0x22,0x09,0x4d,0x6f,0x76,0x65,0x06,0x3a,0x06,0x45,0x54,0x3a,0x0b,0x40,0x70,0x69,0x74,0x63,0x68,0x69,0x69,0x3a,0x0c,0x40,0x76,0x6f,0x6c,0x75,0x6d,0x65,0x69,0x55))
  TeleportPlayer(0,46,66,97,8,0)
  0()



EVENT   45
 PAGE   1
  250(bytes(0x04,0x08,0x6f,0x3a,0x0c,0x52,0x50,0x47,0x3a,0x3a,0x53,0x45,0x08,0x3a,0x0a,0x40,0x6e,0x61,0x6d,0x65,0x49,0x22,0x09,0x4d,0x6f,0x76,0x65,0x06,0x3a,0x06,0x45,0x54,0x3a,0x0b,0x40,0x70,0x69,0x74,0x63,0x68,0x69,0x69,0x3a,0x0c,0x40,0x76,0x6f,0x6c,0x75,0x6d,0x65,0x69,0x55))
  TeleportPlayer(0,46,66,67,2,0)
  0()



EVENT   46
 PAGE   1
  0()



EVENT   47
 PAGE   1
  0()



EVENT   48
 PAGE   1
  0()



EVENT   49
 PAGE   1
  0()



EVENT   50
 PAGE   1
  0()



EVENT   51
 PAGE   1
  0()



EVENT   52
 PAGE   1
  0()



EVENT   53
 PAGE   1
  0()



EVENT   54
 PAGE   1
  0()



EVENT   55
 PAGE   1
  0()



EVENT   56
 PAGE   1
  0()



EVENT   57
 PAGE   1
  0()



EVENT   58
 PAGE   1
  0()



EVENT   59
 PAGE   1
  281(1)
  250(bytes(0x04,0x08,0x6f,0x3a,0x0c,0x52,0x50,0x47,0x3a,0x3a,0x53,0x45,0x08,0x3a,0x0a,0x40,0x6e,0x61,0x6d,0x65,0x49,0x22,0x09,0x4d,0x6f,0x76,0x65,0x06,0x3a,0x06,0x45,0x54,0x3a,0x0b,0x40,0x70,0x69,0x74,0x63,0x68,0x69,0x69,0x3a,0x0c,0x40,0x76,0x6f,0x6c,0x75,0x6d,0x65,0x69,0x55))
  TeleportPlayer(0,45,39,11,0,0)
  0()



EVENT   60
 PAGE   1
  281(1)
  250(bytes(0x04,0x08,0x6f,0x3a,0x0c,0x52,0x50,0x47,0x3a,0x3a,0x53,0x45,0x08,0x3a,0x0a,0x40,0x6e,0x61,0x6d,0x65,0x49,0x22,0x09,0x4d,0x6f,0x76,0x65,0x06,0x3a,0x06,0x45,0x54,0x3a,0x0b,0x40,0x70,0x69,0x74,0x63,0x68,0x69,0x69,0x3a,0x0c,0x40,0x76,0x6f,0x6c,0x75,0x6d,0x65,0x69,0x55))
  TeleportPlayer(0,45,39,11,0,0)
  0()



EVENT   61
 PAGE   1
  281(1)
  250(bytes(0x04,0x08,0x6f,0x3a,0x0c,0x52,0x50,0x47,0x3a,0x3a,0x53,0x45,0x08,0x3a,0x0a,0x40,0x6e,0x61,0x6d,0x65,0x49,0x22,0x09,0x4d,0x6f,0x76,0x65,0x06,0x3a,0x06,0x45,0x54,0x3a,0x0b,0x40,0x70,0x69,0x74,0x63,0x68,0x69,0x69,0x3a,0x0c,0x40,0x76,0x6f,0x6c,0x75,0x6d,0x65,0x69,0x55))
  TeleportPlayer(0,45,39,11,0,0)
  0()



EVENT   62
 PAGE   1
  281(1)
  250(bytes(0x04,0x08,0x6f,0x3a,0x0c,0x52,0x50,0x47,0x3a,0x3a,0x53,0x45,0x08,0x3a,0x0a,0x40,0x6e,0x61,0x6d,0x65,0x49,0x22,0x09,0x4d,0x6f,0x76,0x65,0x06,0x3a,0x06,0x45,0x54,0x3a,0x0b,0x40,0x70,0x69,0x74,0x63,0x68,0x69,0x69,0x3a,0x0c,0x40,0x76,0x6f,0x6c,0x75,0x6d,0x65,0x69,0x55))
  TeleportPlayer(0,45,39,11,0,0)
  0()



EVENT   63
 PAGE   1
  250(bytes(0x04,0x08,0x6f,0x3a,0x0c,0x52,0x50,0x47,0x3a,0x3a,0x53,0x45,0x08,0x3a,0x0a,0x40,0x6e,0x61,0x6d,0x65,0x49,0x22,0x09,0x4d,0x6f,0x76,0x65,0x06,0x3a,0x06,0x45,0x54,0x3a,0x0b,0x40,0x70,0x69,0x74,0x63,0x68,0x69,0x69,0x3a,0x0c,0x40,0x76,0x6f,0x6c,0x75,0x6d,0x65,0x69,0x55))
  TeleportPlayer(0,46,66,67,2,0)
  0()



EVENT   64
 PAGE   1
  250(bytes(0x04,0x08,0x6f,0x3a,0x0c,0x52,0x50,0x47,0x3a,0x3a,0x53,0x45,0x08,0x3a,0x0a,0x40,0x6e,0x61,0x6d,0x65,0x49,0x22,0x09,0x4d,0x6f,0x76,0x65,0x06,0x3a,0x06,0x45,0x54,0x3a,0x0b,0x40,0x70,0x69,0x74,0x63,0x68,0x69,0x69,0x3a,0x0c,0x40,0x76,0x6f,0x6c,0x75,0x6d,0x65,0x69,0x55))
  TeleportPlayer(0,46,66,67,2,0)
  0()



EVENT   65
 PAGE   1
  If(1,831,0,2,1)
   If(0,1580,1)
    ShowMessageFace("mob_ozyou_fc1",0,0,2,1)
    ShowMessage("【アレリア】")
    ShowMessage("わたくしも、旅に連れて行ってくれませんか？")
    ShowMessage("この機会に、見識を広めたいですわ……")
    ShowChoices(strings("仲間にする","仲間にしない"),0)
    IfPlayerPicksChoice(0,null)
     ShowMessageFace("mob_ozyou_fc1",0,0,2,2)
     ShowMessage("【アレリア】")
     ShowMessage("うふふっ、楽しみですわ……")
     PictureClear(5)
     205(0,bytes(0x04,0x08,0x6f,0x3a,0x13,0x52,0x50,0x47,0x3a,0x3a,0x4d,0x6f,0x76,0x65,0x52,0x6f,0x75,0x74,0x65,0x09,0x3a,0x0c,0x40,0x72,0x65,0x70,0x65,0x61,0x74,0x46,0x3a,0x0f,0x40,0x73,0x6b,0x69,0x70,0x70,0x61,0x62,0x6c,0x65,0x46,0x3a,0x0a,0x40,0x77,0x61,0x69,0x74,0x54,0x3a,0x0a,0x40,0x6c,0x69,0x73,0x74,0x5b,0x09,0x6f,0x3a,0x15,0x52,0x50,0x47,0x3a,0x3a,0x4d,0x6f,0x76,0x65,0x43,0x6f,0x6d,0x6d,0x61,0x6e,0x64,0x07,0x3a,0x0a,0x40,0x63,0x6f,0x64,0x65,0x69,0x2a,0x3a,0x10,0x40,0x70,0x61,0x72,0x61,0x6d,0x65,0x74,0x65,0x72,0x73,0x5b,0x00,0x6f,0x3b,0x0a,0x07,0x3b,0x0b,0x69,0x0f,0x3b,0x0c,0x5b,0x00,0x6f,0x3b,0x0a,0x07,0x3b,0x0b,0x69,0x2c,0x3b,0x0c,0x5b,0x00,0x6f,0x3b,0x0a,0x07,0x3b,0x0b,0x69,0x00,0x3b,0x0c,0x5b,0x00))
     355("add_actor_ex(580)")
     249(bytes(0x04,0x08,0x6f,0x3a,0x0c,0x52,0x50,0x47,0x3a,0x3a,0x4d,0x45,0x08,0x3a,0x0a,0x40,0x6e,0x61,0x6d,0x65,0x49,0x22,0x0c,0x66,0x61,0x6e,0x66,0x61,0x6c,0x65,0x06,0x3a,0x06,0x45,0x54,0x3a,0x0b,0x40,0x70,0x69,0x74,0x63,0x68,0x69,0x69,0x3a,0x0c,0x40,0x76,0x6f,0x6c,0x75,0x6d,0x65,0x69,0x69))
     ShowMessageFace("",0,0,2,3)
     ShowMessage("アレリアが仲間に加わった！")
     Wait(60)
     EndEventProcessing()
     0()
    IfPlayerPicksChoice(1,null)
     ShowMessageFace("mob_ozyou_fc1",0,0,2,4)
     ShowMessage("【アレリア】")
     ShowMessage("それは残念ですわね……")
     0()
    404()
    0()
   EndIf()
   0()
  EndIf()
  RunCommonEvent(7301)
  0()
 PAGE   2
  // condition: party contains actor #580
  0()



EVENT   66
 PAGE   1
  // condition: switch 2210 is ON
  PictureDisplay(5,"80_succubus_st01",0,0,0,0,100,100,0,0)
  PictureMove(5,null,0,0,0,0,100,100,255,0,30,true)
  ShowMessageFace("succubus_fc1",0,0,2,1)
  ShowMessage("【サキュバス】")
  ShowMessage("あら、そっちは元気そうね……")
  ShowMessage("私はまだ、あなた達にやられた傷が癒えないわ。")
  ShowMessageFace("succubus_fc1",0,0,2,2)
  ShowMessage("【サキュバス】")
  ShowMessage("まあ、結局は丸く収まって良かったわね。")
  ShowMessage("村人にもほとんど被害は無く、一番痛い目を見たのは私なの。")
  ShowMessageFace("succubus_fc1",1,0,2,3)
  ShowMessage("【サキュバス】")
  ShowMessage("ええ、それでもあの娘を救えたんだから……")
  ShowMessage("決して、恨んでなどいないわよ。")
  ShowChoices(strings("仲間になってほしい","用はない"),2)
  IfPlayerPicksChoice(0,null)
   ShowMessageFace("succubus_fc1",0,0,2,4)
   ShowMessage("【サキュバス】")
   ShowMessage("まだベッドから起き上がれないわ。")
   If(4,163,0)
    ShowMessageFace("lily_fc1",5,0,2,5)
    ShowMessage("【リリィ】")
    ShowMessage("悪い事をした、とは思ってるわよ……")
    0()
   EndIf()
   PictureClear(5)
   EndEventProcessing()
   0()
  IfPlayerPicksChoice(1,null)
   PictureClear(5)
   EndEventProcessing()
   0()
  404()
  0()
 PAGE   2
  // condition: switch 2211 is ON
  PictureDisplay(5,"80_succubus_st03",0,0,0,0,100,100,0,0)
  PictureMove(5,null,0,0,0,0,100,100,255,0,30,true)
  ShowMessageFace("succubus_fc1",3,0,2,1)
  ShowMessage("【サキュバス】")
  ShowMessage("……何をしに来たの？")
  ShowMessage("私はまだ、あなた達にやられた傷が癒えないわ。")
  ShowMessageFace("succubus_fc1",3,0,2,2)
  ShowMessage("【サキュバス】")
  ShowMessage("ナターシャも、あのままどこかへ去って行ったわね。")
  ShowMessage("おそらく、二度と会う事はないわ……")
  ShowMessageFace("succubus_fc1",3,0,2,3)
  ShowMessage("【サキュバス】")
  ShowMessage("そして、欲を言うならば……")
  ShowMessage("私としても、二度とあなた達とは会いたくないわ。")
  If(0,6,0)
   ShowMessageFace("sonia_fc4",0,0,2,4)
   ShowMessage("【ソニア】")
   ShowMessage("完全に、私達の失敗よね……")
   ShowMessage("何を言われても仕方ないわ。")
   0()
  EndIf()
  PictureClear(5)
  0()



EVENT   67
 PAGE   1
  // condition: switch 2212 is ON
  PictureDisplay(5,"80_succubus_st01",0,0,0,0,100,100,255,0)
  ShowMessageFace("succubus_fc1",0,0,2,1)
  ShowMessage("【サキュバス】")
  ShowMessage("おや、あなた達は……")
  ShowMessage("ずいぶん世話になって、感謝の言葉もないわ。")
  ShowMessageFace("succubus_fc1",0,0,2,2)
  ShowMessage("【サキュバス】")
  ShowMessage("あの後はまあ、大した問題もないわね……")
  ShowMessage("ナターシャも、すっかりうちの村の一員よ。")
  ShowMessageFace("succubus_fc1",0,0,2,3)
  ShowMessage("【サキュバス】")
  ShowMessage("あなた達には、礼をしなければいけないわね。")
  ShowMessage("何か、私に出来る事はないかしら？")
  ShowChoices(strings("仲間になってほしい","用はない"),2)
  IfPlayerPicksChoice(0,null)
   ShowMessageFace("succubus_fc1",0,0,2,4)
   ShowMessage("【サキュバス】")
   ShowMessage("私の力が必要なの……？")
   ShowMessage("それじゃあ、旅にご一緒させてもらおうかしら。")
   PictureClear(5)
   205(0,bytes(0x04,0x08,0x6f,0x3a,0x13,0x52,0x50,0x47,0x3a,0x3a,0x4d,0x6f,0x76,0x65,0x52,0x6f,0x75,0x74,0x65,0x09,0x3a,0x0c,0x40,0x72,0x65,0x70,0x65,0x61,0x74,0x46,0x3a,0x0f,0x40,0x73,0x6b,0x69,0x70,0x70,0x61,0x62,0x6c,0x65,0x46,0x3a,0x0a,0x40,0x77,0x61,0x69,0x74,0x54,0x3a,0x0a,0x40,0x6c,0x69,0x73,0x74,0x5b,0x09,0x6f,0x3a,0x15,0x52,0x50,0x47,0x3a,0x3a,0x4d,0x6f,0x76,0x65,0x43,0x6f,0x6d,0x6d,0x61,0x6e,0x64,0x07,0x3a,0x0a,0x40,0x63,0x6f,0x64,0x65,0x69,0x2a,0x3a,0x10,0x40,0x70,0x61,0x72,0x61,0x6d,0x65,0x74,0x65,0x72,0x73,0x5b,0x00,0x6f,0x3b,0x0a,0x07,0x3b,0x0b,0x69,0x0f,0x3b,0x0c,0x5b,0x00,0x6f,0x3b,0x0a,0x07,0x3b,0x0b,0x69,0x2c,0x3b,0x0c,0x5b,0x00,0x6f,0x3b,0x0a,0x07,0x3b,0x0b,0x69,0x00,0x3b,0x0c,0x5b,0x00))
   355("add_actor_ex(287)")
   249(bytes(0x04,0x08,0x6f,0x3a,0x0c,0x52,0x50,0x47,0x3a,0x3a,0x4d,0x45,0x08,0x3a,0x0a,0x40,0x6e,0x61,0x6d,0x65,0x49,0x22,0x0c,0x66,0x61,0x6e,0x66,0x61,0x6c,0x65,0x06,0x3a,0x06,0x45,0x54,0x3a,0x0b,0x40,0x70,0x69,0x74,0x63,0x68,0x69,0x69,0x3a,0x0c,0x40,0x76,0x6f,0x6c,0x75,0x6d,0x65,0x69,0x69))
   ShowMessageFace("",0,0,2,5)
   ShowMessage("サキュバスが仲間に加わった！")
   ChangeSelfSwitch("A",0)
   Wait(60)
   If(0,6,0)
    ShowMessageFace("sonia_fc1",0,0,2,6)
    ShowMessage("【ソニア】")
    ShowMessage("ところで村長さんって、何て名前なんですか？")
    0()
   Else()
    ShowMessageFace("ruka_fc1",0,0,2,7)
    ShowMessage("【ルカ】")
    ShowMessage("ところで村長さんって、何て名前なんですか？")
    0()
   EndIf()
   ShowMessageFace("succubus_fc1",1,0,2,8)
   ShowMessage("【サキュバス】")
   ShowMessage("私の名前？　「サキュバス」よ。")
   ShowMessageFace("ruka_fc1",0,0,2,9)
   ShowMessage("【ルカ】")
   ShowMessage("つまり、サキュバスの……サキュバスさん？")
   If(0,4,0)
    ShowMessageFace("alice_fc5",0,0,2,10)
    ShowMessage("【アリス】")
    ShowMessage("妖魔の慣習として、種族の名前をそのまま個体名に付ける事がある。")
    ShowMessage("特に上流階級や、歴史ある家系などはな。")
    0()
   EndIf()
   If(0,5,0)
    ShowMessageFace("iriasu_fc4",0,0,2,11)
    ShowMessage("【イリアス】")
    ShowMessage("妖魔の慣習ですが、種族名を個体名に流用する事があります。")
    ShowMessage("特に上流階級の者や、歴史の深い家系などに見られますね。")
    0()
   EndIf()
   ShowMessageFace("succubus_fc1",0,0,2,12)
   ShowMessage("【サキュバス】")
   ShowMessage("私も一応、それなりの家系だったりするのよ……")
   ShowMessage("家長の名前は、代々「サキュバス」なの。")
   If(0,6,0)
    ShowMessageFace("sonia_fc2",2,0,2,13)
    ShowMessage("【ソニア】")
    ShowMessage("人間だったら、そのまま「ニンゲン」が名前かぁ……")
    ShowMessage("なんだか、変な感じ。")
    0()
   Else()
    ShowMessageFace("ruka_fc1",0,0,2,14)
    ShowMessage("【ルカ】")
    ShowMessage("人間だったら、そのまま「ニンゲン」が名前か……")
    ShowMessage("なんだか、変な感じだね。")
    0()
   EndIf()
   EndEventProcessing()
   0()
  IfPlayerPicksChoice(1,null)
   PictureClear(5)
   EndEventProcessing()
   0()
  404()
  0()
 PAGE   2
  // condition: switch 2213 is ON
  PictureDisplay(5,"80_succubus_st01",0,0,0,0,100,100,255,0)
  ShowMessageFace("succubus_fc1",0,0,2,1)
  ShowMessage("【サキュバス】")
  ShowMessage("おや、あなた達は……")
  ShowMessage("ずいぶん世話になって、感謝の言葉もないわ。")
  ShowMessageFace("succubus_fc1",3,0,2,2)
  ShowMessage("【サキュバス】")
  ShowMessage("あの後はまあ、色々と大変よ……")
  ShowMessage("特に、ナターシャには困ったものね。")
  ShowMessageFace("succubus_fc1",0,0,2,3)
  ShowMessage("【サキュバス】")
  ShowMessage("まあ、あの娘も私達の仲間よ。")
  ShowMessage("決して見捨てたりはしないから、安心して。")
  ShowChoices(strings("仲間になってほしい","用はない"),2)
  IfPlayerPicksChoice(0,null)
   ShowMessageFace("succubus_fc1",0,0,2,4)
   ShowMessage("【サキュバス】")
   ShowMessage("申し訳ないけれど、今は無理ね……")
   ShowMessage("ナターシャも不安定だし、側を離れるわけにはいかないわ。")
   PictureClear(5)
   EndEventProcessing()
   0()
  IfPlayerPicksChoice(1,null)
   PictureClear(5)
   EndEventProcessing()
   0()
  404()
  0()
 PAGE   3
  // condition: self-switch A is ON
  0()



EVENT   68
 PAGE   1
  ShowMessageFace("",0,0,2,1)
  ShowMessage("【メイド】")
  ShowMessage("いらっしゃいませ。")
  ShowMessage("村長は、客人を歓迎致します。")
  0()



EVENT   69
 PAGE   1
  ShowMessageFace("",0,0,2,1)
  ShowMessage("【メイド】")
  ShowMessage("今日は何のイモ料理にしましょうか……")
  0()



EVENT   70
 PAGE   1
  ShowMessageFace("",0,0,2,1)
  ShowMessage("【メイド】")
  ShowMessage("村長様は非常に素晴らしい方です。")
  ShowMessage("ただ一点、イモの事を除いては……")
  355("actor_label_jump")
  EndEventProcessing()
  DefineLabel("287")
  ShowMessageFace("succubus_fc1",0,0,2,2)
  ShowMessage("【サキュバス】")
  ShowMessage("イモがどうかしたのかしら……？")
  ShowMessageFace("",0,0,2,3)
  ShowMessage("【メイド】")
  ShowMessage("い、いえ……何でもありません。")
  EndEventProcessing()
  0()



EVENT   71
 PAGE   1
  ShowMessageFace("",0,0,2,1)
  ShowMessage("【メイド】")
  ShowMessage("かつて、サキュバスの村を大飢饉が襲った時――")
  ShowMessage("栄養源として、イモが重宝されたそうです。")
  ShowMessageFace("",0,0,2,2)
  ShowMessage("【メイド】")
  ShowMessage("その教訓を受け、村長は村の備蓄としてイモを推奨しておられます。")
  ShowMessage("ご自身で育て、料理し、近所にも配り歩き……")
  ShowMessageFace("",0,0,2,3)
  ShowMessage("【メイド】")
  ShowMessage("そういうわけで、村の者達の多くはイモが嫌いになりました。")
  ShowMessage("見るのも嫌になった、という者さえいるほどで……")
  355("actor_label_jump")
  EndEventProcessing()
  DefineLabel("287")
  ShowMessageFace("succubus_fc1",3,0,2,4)
  ShowMessage("【サキュバス】")
  ShowMessage("嘆かわしいわね……")
  EndEventProcessing()
  0()



EVENT   72
 PAGE   1
  // condition: switch 2210 is ON
  ShowMessageFace("",0,0,2,1)
  ShowMessage("【メイド】")
  ShowMessage("村長は負傷し、体を癒しておられます。")
  ShowMessage("いったい誰が、このようなひどい事を……")
  0()
 PAGE   2
  // condition: switch 2211 is ON
  ShowMessageFace("",0,0,2,1)
  ShowMessage("【メイド】")
  ShowMessage("村長は負傷し、体を癒しておられます。")
  ShowMessage("いったい誰が、このようなひどい事を……")
  0()



EVENT   73
 PAGE   1
  // condition: switch 2212 is ON
  PictureDisplay(5,"80_d_succubus_st01b",0,0,0,0,100,100,0,0)
  PictureMove(5,null,0,0,0,0,100,100,255,0,30,true)
  ShowMessageFace("d_succubus_fc1",0,0,2,1)
  ShowMessage("【ナターシャ】")
  ShowMessage("ずいぶん、ご迷惑をお掛けしましたね……")
  ShowMessage("あれ以後、私はこの屋敷でお世話になっています。")
  ShowMessageFace("d_succubus_fc1",0,0,2,2)
  ShowMessage("【ナターシャ】")
  ShowMessage("こんな私を温かく受け入れてくれた、村の皆にも感謝です。")
  ShowMessage("私の事は、ご心配なく……")
  355("actor_label_jump")
  PictureClear(5)
  EndEventProcessing()
  DefineLabel("167")
  ShowMessageFace("lusia_fc1",0,0,2,3)
  ShowMessage("【ルシア】")
  ShowMessage("無事に立ち直ってくれたようですね……")
  PictureClear(5)
  EndEventProcessing()
  0()
 PAGE   2
  // condition: switch 2213 is ON
  PictureDisplay(5,"80_d_succubus_st03b",0,0,0,0,100,100,0,0)
  PictureMove(5,null,0,0,0,0,100,100,255,0,30,true)
  ShowMessageFace("d_succubus_fc1",2,0,2,1)
  ShowMessage("【ナターシャ】")
  ShowMessage("こんな所、いつか必ず……")
  355("actor_label_jump")
  PictureClear(5)
  EndEventProcessing()
  DefineLabel("167")
  ShowMessageFace("lusia_fc1",2,0,2,2)
  ShowMessage("【ルシア】")
  ShowMessage("まだまだ更正は難しいですか……")
  PictureClear(5)
  EndEventProcessing()
  0()



EVENT   74
 PAGE   1
  ShowMessageFace("",0,0,2,1)
  ShowMessage("【メイド】")
  ShowMessage("アレリア様は、村長の遠縁の令嬢であられます。")
  ShowMessage("サキュバスの遺伝子は持たず、純粋な人間でおられるとの事。")
  ShowMessageFace("",0,0,2,2)
  ShowMessage("【メイド】")
  ShowMessage("しかし魔導の心得もあり、バトルファッカーとしてもご活躍されています。")
  ShowMessage("並のサキュバスより、よほど素質のある方なのです。")
  0()



EVENT   75
 PAGE   1
  ShowMessageFace("",0,0,2,1)
  ShowMessage("【メイド】")
  ShowMessage("ここは、ウィッチ様のお部屋ですが……")
  ShowMessage("今はお留守にされておられます。")
  ShowMessageFace("",0,0,2,2)
  ShowMessage("【メイド】")
  ShowMessage("ゴッダールの近辺にて行われる、魔女の儀式に参加するとか……")
  ShowMessage("いつ頃お帰りになるかは、私も存じません。")
  355("actor_label_jump")
  EndEventProcessing()
  DefineLabel("286")
  ShowMessageFace("witchs_fc1",0,0,2,3)
  ShowMessage("【ウィッチ】")
  ShowMessage("魔法少女の儀式は終わったけど、また長旅に出るから……")
  ShowMessage("もうしばらく、留守にするわね。")
  ShowMessageFace("",0,0,2,4)
  ShowMessage("【メイド】")
  ShowMessage("そうですか……")
  ShowMessage("お帰りをお待ちしています。")
  EndEventProcessing()
  0()



EVENT   76
 PAGE   1
  ShowMessageFace("",0,0,2,1)
  ShowMessage("【メイド】")
  ShowMessage("ここは、儀式の間……")
  ShowMessage("かつて、伝説の淫魔を召喚しようという計画もあったようです。")
  ShowMessageFace("",0,0,2,2)
  ShowMessage("【メイド】")
  ShowMessage("とはいえ大異変以来、魔物に対する世間の風当たりも弱まりました。")
  ShowMessage("この村も、そのような救い主は必要とされなくなったのです。")
  355("actor_label_jump")
  EndEventProcessing()
  DefineLabel("287")
  ShowMessageFace("succubus_fc1",3,0,2,3)
  ShowMessage("【サキュバス】")
  ShowMessage("でも……今にして、魔物と人が争う時代に逆行しつつあるわ。")
  ShowMessage("早く世の中の乱れを正さないとね。")
  EndEventProcessing()
  0()



EVENT   77
 PAGE   1
  ShowMessageFace("",0,0,2,1)
  ShowMessage("【やつれきった鍛冶屋】")
  ShowMessage("ぉぉぉぉ……")
  0()



EVENT   78
 PAGE   1
  ShowMessageFace("",0,0,2,1)
  ShowMessage("【アクセサリ屋】")
  ShowMessage("うふふっ、快楽状態異常に関わるアクセサリを扱ってるわ。")
  ShowMessage("たっぷりどうぞ……♪")
  Shop(2,1470,0,0,false)
  605(2,1473,0,0)
  605(2,1476,0,0)
  605(2,1479,0,0)
  605(2,1482,0,0)
  605(2,1580,0,0)
  605(2,1582,0,0)
  605(2,1584,0,0)
  605(2,1586,0,0)
  605(2,1588,0,0)
  0()



EVENT   79
 PAGE   1
  PictureDisplay(5,"80_renccubus_st02",0,0,0,0,100,100,0,0)
  PictureMove(5,null,0,0,0,0,100,100,255,0,30,true)
  ShowMessageFace("renccubus_fc1",2,0,2,1)
  ShowMessage("【レンキュバス】")
  ShowMessage("先日は、お恥ずかしい姿をお見せしましたね。")
  ShowMessage("今では、すっかり理性を取り戻しました。")
  If(0,6,0)
   ShowMessageFace("sonia_fc3",2,0,2,2)
   ShowMessage("【ソニア】")
   ShowMessage("理性を取り戻したって……")
   ShowMessage("食べ残しを部屋の隅っこに寄せただけじゃない！？")
   0()
  EndIf()
  ShowMessageFace("renccubus_fc1",2,0,2,3)
  ShowMessage("【レンキュバス】")
  ShowMessage("これを機に、世界に出て見聞を広げようかと思っているんです。")
  ShowMessage("よろしければ、私を連れて行ってくれませんか？")
  If(4,62,0)
   ShowMessageFace("gob_fc1",3,0,2,4)
   ShowMessage("【ゴブ】")
   ShowMessage("いいのかなぁ……？")
   0()
  EndIf()
  ShowChoices(strings("レンキュバスを仲間にする","用はない"),2)
  IfPlayerPicksChoice(0,null)
   ShowMessageFace("renccubus_fc1",2,0,2,5)
   ShowMessage("【レンキュバス】")
   ShowMessage("ありがとうございます！")
   ShowMessage("それでは、ご一緒しますね……")
   PictureClear(5)
   205(0,bytes(0x04,0x08,0x6f,0x3a,0x13,0x52,0x50,0x47,0x3a,0x3a,0x4d,0x6f,0x76,0x65,0x52,0x6f,0x75,0x74,0x65,0x09,0x3a,0x0c,0x40,0x72,0x65,0x70,0x65,0x61,0x74,0x46,0x3a,0x0f,0x40,0x73,0x6b,0x69,0x70,0x70,0x61,0x62,0x6c,0x65,0x46,0x3a,0x0a,0x40,0x77,0x61,0x69,0x74,0x54,0x3a,0x0a,0x40,0x6c,0x69,0x73,0x74,0x5b,0x09,0x6f,0x3a,0x15,0x52,0x50,0x47,0x3a,0x3a,0x4d,0x6f,0x76,0x65,0x43,0x6f,0x6d,0x6d,0x61,0x6e,0x64,0x07,0x3a,0x0a,0x40,0x63,0x6f,0x64,0x65,0x69,0x2a,0x3a,0x10,0x40,0x70,0x61,0x72,0x61,0x6d,0x65,0x74,0x65,0x72,0x73,0x5b,0x00,0x6f,0x3b,0x0a,0x07,0x3b,0x0b,0x69,0x0f,0x3b,0x0c,0x5b,0x00,0x6f,0x3b,0x0a,0x07,0x3b,0x0b,0x69,0x2c,0x3b,0x0c,0x5b,0x00,0x6f,0x3b,0x0a,0x07,0x3b,0x0b,0x69,0x00,0x3b,0x0c,0x5b,0x00))
   355("add_actor_ex(285)")
   249(bytes(0x04,0x08,0x6f,0x3a,0x0c,0x52,0x50,0x47,0x3a,0x3a,0x4d,0x45,0x08,0x3a,0x0a,0x40,0x6e,0x61,0x6d,0x65,0x49,0x22,0x0c,0x66,0x61,0x6e,0x66,0x61,0x6c,0x65,0x06,0x3a,0x06,0x45,0x54,0x3a,0x0b,0x40,0x70,0x69,0x74,0x63,0x68,0x69,0x69,0x3a,0x0c,0x40,0x76,0x6f,0x6c,0x75,0x6d,0x65,0x69,0x69))
   ShowMessageFace("",0,0,2,6)
   ShowMessage("ニーナが仲間に加わった！")
   ChangeSelfSwitch("A",0)
   Wait(60)
   If(0,1284,0)
    ShowMessageFace("minccubus_fc1",2,0,2,7)
    ShowMessage("【セーラ】")
    ShowMessage("わ～い、お姉ちゃんと冒険だ～♪")
    ShowMessageFace("renccubus_fc1",1,0,2,8)
    ShowMessage("【ニーナ】")
    ShowMessage("くすっ……あんまりお転婆しちゃいけませんよ。")
    0()
   EndIf()
   0()
  IfPlayerPicksChoice(1,null)
   PictureClear(5)
   EndEventProcessing()
   0()
  404()
  0()
 PAGE   2
  // condition: self-switch A is ON
  0()



EVENT   80
 PAGE   1
  ShowMessageFace("",0,0,2,1)
  ShowMessage("【ごろつき】")
  ShowMessage("はぅぅぅ……")
  0()



EVENT   81
 PAGE   1
  ShowMessageFace("",0,0,2,1)
  ShowMessage("【青年】")
  ShowMessage("す、吸い尽くされた……")
  0()



EVENT   82
 PAGE   1
  ShowMessageFace("",0,0,2,1)
  ShowMessage("【少年】")
  ShowMessage("もう、だめぇ……")
  0()



EVENT   83
 PAGE   1
  ShowMessageFace("",0,0,2,1)
  ShowMessage("【男】")
  ShowMessage("全部……吸われた……")
  0()



EVENT   84
 PAGE   1
  ShowMessageFace("",0,0,2,1)
  ShowMessage("【おじさん】")
  ShowMessage("ふぁぁぁ……")
  0()



EVENT   85
 PAGE   1
  ShowMessageFace("",0,0,2,1)
  ShowMessage("【青年】")
  ShowMessage("あぅぅぅぅ……")
  0()



EVENT   86
 PAGE   1
  ShowMessageFace("",0,0,2,1)
  ShowMessage("【宿屋のサキュバス】")
  ShowMessage("淫夢を見られると評判の宿……")
  ShowMessage("50Gになるけど、泊まっていくかしら？\\$")
  ShowChoices(strings("はい","いいえ"),2)
  IfPlayerPicksChoice(0,null)
   If(7,50,0)
    If(0,6,0)
     ShowMessageFace("sonia_fc1",5,0,2,2)
     ShowMessage("【ソニア】")
     ShowMessage("サービスはいっさいお断りします。")
     0()
    EndIf()
    125(1,0,50)
    221()
    249(bytes(0x04,0x08,0x6f,0x3a,0x0c,0x52,0x50,0x47,0x3a,0x3a,0x4d,0x45,0x08,0x3a,0x0a,0x40,0x6e,0x61,0x6d,0x65,0x49,0x22,0x08,0x49,0x6e,0x6e,0x06,0x3a,0x06,0x45,0x54,0x3a,0x0b,0x40,0x70,0x69,0x74,0x63,0x68,0x69,0x69,0x3a,0x0c,0x40,0x76,0x6f,0x6c,0x75,0x6d,0x65,0x69,0x69))
    Wait(150)
    314(0,0)
    222()
    0()
   Else()
    ShowMessageFace("",0,0,2,3)
    ShowMessage("【宿屋のサキュバス】")
    ShowMessage("あらあら、お金がないわよ。")
    0()
   EndIf()
   0()
  IfPlayerPicksChoice(1,null)
   0()
  404()
  EndEventProcessing()
  0()



EVENT   87
 PAGE   1
  PictureDisplay(5,"80_maccubus_st11",0,0,0,0,100,100,0,0)
  PictureMove(5,null,0,0,0,0,100,100,255,0,30,true)
  ShowMessageFace("maccubus_fc1",1,0,2,1)
  ShowMessage("【マキュバス】")
  ShowMessage("あら、あなた達は……")
  ShowMessage("あの時にお世話になった、旅の勇者君ね？")
  ShowMessageFace("maccubus_fc1",1,0,2,2)
  ShowMessage("【マキュバス】")
  ShowMessage("ねぇ、私を冒険に連れて行く気はない？")
  ShowMessage("サキュバスだらけのこの村じゃ、娼婦はあまり稼げないのよね……")
  ShowMessageFace("maccubus_fc1",3,0,2,3)
  ShowMessage("【マキュバス】")
  ShowMessage("もちろん、キミにもイイ事してあげるから……")
  ShowMessage("仲間に入れてくれるわよね？")
  If(4,203,0)
   ShowMessageFace("tatunoko_k_fc1",0,0,2,4)
   ShowMessage("【たつこ】")
   ShowMessage("いい事をする人は、大歓迎なのです！")
   ShowMessage("海軍は正義の組織なのです！")
   ShowMessageFace("maccubus_fc1",3,0,2,5)
   ShowMessage("【マキュバス】")
   ShowMessage("ふふっ、かわいい……")
   ShowMessage("この子には、悪いコトを教えてあげる♪")
   ShowMessageFace("tatunoko_k_fc1",2,0,2,6)
   ShowMessage("【たつこ】")
   ShowMessage("海兵なので、悪い事などしないのです！")
   0()
  EndIf()
  ShowChoices(strings("マキュバスを仲間にする","用はない"),2)
  IfPlayerPicksChoice(0,null)
   ShowMessageFace("maccubus_fc1",1,0,2,7)
   ShowMessage("【マキュバス】")
   ShowMessage("うふふっ、ありがと♪")
   ShowMessage("後でたっぷり、お礼をしてあげるわね……♪")
   PictureClear(5)
   205(0,bytes(0x04,0x08,0x6f,0x3a,0x13,0x52,0x50,0x47,0x3a,0x3a,0x4d,0x6f,0x76,0x65,0x52,0x6f,0x75,0x74,0x65,0x09,0x3a,0x0c,0x40,0x72,0x65,0x70,0x65,0x61,0x74,0x46,0x3a,0x0f,0x40,0x73,0x6b,0x69,0x70,0x70,0x61,0x62,0x6c,0x65,0x46,0x3a,0x0a,0x40,0x77,0x61,0x69,0x74,0x54,0x3a,0x0a,0x40,0x6c,0x69,0x73,0x74,0x5b,0x09,0x6f,0x3a,0x15,0x52,0x50,0x47,0x3a,0x3a,0x4d,0x6f,0x76,0x65,0x43,0x6f,0x6d,0x6d,0x61,0x6e,0x64,0x07,0x3a,0x0a,0x40,0x63,0x6f,0x64,0x65,0x69,0x2a,0x3a,0x10,0x40,0x70,0x61,0x72,0x61,0x6d,0x65,0x74,0x65,0x72,0x73,0x5b,0x00,0x6f,0x3b,0x0a,0x07,0x3b,0x0b,0x69,0x0f,0x3b,0x0c,0x5b,0x00,0x6f,0x3b,0x0a,0x07,0x3b,0x0b,0x69,0x2c,0x3b,0x0c,0x5b,0x00,0x6f,0x3b,0x0a,0x07,0x3b,0x0b,0x69,0x00,0x3b,0x0c,0x5b,0x00))
   355("add_actor_ex(283)")
   249(bytes(0x04,0x08,0x6f,0x3a,0x0c,0x52,0x50,0x47,0x3a,0x3a,0x4d,0x45,0x08,0x3a,0x0a,0x40,0x6e,0x61,0x6d,0x65,0x49,0x22,0x0c,0x66,0x61,0x6e,0x66,0x61,0x6c,0x65,0x06,0x3a,0x06,0x45,0x54,0x3a,0x0b,0x40,0x70,0x69,0x74,0x63,0x68,0x69,0x69,0x3a,0x0c,0x40,0x76,0x6f,0x6c,0x75,0x6d,0x65,0x69,0x69))
   ShowMessageFace("",0,0,2,8)
   ShowMessage("メリッサが仲間に加わった！")
   ChangeSelfSwitch("A",0)
   Wait(60)
   0()
  IfPlayerPicksChoice(1,null)
   PictureClear(5)
   EndEventProcessing()
   0()
  404()
  0()
 PAGE   2
  // condition: self-switch A is ON
  0()



EVENT   88
 PAGE   1
  ShowMessageFace("",0,0,2,1)
  ShowMessage("【兵士】")
  ShowMessage("はぅぅぅぅ……")
  0()



EVENT   89
 PAGE   1
  ShowMessageFace("",0,0,2,1)
  ShowMessage("【旅の剣士】")
  ShowMessage("こんなの……無理……")
  0()



EVENT   90
 PAGE   1
  ShowMessageFace("",0,0,2,1)
  ShowMessage("【戦士】")
  ShowMessage("うぐぅ……歯が立たない……")
  0()



EVENT   91
 PAGE   1
  ShowMessageFace("",0,0,2,1)
  ShowMessage("【剣士】")
  ShowMessage("なんてテクニックだ……")
  0()



EVENT   92
 PAGE   1
  ShowMessageFace("",0,0,2,1)
  ShowMessage("【戦士】")
  ShowMessage("あ、あぅぅぅ……")
  0()



EVENT   93
 PAGE   1
  ShowMessageFace("",0,0,2,1)
  ShowMessage("【ごろつき】")
  ShowMessage("ぉ……ぅぅ……")
  0()



EVENT   94
 PAGE   1
  ShowMessageFace("",0,0,2,1)
  ShowMessage("【屈強そうな男】")
  ShowMessage("あぁぁ……天国が……")
  0()



EVENT   95
 PAGE   1
  ShowMessageFace("",0,0,2,1)
  ShowMessage("【兵士】")
  ShowMessage("根こそぎ搾り取られました……")
  ShowMessage("幸せです……")
  0()



EVENT   96
 PAGE   1
  ShowMessageFace("",0,0,2,1)
  ShowMessage("【戦士】")
  ShowMessage("もう出ない……はぅぅぅ……")
  0()



EVENT   97
 PAGE   1
  // condition: switch 2183 is ON
  If(0,2231,1)
   ChangeSwitch(2231,2231,0)
   ShowMessageFace("",0,0,2,1)
   ShowMessage("【若衆Ｄ】")
   ShowMessage("ぁ……ぅぅ……")
   250(bytes(0x04,0x08,0x6f,0x3a,0x0c,0x52,0x50,0x47,0x3a,0x3a,0x53,0x45,0x08,0x3a,0x0a,0x40,0x6e,0x61,0x6d,0x65,0x49,0x22,0x11,0x6d,0x6f,0x6e,0x5f,0x66,0x61,0x6e,0x66,0x61,0x6c,0x65,0x32,0x06,0x3a,0x06,0x45,0x54,0x3a,0x0b,0x40,0x70,0x69,0x74,0x63,0x68,0x69,0x69,0x3a,0x0c,0x40,0x76,0x6f,0x6c,0x75,0x6d,0x65,0x69,0x69))
   ShowMessageFace("",0,0,2,2)
   ShowMessage("若衆を発見した！")
   ShowMessageFace("ruka_fc1",0,0,2,3)
   ShowMessage("【ルカ】")
   ShowMessage("よし、若衆Ｄを見つけたぞ！")
   ShowMessageFace("",0,0,2,4)
   ShowMessage("【若衆Ｄ】")
   ShowMessage("今は動けない、それが干物だから……")
   ShowMessageFace("ruka_fc1",0,0,2,5)
   ShowMessage("【ルカ】")
   ShowMessage("干物なら仕方ないな……")
   ShowMessageFace("",0,0,2,6)
   ShowMessage("【若衆Ｄ】")
   ShowMessage("ぁ……ぅぅ……")
   EndEventProcessing()
   0()
  Else()
   ShowMessageFace("",0,0,2,7)
   ShowMessage("【若衆Ｄ】")
   ShowMessage("ぁ……ぅぅ……")
   EndEventProcessing()
   0()
  EndIf()
  0()



EVENT   98
 PAGE   1
  ShowMessageFace("",0,0,2,1)
  ShowMessage("【青年】")
  ShowMessage("天国が見える……はぅぅ……")
  0()



EVENT   99
 PAGE   1
  ShowMessageFace("",0,0,2,1)
  ShowMessage("【男】")
  ShowMessage("は、激しすぎる……")
  0()



EVENT   100
 PAGE   1
  ShowMessageFace("",0,0,2,1)
  ShowMessage("【黒魔導師】")
  ShowMessage("あたし、女なのに……あぁぁぁ……")
  ShowMessageFace("",0,0,2,2)
  ShowMessage("【サキュバス】")
  ShowMessage("あはっ、敏感な子……♪")
  0()



EVENT   101
 PAGE   1
  ShowMessageFace("",0,0,2,1)
  ShowMessage("【サキュバス】")
  ShowMessage("うふふふっ……♪")
  ShowMessageFace("",0,0,2,2)
  ShowMessage("【剣士】")
  ShowMessage("あぁぁ……こ、こんな……")
  0()



EVENT   102
 PAGE   1
  ShowMessageFace("",0,0,2,1)
  ShowMessage("【男】")
  ShowMessage("昇天しそうだ……")
  ShowMessageFace("",0,0,2,2)
  ShowMessage("【サキュバス】")
  ShowMessage("そのまま、何度でもイっちゃえ♪")
  0()



EVENT   103
 PAGE   1
  ShowMessageFace("",0,0,2,1)
  ShowMessage("【戦士】")
  ShowMessage("おぉぉ……吸い取られる……")
  ShowMessageFace("",0,0,2,2)
  ShowMessage("【サキュバス】")
  ShowMessage("休めると思ったぁ？　うふふっ……♪")
  0()



EVENT   104
 PAGE   1
  ShowMessageFace("",0,0,2,1)
  ShowMessage("【戦士】")
  ShowMessage("おぉぉ……吸い取られる……")
  ShowMessageFace("",0,0,2,2)
  ShowMessage("【サキュバス】")
  ShowMessage("休めると思ったぁ？　うふふっ……♪")
  0()



EVENT   105
 PAGE   1
  ShowMessageFace("",0,0,2,1)
  ShowMessage("【黒魔導師】")
  ShowMessage("あたし、女なのに……あぁぁぁ……")
  ShowMessageFace("",0,0,2,2)
  ShowMessage("【サキュバス】")
  ShowMessage("あはっ、敏感な子……♪")
  0()



EVENT   106
 PAGE   1
  ShowMessageFace("",0,0,2,1)
  ShowMessage("【男】")
  ShowMessage("昇天しそうだ……")
  ShowMessageFace("",0,0,2,2)
  ShowMessage("【サキュバス】")
  ShowMessage("そのまま、何度でもイっちゃえ♪")
  0()



EVENT   107
 PAGE   1
  ShowMessageFace("",0,0,2,1)
  ShowMessage("【サキュバス】")
  ShowMessage("うふふふっ……♪")
  ShowMessageFace("",0,0,2,2)
  ShowMessage("【剣士】")
  ShowMessage("あぁぁ……こ、こんな……")
  0()



EVENT   108
 PAGE   1
  ShowMessageFace("",0,0,2,1)
  ShowMessage("【サキュバス】")
  ShowMessage("泊まっていくわよね、お客さん……♪")
  ShowMessage("たっぷりサービスするわよ♪")
  If(0,6,0)
   ShowMessageFace("sonia_fc1",5,0,2,2)
   ShowMessage("【ソニア】")
   ShowMessage("お断りします。")
   0()
  EndIf()
  0()



EVENT   109
 PAGE   1
  ShowMessageFace("",0,0,2,1)
  ShowMessage("【サキュバス】")
  ShowMessage("たくましい体なのに、ヘナチョコねぇ。")
  ShowMessage("……ごめんなさい、鍛冶屋はしばらく閉店よ。")
  0()



EVENT   110
 PAGE   1
  ShowMessageFace("",0,0,2,1)
  ShowMessage("【ごろつき】")
  ShowMessage("体が……もたない……")
  0()



EVENT   111
 PAGE   1
  ShowMessageFace("",0,0,2,1)
  ShowMessage("【男】")
  ShowMessage("ぐったり……")
  0()



EVENT   112
 PAGE   1
  ShowMessageFace("",0,0,2,1)
  ShowMessage("【旅の戦士】")
  ShowMessage("ここは……最高の宿だ……")
  0()



EVENT   113
 PAGE   1
  ShowMessageFace("",0,0,2,1)
  ShowMessage("【兵士】")
  ShowMessage("あぅぅぅぅ……")
  0()



EVENT   114
 PAGE   1
  ShowMessageFace("",0,0,2,1)
  ShowMessage("【サキュバス】")
  ShowMessage("ここで売ってるサキュバスビスチェは、私が調達しているの。")
  ShowMessage("どうやってるかは……ヒ・ミ・ツ♪")
  0()



EVENT   115
 PAGE   1
  ShowMessageFace("",0,0,2,1)
  ShowMessage("【サキュバス】")
  ShowMessage("さすがに、お腹いっぱいよ♪")
  0()



EVENT   116
 PAGE   1
  ShowMessageFace("",0,0,2,1)
  ShowMessage("【サキュバス】")
  ShowMessage("運動したあとの一杯は、最高よね……♪")
  0()



EVENT   117
 PAGE   1
  ShowMessageFace("",0,0,2,1)
  ShowMessage("【サキュバス】")
  ShowMessage("ブーストドリンク、いっぱい買わないと……")
  ShowMessage("もちろん、ブーストしてもらうためにね♪")
  0()



EVENT   118
 PAGE   1
  ShowMessageFace("",0,0,2,1)
  ShowMessage("【騎士】")
  ShowMessage("脱淫薬がいる……たくさんいる……")
  0()



EVENT   119
 PAGE   1
  ShowMessageFace("",0,0,2,1)
  ShowMessage("【サキュバス】")
  ShowMessage("さすがに一家四人サキュバスだと、食事がかさむわよね……")
  0()



EVENT   120
 PAGE   1
  ShowMessageFace("",0,0,2,1)
  ShowMessage("【サキュバス】")
  ShowMessage("男の方だって、大喜びなんだから……")
  ShowMessage("ちょっとくらい食べ散らかしても、いいわよね♪")
  0()



EVENT   121
 PAGE   1
  ShowMessageFace("",0,0,2,1)
  ShowMessage("【サキュバス】")
  ShowMessage("みんな、食べ散らかしすぎよ……")
  ShowMessage("後で帰ってもらうの、結構大変なのに。")
  0()



EVENT   122
 PAGE   1
  ShowMessageFace("",0,0,2,1)
  ShowMessage("【サキュバス】")
  ShowMessage("誤解しないでよね……")
  ShowMessage("ちゃんと同意した人からしか搾ってないんだから。")
  0()



EVENT   123
 PAGE   1
  ShowMessageFace("",0,0,2,1)
  ShowMessage("【ごろつき】")
  ShowMessage("はぅぅぅ……")
  0()



EVENT   124
 PAGE   1
  ShowMessageFace("",0,0,2,1)
  ShowMessage("【ごろつき】")
  ShowMessage("はぅぅぅ……")
  0()



EVENT   125
 PAGE   1
  ShowMessageFace("",0,0,2,1)
  ShowMessage("【ごろつき】")
  ShowMessage("はぅぅぅ……")
  0()



EVENT   126
 PAGE   1
  ShowMessageFace("",0,0,2,1)
  ShowMessage("【ごろつき】")
  ShowMessage("はぅぅぅ……")
  0()



EVENT   127
 PAGE   1
  ShowMessageFace("",0,0,2,1)
  ShowMessage("【ごろつき】")
  ShowMessage("はぅぅぅ……")
  0()



EVENT   128
 PAGE   1
  ShowMessageFace("",0,0,2,1)
  ShowMessage("【おじさん】")
  ShowMessage("うぁぁぁぁ……")
  0()



EVENT   129
 PAGE   1
  ShowMessageFace("",0,0,2,1)
  ShowMessage("【ごろつき】")
  ShowMessage("はぅぅぅ……")
  0()



EVENT   130
 PAGE   1
  ShowMessageFace("",0,0,2,1)
  ShowMessage("【ごろつき】")
  ShowMessage("はぅぅぅ……")
  0()



EVENT   131
 PAGE   1
  ShowMessageFace("",0,0,2,1)
  ShowMessage("【ごろつき】")
  ShowMessage("はぅぅぅ……")
  0()



EVENT   132
 PAGE   1
  ShowMessageFace("",0,0,2,1)
  ShowMessage("【ごろつき】")
  ShowMessage("はぅぅぅ……")
  0()



EVENT   133
 PAGE   1
  ShowMessageFace("",0,0,2,1)
  ShowMessage("【ごろつき】")
  ShowMessage("はぅぅぅ……")
  0()



EVENT   134
 PAGE   1
  ShowMessageFace("",0,0,2,1)
  ShowMessage("【ごろつき】")
  ShowMessage("はぅぅぅ……")
  0()



EVENT   135
 PAGE   1
  ShowMessageFace("",0,0,2,1)
  ShowMessage("【青年】")
  ShowMessage("あぅぅぅぅ……")
  0()



EVENT   136
 PAGE   1
  250(bytes(0x04,0x08,0x6f,0x3a,0x0c,0x52,0x50,0x47,0x3a,0x3a,0x53,0x45,0x08,0x3a,0x0a,0x40,0x6e,0x61,0x6d,0x65,0x49,0x22,0x0a,0x49,0x74,0x65,0x6d,0x31,0x06,0x3a,0x06,0x45,0x54,0x3a,0x0b,0x40,0x70,0x69,0x74,0x63,0x68,0x69,0x69,0x3a,0x0c,0x40,0x76,0x6f,0x6c,0x75,0x6d,0x65,0x69,0x55))
  ChangeSelfSwitch("A",0)
  ChangeInventory_Item(32,0,0,1)
  0()
 PAGE   2
  // condition: self-switch A is ON
  0()



EVENT   137
 PAGE   1
  250(bytes(0x04,0x08,0x6f,0x3a,0x0c,0x52,0x50,0x47,0x3a,0x3a,0x53,0x45,0x08,0x3a,0x0a,0x40,0x6e,0x61,0x6d,0x65,0x49,0x22,0x0a,0x49,0x74,0x65,0x6d,0x31,0x06,0x3a,0x06,0x45,0x54,0x3a,0x0b,0x40,0x70,0x69,0x74,0x63,0x68,0x69,0x69,0x3a,0x0c,0x40,0x76,0x6f,0x6c,0x75,0x6d,0x65,0x69,0x55))
  ChangeSelfSwitch("A",0)
  ChangeInventory_Item(222,0,0,1)
  0()
 PAGE   2
  // condition: self-switch A is ON
  0()



EVENT   138
 PAGE   1
  250(bytes(0x04,0x08,0x6f,0x3a,0x0c,0x52,0x50,0x47,0x3a,0x3a,0x53,0x45,0x08,0x3a,0x0a,0x40,0x6e,0x61,0x6d,0x65,0x49,0x22,0x0a,0x49,0x74,0x65,0x6d,0x31,0x06,0x3a,0x06,0x45,0x54,0x3a,0x0b,0x40,0x70,0x69,0x74,0x63,0x68,0x69,0x69,0x3a,0x0c,0x40,0x76,0x6f,0x6c,0x75,0x6d,0x65,0x69,0x55))
  ChangeSelfSwitch("A",0)
  ChangeInventory_Item(342,0,0,1)
  0()
 PAGE   2
  // condition: self-switch A is ON
  0()



EVENT   139
 PAGE   1
  250(bytes(0x04,0x08,0x6f,0x3a,0x0c,0x52,0x50,0x47,0x3a,0x3a,0x53,0x45,0x08,0x3a,0x0a,0x40,0x6e,0x61,0x6d,0x65,0x49,0x22,0x0a,0x49,0x74,0x65,0x6d,0x31,0x06,0x3a,0x06,0x45,0x54,0x3a,0x0b,0x40,0x70,0x69,0x74,0x63,0x68,0x69,0x69,0x3a,0x0c,0x40,0x76,0x6f,0x6c,0x75,0x6d,0x65,0x69,0x55))
  ChangeSelfSwitch("A",0)
  ChangeInventory_Item(2,0,0,1)
  0()
 PAGE   2
  // condition: self-switch A is ON
  0()



EVENT   140
 PAGE   1
  250(bytes(0x04,0x08,0x6f,0x3a,0x0c,0x52,0x50,0x47,0x3a,0x3a,0x53,0x45,0x08,0x3a,0x0a,0x40,0x6e,0x61,0x6d,0x65,0x49,0x22,0x0a,0x49,0x74,0x65,0x6d,0x31,0x06,0x3a,0x06,0x45,0x54,0x3a,0x0b,0x40,0x70,0x69,0x74,0x63,0x68,0x69,0x69,0x3a,0x0c,0x40,0x76,0x6f,0x6c,0x75,0x6d,0x65,0x69,0x55))
  ChangeSelfSwitch("A",0)
  ChangeInventory_Item(319,0,0,1)
  0()
 PAGE   2
  // condition: self-switch A is ON
  0()



EVENT   141
 PAGE   1
  250(bytes(0x04,0x08,0x6f,0x3a,0x0c,0x52,0x50,0x47,0x3a,0x3a,0x53,0x45,0x08,0x3a,0x0a,0x40,0x6e,0x61,0x6d,0x65,0x49,0x22,0x0a,0x49,0x74,0x65,0x6d,0x31,0x06,0x3a,0x06,0x45,0x54,0x3a,0x0b,0x40,0x70,0x69,0x74,0x63,0x68,0x69,0x69,0x3a,0x0c,0x40,0x76,0x6f,0x6c,0x75,0x6d,0x65,0x69,0x55))
  ChangeSelfSwitch("A",0)
  ChangeInventory_Item(319,0,0,1)
  0()
 PAGE   2
  // condition: self-switch A is ON
  0()



EVENT   142
 PAGE   1
  250(bytes(0x04,0x08,0x6f,0x3a,0x0c,0x52,0x50,0x47,0x3a,0x3a,0x53,0x45,0x08,0x3a,0x0a,0x40,0x6e,0x61,0x6d,0x65,0x49,0x22,0x0a,0x49,0x74,0x65,0x6d,0x31,0x06,0x3a,0x06,0x45,0x54,0x3a,0x0b,0x40,0x70,0x69,0x74,0x63,0x68,0x69,0x69,0x3a,0x0c,0x40,0x76,0x6f,0x6c,0x75,0x6d,0x65,0x69,0x55))
  ChangeSelfSwitch("A",0)
  ChangeInventory_Item(319,0,0,1)
  0()
 PAGE   2
  // condition: self-switch A is ON
  0()



EVENT   143
 PAGE   1
  250(bytes(0x04,0x08,0x6f,0x3a,0x0c,0x52,0x50,0x47,0x3a,0x3a,0x53,0x45,0x08,0x3a,0x0a,0x40,0x6e,0x61,0x6d,0x65,0x49,0x22,0x0a,0x49,0x74,0x65,0x6d,0x31,0x06,0x3a,0x06,0x45,0x54,0x3a,0x0b,0x40,0x70,0x69,0x74,0x63,0x68,0x69,0x69,0x3a,0x0c,0x40,0x76,0x6f,0x6c,0x75,0x6d,0x65,0x69,0x55))
  ChangeSelfSwitch("A",0)
  ChangeInventory_Item(319,0,0,1)
  0()
 PAGE   2
  // condition: self-switch A is ON
  0()



EVENT   144
 PAGE   1
  250(bytes(0x04,0x08,0x6f,0x3a,0x0c,0x52,0x50,0x47,0x3a,0x3a,0x53,0x45,0x08,0x3a,0x0a,0x40,0x6e,0x61,0x6d,0x65,0x49,0x22,0x0a,0x49,0x74,0x65,0x6d,0x31,0x06,0x3a,0x06,0x45,0x54,0x3a,0x0b,0x40,0x70,0x69,0x74,0x63,0x68,0x69,0x69,0x3a,0x0c,0x40,0x76,0x6f,0x6c,0x75,0x6d,0x65,0x69,0x55))
  ChangeSelfSwitch("A",0)
  ChangeInventory_Item(319,0,0,1)
  0()
 PAGE   2
  // condition: self-switch A is ON
  0()



EVENT   145
 PAGE   1
  250(bytes(0x04,0x08,0x6f,0x3a,0x0c,0x52,0x50,0x47,0x3a,0x3a,0x53,0x45,0x08,0x3a,0x0a,0x40,0x6e,0x61,0x6d,0x65,0x49,0x22,0x0a,0x49,0x74,0x65,0x6d,0x31,0x06,0x3a,0x06,0x45,0x54,0x3a,0x0b,0x40,0x70,0x69,0x74,0x63,0x68,0x69,0x69,0x3a,0x0c,0x40,0x76,0x6f,0x6c,0x75,0x6d,0x65,0x69,0x55))
  ChangeSelfSwitch("A",0)
  ChangeInventory_Item(319,0,0,1)
  0()
 PAGE   2
  // condition: self-switch A is ON
  0()



EVENT   146
 PAGE   1
  250(bytes(0x04,0x08,0x6f,0x3a,0x0c,0x52,0x50,0x47,0x3a,0x3a,0x53,0x45,0x08,0x3a,0x0a,0x40,0x6e,0x61,0x6d,0x65,0x49,0x22,0x0a,0x49,0x74,0x65,0x6d,0x31,0x06,0x3a,0x06,0x45,0x54,0x3a,0x0b,0x40,0x70,0x69,0x74,0x63,0x68,0x69,0x69,0x3a,0x0c,0x40,0x76,0x6f,0x6c,0x75,0x6d,0x65,0x69,0x55))
  ChangeSelfSwitch("A",0)
  ChangeInventory_Item(319,0,0,1)
  0()
 PAGE   2
  // condition: self-switch A is ON
  0()



EVENT   147
 PAGE   1
  250(bytes(0x04,0x08,0x6f,0x3a,0x0c,0x52,0x50,0x47,0x3a,0x3a,0x53,0x45,0x08,0x3a,0x0a,0x40,0x6e,0x61,0x6d,0x65,0x49,0x22,0x0a,0x49,0x74,0x65,0x6d,0x31,0x06,0x3a,0x06,0x45,0x54,0x3a,0x0b,0x40,0x70,0x69,0x74,0x63,0x68,0x69,0x69,0x3a,0x0c,0x40,0x76,0x6f,0x6c,0x75,0x6d,0x65,0x69,0x55))
  ChangeSelfSwitch("A",0)
  ChangeInventory_Item(319,0,0,1)
  0()
 PAGE   2
  // condition: self-switch A is ON
  0()



EVENT   148
 PAGE   1
  250(bytes(0x04,0x08,0x6f,0x3a,0x0c,0x52,0x50,0x47,0x3a,0x3a,0x53,0x45,0x08,0x3a,0x0a,0x40,0x6e,0x61,0x6d,0x65,0x49,0x22,0x0a,0x48,0x65,0x61,0x6c,0x37,0x06,0x3a,0x06,0x45,0x54,0x3a,0x0b,0x40,0x70,0x69,0x74,0x63,0x68,0x69,0x69,0x3a,0x0c,0x40,0x76,0x6f,0x6c,0x75,0x6d,0x65,0x69,0x55))
  224(bytes(0x04,0x08,0x75,0x3a,0x0a,0x43,0x6f,0x6c,0x6f,0x72,0x25,0x00,0x00,0x00,0x00,0x00,0xe0,0x6f,0x40,0x00,0x00,0x00,0x00,0x00,0xe0,0x6f,0x40,0x00,0x00,0x00,0x00,0x00,0xe0,0x6f,0x40,0x00,0x00,0x00,0x00,0x00,0xe0,0x6f,0x40),30,true)
  314(0,0)
  ShowMessageFace("",0,0,2,1)
  ShowMessage("The party's HP and MP have been fully restored!")
  0()
