﻿
DisplayName "Gold Port"



EVENT   1
 PAGE   1
  0()



EVENT   2
 PAGE   1
  0()



EVENT   3
 PAGE   1
  0()



EVENT   4
 PAGE   1
  0()



EVENT   5
 PAGE   1
  0()



EVENT   6
 PAGE   1
  0()



EVENT   7
 PAGE   1
  0()



EVENT   8
 PAGE   1
  250(bytes(0x04,0x08,0x6f,0x3a,0x0c,0x52,0x50,0x47,0x3a,0x3a,0x53,0x45,0x08,0x3a,0x0a,0x40,0x6e,0x61,0x6d,0x65,0x49,0x22,0x09,0x4d,0x6f,0x76,0x65,0x06,0x3a,0x06,0x45,0x54,0x3a,0x0b,0x40,0x70,0x69,0x74,0x63,0x68,0x69,0x69,0x3a,0x0c,0x40,0x76,0x6f,0x6c,0x75,0x6d,0x65,0x69,0x55))
  TeleportPlayer(0,2,234,130,2,0)
  0()



EVENT   9
 PAGE   1
  0()



EVENT   10
 PAGE   1
  250(bytes(0x04,0x08,0x6f,0x3a,0x0c,0x52,0x50,0x47,0x3a,0x3a,0x53,0x45,0x08,0x3a,0x0a,0x40,0x6e,0x61,0x6d,0x65,0x49,0x22,0x09,0x4d,0x6f,0x76,0x65,0x06,0x3a,0x06,0x45,0x54,0x3a,0x0b,0x40,0x70,0x69,0x74,0x63,0x68,0x69,0x69,0x3a,0x0c,0x40,0x76,0x6f,0x6c,0x75,0x6d,0x65,0x69,0x55))
  TeleportPlayer(0,2,234,130,2,0)
  0()



EVENT   11
 PAGE   1
  0()



EVENT   12
 PAGE   1
  0()



EVENT   13
 PAGE   1
  0()



EVENT   14
 PAGE   1
  ShowMessageFace("",0,0,2,1)
  ShowMessage("ルカは仲間を外に待たせ、一人で民家に入った……")
  216(1)
  250(bytes(0x04,0x08,0x6f,0x3a,0x0c,0x52,0x50,0x47,0x3a,0x3a,0x53,0x45,0x08,0x3a,0x0a,0x40,0x6e,0x61,0x6d,0x65,0x49,0x22,0x0a,0x4f,0x70,0x65,0x6e,0x31,0x06,0x3a,0x06,0x45,0x54,0x3a,0x0b,0x40,0x70,0x69,0x74,0x63,0x68,0x69,0x69,0x3a,0x0c,0x40,0x76,0x6f,0x6c,0x75,0x6d,0x65,0x69,0x55))
  205(0,bytes(0x04,0x08,0x6f,0x3a,0x13,0x52,0x50,0x47,0x3a,0x3a,0x4d,0x6f,0x76,0x65,0x52,0x6f,0x75,0x74,0x65,0x09,0x3a,0x0c,0x40,0x72,0x65,0x70,0x65,0x61,0x74,0x46,0x3a,0x0f,0x40,0x73,0x6b,0x69,0x70,0x70,0x61,0x62,0x6c,0x65,0x46,0x3a,0x0a,0x40,0x77,0x61,0x69,0x74,0x54,0x3a,0x0a,0x40,0x6c,0x69,0x73,0x74,0x5b,0x0c,0x6f,0x3a,0x15,0x52,0x50,0x47,0x3a,0x3a,0x4d,0x6f,0x76,0x65,0x43,0x6f,0x6d,0x6d,0x61,0x6e,0x64,0x07,0x3a,0x0a,0x40,0x63,0x6f,0x64,0x65,0x69,0x16,0x3a,0x10,0x40,0x70,0x61,0x72,0x61,0x6d,0x65,0x74,0x65,0x72,0x73,0x5b,0x00,0x6f,0x3b,0x0a,0x07,0x3b,0x0b,0x69,0x14,0x3b,0x0c,0x5b,0x06,0x69,0x08,0x6f,0x3b,0x0a,0x07,0x3b,0x0b,0x69,0x17,0x3b,0x0c,0x5b,0x00,0x6f,0x3b,0x0a,0x07,0x3b,0x0b,0x69,0x14,0x3b,0x0c,0x5b,0x06,0x69,0x08,0x6f,0x3b,0x0a,0x07,0x3b,0x0b,0x69,0x18,0x3b,0x0c,0x5b,0x00,0x6f,0x3b,0x0a,0x07,0x3b,0x0b,0x69,0x2a,0x3b,0x0c,0x5b,0x00,0x6f,0x3b,0x0a,0x07,0x3b,0x0b,0x69,0x00,0x3b,0x0c,0x5b,0x00))
  205(-1,bytes(0x04,0x08,0x6f,0x3a,0x13,0x52,0x50,0x47,0x3a,0x3a,0x4d,0x6f,0x76,0x65,0x52,0x6f,0x75,0x74,0x65,0x09,0x3a,0x0c,0x40,0x72,0x65,0x70,0x65,0x61,0x74,0x46,0x3a,0x0f,0x40,0x73,0x6b,0x69,0x70,0x70,0x61,0x62,0x6c,0x65,0x54,0x3a,0x0a,0x40,0x77,0x61,0x69,0x74,0x54,0x3a,0x0a,0x40,0x6c,0x69,0x73,0x74,0x5b,0x07,0x6f,0x3a,0x15,0x52,0x50,0x47,0x3a,0x3a,0x4d,0x6f,0x76,0x65,0x43,0x6f,0x6d,0x6d,0x61,0x6e,0x64,0x07,0x3a,0x0a,0x40,0x63,0x6f,0x64,0x65,0x69,0x11,0x3a,0x10,0x40,0x70,0x61,0x72,0x61,0x6d,0x65,0x74,0x65,0x72,0x73,0x5b,0x00,0x6f,0x3b,0x0a,0x07,0x3b,0x0b,0x69,0x00,0x3b,0x0c,0x5b,0x00))
  250(bytes(0x04,0x08,0x6f,0x3a,0x0c,0x52,0x50,0x47,0x3a,0x3a,0x53,0x45,0x08,0x3a,0x0a,0x40,0x6e,0x61,0x6d,0x65,0x49,0x22,0x09,0x4d,0x6f,0x76,0x65,0x06,0x3a,0x06,0x45,0x54,0x3a,0x0b,0x40,0x70,0x69,0x74,0x63,0x68,0x69,0x69,0x3a,0x0c,0x40,0x76,0x6f,0x6c,0x75,0x6d,0x65,0x69,0x55))
  TeleportPlayer(0,144,5,16,0,0)
  0()



EVENT   15
 PAGE   1
  250(bytes(0x04,0x08,0x6f,0x3a,0x0c,0x52,0x50,0x47,0x3a,0x3a,0x53,0x45,0x08,0x3a,0x0a,0x40,0x6e,0x61,0x6d,0x65,0x49,0x22,0x0a,0x4f,0x70,0x65,0x6e,0x31,0x06,0x3a,0x06,0x45,0x54,0x3a,0x0b,0x40,0x70,0x69,0x74,0x63,0x68,0x69,0x69,0x3a,0x0c,0x40,0x76,0x6f,0x6c,0x75,0x6d,0x65,0x69,0x55))
  205(0,bytes(0x04,0x08,0x6f,0x3a,0x13,0x52,0x50,0x47,0x3a,0x3a,0x4d,0x6f,0x76,0x65,0x52,0x6f,0x75,0x74,0x65,0x09,0x3a,0x0c,0x40,0x72,0x65,0x70,0x65,0x61,0x74,0x46,0x3a,0x0f,0x40,0x73,0x6b,0x69,0x70,0x70,0x61,0x62,0x6c,0x65,0x46,0x3a,0x0a,0x40,0x77,0x61,0x69,0x74,0x54,0x3a,0x0a,0x40,0x6c,0x69,0x73,0x74,0x5b,0x0c,0x6f,0x3a,0x15,0x52,0x50,0x47,0x3a,0x3a,0x4d,0x6f,0x76,0x65,0x43,0x6f,0x6d,0x6d,0x61,0x6e,0x64,0x07,0x3a,0x0a,0x40,0x63,0x6f,0x64,0x65,0x69,0x16,0x3a,0x10,0x40,0x70,0x61,0x72,0x61,0x6d,0x65,0x74,0x65,0x72,0x73,0x5b,0x00,0x6f,0x3b,0x0a,0x07,0x3b,0x0b,0x69,0x14,0x3b,0x0c,0x5b,0x06,0x69,0x08,0x6f,0x3b,0x0a,0x07,0x3b,0x0b,0x69,0x17,0x3b,0x0c,0x5b,0x00,0x6f,0x3b,0x0a,0x07,0x3b,0x0b,0x69,0x14,0x3b,0x0c,0x5b,0x06,0x69,0x08,0x6f,0x3b,0x0a,0x07,0x3b,0x0b,0x69,0x18,0x3b,0x0c,0x5b,0x00,0x6f,0x3b,0x0a,0x07,0x3b,0x0b,0x69,0x2a,0x3b,0x0c,0x5b,0x00,0x6f,0x3b,0x0a,0x07,0x3b,0x0b,0x69,0x00,0x3b,0x0c,0x5b,0x00))
  205(-1,bytes(0x04,0x08,0x6f,0x3a,0x13,0x52,0x50,0x47,0x3a,0x3a,0x4d,0x6f,0x76,0x65,0x52,0x6f,0x75,0x74,0x65,0x09,0x3a,0x0c,0x40,0x72,0x65,0x70,0x65,0x61,0x74,0x46,0x3a,0x0f,0x40,0x73,0x6b,0x69,0x70,0x70,0x61,0x62,0x6c,0x65,0x54,0x3a,0x0a,0x40,0x77,0x61,0x69,0x74,0x54,0x3a,0x0a,0x40,0x6c,0x69,0x73,0x74,0x5b,0x07,0x6f,0x3a,0x15,0x52,0x50,0x47,0x3a,0x3a,0x4d,0x6f,0x76,0x65,0x43,0x6f,0x6d,0x6d,0x61,0x6e,0x64,0x07,0x3a,0x0a,0x40,0x63,0x6f,0x64,0x65,0x69,0x11,0x3a,0x10,0x40,0x70,0x61,0x72,0x61,0x6d,0x65,0x74,0x65,0x72,0x73,0x5b,0x00,0x6f,0x3b,0x0a,0x07,0x3b,0x0b,0x69,0x00,0x3b,0x0c,0x5b,0x00))
  250(bytes(0x04,0x08,0x6f,0x3a,0x0c,0x52,0x50,0x47,0x3a,0x3a,0x53,0x45,0x08,0x3a,0x0a,0x40,0x6e,0x61,0x6d,0x65,0x49,0x22,0x09,0x4d,0x6f,0x76,0x65,0x06,0x3a,0x06,0x45,0x54,0x3a,0x0b,0x40,0x70,0x69,0x74,0x63,0x68,0x69,0x69,0x3a,0x0c,0x40,0x76,0x6f,0x6c,0x75,0x6d,0x65,0x69,0x55))
  TeleportPlayer(0,144,40,40,0,0)
  0()



EVENT   16
 PAGE   1
  250(bytes(0x04,0x08,0x6f,0x3a,0x0c,0x52,0x50,0x47,0x3a,0x3a,0x53,0x45,0x08,0x3a,0x0a,0x40,0x6e,0x61,0x6d,0x65,0x49,0x22,0x0a,0x4f,0x70,0x65,0x6e,0x31,0x06,0x3a,0x06,0x45,0x54,0x3a,0x0b,0x40,0x70,0x69,0x74,0x63,0x68,0x69,0x69,0x3a,0x0c,0x40,0x76,0x6f,0x6c,0x75,0x6d,0x65,0x69,0x55))
  205(0,bytes(0x04,0x08,0x6f,0x3a,0x13,0x52,0x50,0x47,0x3a,0x3a,0x4d,0x6f,0x76,0x65,0x52,0x6f,0x75,0x74,0x65,0x09,0x3a,0x0c,0x40,0x72,0x65,0x70,0x65,0x61,0x74,0x46,0x3a,0x0f,0x40,0x73,0x6b,0x69,0x70,0x70,0x61,0x62,0x6c,0x65,0x46,0x3a,0x0a,0x40,0x77,0x61,0x69,0x74,0x54,0x3a,0x0a,0x40,0x6c,0x69,0x73,0x74,0x5b,0x0c,0x6f,0x3a,0x15,0x52,0x50,0x47,0x3a,0x3a,0x4d,0x6f,0x76,0x65,0x43,0x6f,0x6d,0x6d,0x61,0x6e,0x64,0x07,0x3a,0x0a,0x40,0x63,0x6f,0x64,0x65,0x69,0x16,0x3a,0x10,0x40,0x70,0x61,0x72,0x61,0x6d,0x65,0x74,0x65,0x72,0x73,0x5b,0x00,0x6f,0x3b,0x0a,0x07,0x3b,0x0b,0x69,0x14,0x3b,0x0c,0x5b,0x06,0x69,0x08,0x6f,0x3b,0x0a,0x07,0x3b,0x0b,0x69,0x17,0x3b,0x0c,0x5b,0x00,0x6f,0x3b,0x0a,0x07,0x3b,0x0b,0x69,0x14,0x3b,0x0c,0x5b,0x06,0x69,0x08,0x6f,0x3b,0x0a,0x07,0x3b,0x0b,0x69,0x18,0x3b,0x0c,0x5b,0x00,0x6f,0x3b,0x0a,0x07,0x3b,0x0b,0x69,0x2a,0x3b,0x0c,0x5b,0x00,0x6f,0x3b,0x0a,0x07,0x3b,0x0b,0x69,0x00,0x3b,0x0c,0x5b,0x00))
  205(-1,bytes(0x04,0x08,0x6f,0x3a,0x13,0x52,0x50,0x47,0x3a,0x3a,0x4d,0x6f,0x76,0x65,0x52,0x6f,0x75,0x74,0x65,0x09,0x3a,0x0c,0x40,0x72,0x65,0x70,0x65,0x61,0x74,0x46,0x3a,0x0f,0x40,0x73,0x6b,0x69,0x70,0x70,0x61,0x62,0x6c,0x65,0x54,0x3a,0x0a,0x40,0x77,0x61,0x69,0x74,0x54,0x3a,0x0a,0x40,0x6c,0x69,0x73,0x74,0x5b,0x07,0x6f,0x3a,0x15,0x52,0x50,0x47,0x3a,0x3a,0x4d,0x6f,0x76,0x65,0x43,0x6f,0x6d,0x6d,0x61,0x6e,0x64,0x07,0x3a,0x0a,0x40,0x63,0x6f,0x64,0x65,0x69,0x11,0x3a,0x10,0x40,0x70,0x61,0x72,0x61,0x6d,0x65,0x74,0x65,0x72,0x73,0x5b,0x00,0x6f,0x3b,0x0a,0x07,0x3b,0x0b,0x69,0x00,0x3b,0x0c,0x5b,0x00))
  250(bytes(0x04,0x08,0x6f,0x3a,0x0c,0x52,0x50,0x47,0x3a,0x3a,0x53,0x45,0x08,0x3a,0x0a,0x40,0x6e,0x61,0x6d,0x65,0x49,0x22,0x09,0x4d,0x6f,0x76,0x65,0x06,0x3a,0x06,0x45,0x54,0x3a,0x0b,0x40,0x70,0x69,0x74,0x63,0x68,0x69,0x69,0x3a,0x0c,0x40,0x76,0x6f,0x6c,0x75,0x6d,0x65,0x69,0x55))
  TeleportPlayer(0,144,57,16,0,0)
  0()



EVENT   17
 PAGE   1
  250(bytes(0x04,0x08,0x6f,0x3a,0x0c,0x52,0x50,0x47,0x3a,0x3a,0x53,0x45,0x08,0x3a,0x0a,0x40,0x6e,0x61,0x6d,0x65,0x49,0x22,0x0a,0x4f,0x70,0x65,0x6e,0x31,0x06,0x3a,0x06,0x45,0x54,0x3a,0x0b,0x40,0x70,0x69,0x74,0x63,0x68,0x69,0x69,0x3a,0x0c,0x40,0x76,0x6f,0x6c,0x75,0x6d,0x65,0x69,0x55))
  205(0,bytes(0x04,0x08,0x6f,0x3a,0x13,0x52,0x50,0x47,0x3a,0x3a,0x4d,0x6f,0x76,0x65,0x52,0x6f,0x75,0x74,0x65,0x09,0x3a,0x0c,0x40,0x72,0x65,0x70,0x65,0x61,0x74,0x46,0x3a,0x0f,0x40,0x73,0x6b,0x69,0x70,0x70,0x61,0x62,0x6c,0x65,0x46,0x3a,0x0a,0x40,0x77,0x61,0x69,0x74,0x54,0x3a,0x0a,0x40,0x6c,0x69,0x73,0x74,0x5b,0x0c,0x6f,0x3a,0x15,0x52,0x50,0x47,0x3a,0x3a,0x4d,0x6f,0x76,0x65,0x43,0x6f,0x6d,0x6d,0x61,0x6e,0x64,0x07,0x3a,0x0a,0x40,0x63,0x6f,0x64,0x65,0x69,0x16,0x3a,0x10,0x40,0x70,0x61,0x72,0x61,0x6d,0x65,0x74,0x65,0x72,0x73,0x5b,0x00,0x6f,0x3b,0x0a,0x07,0x3b,0x0b,0x69,0x14,0x3b,0x0c,0x5b,0x06,0x69,0x08,0x6f,0x3b,0x0a,0x07,0x3b,0x0b,0x69,0x17,0x3b,0x0c,0x5b,0x00,0x6f,0x3b,0x0a,0x07,0x3b,0x0b,0x69,0x14,0x3b,0x0c,0x5b,0x06,0x69,0x08,0x6f,0x3b,0x0a,0x07,0x3b,0x0b,0x69,0x18,0x3b,0x0c,0x5b,0x00,0x6f,0x3b,0x0a,0x07,0x3b,0x0b,0x69,0x2a,0x3b,0x0c,0x5b,0x00,0x6f,0x3b,0x0a,0x07,0x3b,0x0b,0x69,0x00,0x3b,0x0c,0x5b,0x00))
  205(-1,bytes(0x04,0x08,0x6f,0x3a,0x13,0x52,0x50,0x47,0x3a,0x3a,0x4d,0x6f,0x76,0x65,0x52,0x6f,0x75,0x74,0x65,0x09,0x3a,0x0c,0x40,0x72,0x65,0x70,0x65,0x61,0x74,0x46,0x3a,0x0f,0x40,0x73,0x6b,0x69,0x70,0x70,0x61,0x62,0x6c,0x65,0x54,0x3a,0x0a,0x40,0x77,0x61,0x69,0x74,0x54,0x3a,0x0a,0x40,0x6c,0x69,0x73,0x74,0x5b,0x07,0x6f,0x3a,0x15,0x52,0x50,0x47,0x3a,0x3a,0x4d,0x6f,0x76,0x65,0x43,0x6f,0x6d,0x6d,0x61,0x6e,0x64,0x07,0x3a,0x0a,0x40,0x63,0x6f,0x64,0x65,0x69,0x11,0x3a,0x10,0x40,0x70,0x61,0x72,0x61,0x6d,0x65,0x74,0x65,0x72,0x73,0x5b,0x00,0x6f,0x3b,0x0a,0x07,0x3b,0x0b,0x69,0x00,0x3b,0x0c,0x5b,0x00))
  250(bytes(0x04,0x08,0x6f,0x3a,0x0c,0x52,0x50,0x47,0x3a,0x3a,0x53,0x45,0x08,0x3a,0x0a,0x40,0x6e,0x61,0x6d,0x65,0x49,0x22,0x09,0x4d,0x6f,0x76,0x65,0x06,0x3a,0x06,0x45,0x54,0x3a,0x0b,0x40,0x70,0x69,0x74,0x63,0x68,0x69,0x69,0x3a,0x0c,0x40,0x76,0x6f,0x6c,0x75,0x6d,0x65,0x69,0x55))
  TeleportPlayer(0,144,55,39,0,0)
  0()



EVENT   18
 PAGE   1
  250(bytes(0x04,0x08,0x6f,0x3a,0x0c,0x52,0x50,0x47,0x3a,0x3a,0x53,0x45,0x08,0x3a,0x0a,0x40,0x6e,0x61,0x6d,0x65,0x49,0x22,0x0a,0x4f,0x70,0x65,0x6e,0x31,0x06,0x3a,0x06,0x45,0x54,0x3a,0x0b,0x40,0x70,0x69,0x74,0x63,0x68,0x69,0x69,0x3a,0x0c,0x40,0x76,0x6f,0x6c,0x75,0x6d,0x65,0x69,0x55))
  205(0,bytes(0x04,0x08,0x6f,0x3a,0x13,0x52,0x50,0x47,0x3a,0x3a,0x4d,0x6f,0x76,0x65,0x52,0x6f,0x75,0x74,0x65,0x09,0x3a,0x0c,0x40,0x72,0x65,0x70,0x65,0x61,0x74,0x46,0x3a,0x0f,0x40,0x73,0x6b,0x69,0x70,0x70,0x61,0x62,0x6c,0x65,0x46,0x3a,0x0a,0x40,0x77,0x61,0x69,0x74,0x54,0x3a,0x0a,0x40,0x6c,0x69,0x73,0x74,0x5b,0x0c,0x6f,0x3a,0x15,0x52,0x50,0x47,0x3a,0x3a,0x4d,0x6f,0x76,0x65,0x43,0x6f,0x6d,0x6d,0x61,0x6e,0x64,0x07,0x3a,0x0a,0x40,0x63,0x6f,0x64,0x65,0x69,0x16,0x3a,0x10,0x40,0x70,0x61,0x72,0x61,0x6d,0x65,0x74,0x65,0x72,0x73,0x5b,0x00,0x6f,0x3b,0x0a,0x07,0x3b,0x0b,0x69,0x14,0x3b,0x0c,0x5b,0x06,0x69,0x08,0x6f,0x3b,0x0a,0x07,0x3b,0x0b,0x69,0x17,0x3b,0x0c,0x5b,0x00,0x6f,0x3b,0x0a,0x07,0x3b,0x0b,0x69,0x14,0x3b,0x0c,0x5b,0x06,0x69,0x08,0x6f,0x3b,0x0a,0x07,0x3b,0x0b,0x69,0x18,0x3b,0x0c,0x5b,0x00,0x6f,0x3b,0x0a,0x07,0x3b,0x0b,0x69,0x2a,0x3b,0x0c,0x5b,0x00,0x6f,0x3b,0x0a,0x07,0x3b,0x0b,0x69,0x00,0x3b,0x0c,0x5b,0x00))
  205(-1,bytes(0x04,0x08,0x6f,0x3a,0x13,0x52,0x50,0x47,0x3a,0x3a,0x4d,0x6f,0x76,0x65,0x52,0x6f,0x75,0x74,0x65,0x09,0x3a,0x0c,0x40,0x72,0x65,0x70,0x65,0x61,0x74,0x46,0x3a,0x0f,0x40,0x73,0x6b,0x69,0x70,0x70,0x61,0x62,0x6c,0x65,0x54,0x3a,0x0a,0x40,0x77,0x61,0x69,0x74,0x54,0x3a,0x0a,0x40,0x6c,0x69,0x73,0x74,0x5b,0x07,0x6f,0x3a,0x15,0x52,0x50,0x47,0x3a,0x3a,0x4d,0x6f,0x76,0x65,0x43,0x6f,0x6d,0x6d,0x61,0x6e,0x64,0x07,0x3a,0x0a,0x40,0x63,0x6f,0x64,0x65,0x69,0x11,0x3a,0x10,0x40,0x70,0x61,0x72,0x61,0x6d,0x65,0x74,0x65,0x72,0x73,0x5b,0x00,0x6f,0x3b,0x0a,0x07,0x3b,0x0b,0x69,0x00,0x3b,0x0c,0x5b,0x00))
  250(bytes(0x04,0x08,0x6f,0x3a,0x0c,0x52,0x50,0x47,0x3a,0x3a,0x53,0x45,0x08,0x3a,0x0a,0x40,0x6e,0x61,0x6d,0x65,0x49,0x22,0x09,0x4d,0x6f,0x76,0x65,0x06,0x3a,0x06,0x45,0x54,0x3a,0x0b,0x40,0x70,0x69,0x74,0x63,0x68,0x69,0x69,0x3a,0x0c,0x40,0x76,0x6f,0x6c,0x75,0x6d,0x65,0x69,0x55))
  TeleportPlayer(0,144,14,36,0,0)
  0()



EVENT   19
 PAGE   1
  250(bytes(0x04,0x08,0x6f,0x3a,0x0c,0x52,0x50,0x47,0x3a,0x3a,0x53,0x45,0x08,0x3a,0x0a,0x40,0x6e,0x61,0x6d,0x65,0x49,0x22,0x0a,0x4f,0x70,0x65,0x6e,0x31,0x06,0x3a,0x06,0x45,0x54,0x3a,0x0b,0x40,0x70,0x69,0x74,0x63,0x68,0x69,0x69,0x3a,0x0c,0x40,0x76,0x6f,0x6c,0x75,0x6d,0x65,0x69,0x55))
  205(0,bytes(0x04,0x08,0x6f,0x3a,0x13,0x52,0x50,0x47,0x3a,0x3a,0x4d,0x6f,0x76,0x65,0x52,0x6f,0x75,0x74,0x65,0x09,0x3a,0x0c,0x40,0x72,0x65,0x70,0x65,0x61,0x74,0x46,0x3a,0x0f,0x40,0x73,0x6b,0x69,0x70,0x70,0x61,0x62,0x6c,0x65,0x46,0x3a,0x0a,0x40,0x77,0x61,0x69,0x74,0x54,0x3a,0x0a,0x40,0x6c,0x69,0x73,0x74,0x5b,0x0c,0x6f,0x3a,0x15,0x52,0x50,0x47,0x3a,0x3a,0x4d,0x6f,0x76,0x65,0x43,0x6f,0x6d,0x6d,0x61,0x6e,0x64,0x07,0x3a,0x0a,0x40,0x63,0x6f,0x64,0x65,0x69,0x16,0x3a,0x10,0x40,0x70,0x61,0x72,0x61,0x6d,0x65,0x74,0x65,0x72,0x73,0x5b,0x00,0x6f,0x3b,0x0a,0x07,0x3b,0x0b,0x69,0x14,0x3b,0x0c,0x5b,0x06,0x69,0x08,0x6f,0x3b,0x0a,0x07,0x3b,0x0b,0x69,0x17,0x3b,0x0c,0x5b,0x00,0x6f,0x3b,0x0a,0x07,0x3b,0x0b,0x69,0x14,0x3b,0x0c,0x5b,0x06,0x69,0x08,0x6f,0x3b,0x0a,0x07,0x3b,0x0b,0x69,0x18,0x3b,0x0c,0x5b,0x00,0x6f,0x3b,0x0a,0x07,0x3b,0x0b,0x69,0x2a,0x3b,0x0c,0x5b,0x00,0x6f,0x3b,0x0a,0x07,0x3b,0x0b,0x69,0x00,0x3b,0x0c,0x5b,0x00))
  205(-1,bytes(0x04,0x08,0x6f,0x3a,0x13,0x52,0x50,0x47,0x3a,0x3a,0x4d,0x6f,0x76,0x65,0x52,0x6f,0x75,0x74,0x65,0x09,0x3a,0x0c,0x40,0x72,0x65,0x70,0x65,0x61,0x74,0x46,0x3a,0x0f,0x40,0x73,0x6b,0x69,0x70,0x70,0x61,0x62,0x6c,0x65,0x54,0x3a,0x0a,0x40,0x77,0x61,0x69,0x74,0x54,0x3a,0x0a,0x40,0x6c,0x69,0x73,0x74,0x5b,0x07,0x6f,0x3a,0x15,0x52,0x50,0x47,0x3a,0x3a,0x4d,0x6f,0x76,0x65,0x43,0x6f,0x6d,0x6d,0x61,0x6e,0x64,0x07,0x3a,0x0a,0x40,0x63,0x6f,0x64,0x65,0x69,0x11,0x3a,0x10,0x40,0x70,0x61,0x72,0x61,0x6d,0x65,0x74,0x65,0x72,0x73,0x5b,0x00,0x6f,0x3b,0x0a,0x07,0x3b,0x0b,0x69,0x00,0x3b,0x0c,0x5b,0x00))
  250(bytes(0x04,0x08,0x6f,0x3a,0x0c,0x52,0x50,0x47,0x3a,0x3a,0x53,0x45,0x08,0x3a,0x0a,0x40,0x6e,0x61,0x6d,0x65,0x49,0x22,0x09,0x4d,0x6f,0x76,0x65,0x06,0x3a,0x06,0x45,0x54,0x3a,0x0b,0x40,0x70,0x69,0x74,0x63,0x68,0x69,0x69,0x3a,0x0c,0x40,0x76,0x6f,0x6c,0x75,0x6d,0x65,0x69,0x55))
  TeleportPlayer(0,144,14,58,0,0)
  0()



EVENT   20
 PAGE   1
  250(bytes(0x04,0x08,0x6f,0x3a,0x0c,0x52,0x50,0x47,0x3a,0x3a,0x53,0x45,0x08,0x3a,0x0a,0x40,0x6e,0x61,0x6d,0x65,0x49,0x22,0x09,0x4d,0x6f,0x76,0x65,0x06,0x3a,0x06,0x45,0x54,0x3a,0x0b,0x40,0x70,0x69,0x74,0x63,0x68,0x69,0x69,0x3a,0x0c,0x40,0x76,0x6f,0x6c,0x75,0x6d,0x65,0x69,0x55))
  TeleportPlayer(0,2,234,130,2,0)
  0()



EVENT   21
 PAGE   1
  250(bytes(0x04,0x08,0x6f,0x3a,0x0c,0x52,0x50,0x47,0x3a,0x3a,0x53,0x45,0x08,0x3a,0x0a,0x40,0x6e,0x61,0x6d,0x65,0x49,0x22,0x09,0x4d,0x6f,0x76,0x65,0x06,0x3a,0x06,0x45,0x54,0x3a,0x0b,0x40,0x70,0x69,0x74,0x63,0x68,0x69,0x69,0x3a,0x0c,0x40,0x76,0x6f,0x6c,0x75,0x6d,0x65,0x69,0x55))
  TeleportPlayer(0,2,234,130,2,0)
  0()



EVENT   22
 PAGE   1
  250(bytes(0x04,0x08,0x6f,0x3a,0x0c,0x52,0x50,0x47,0x3a,0x3a,0x53,0x45,0x08,0x3a,0x0a,0x40,0x6e,0x61,0x6d,0x65,0x49,0x22,0x09,0x4d,0x6f,0x76,0x65,0x06,0x3a,0x06,0x45,0x54,0x3a,0x0b,0x40,0x70,0x69,0x74,0x63,0x68,0x69,0x69,0x3a,0x0c,0x40,0x76,0x6f,0x6c,0x75,0x6d,0x65,0x69,0x55))
  TeleportPlayer(0,2,234,130,2,0)
  0()



EVENT   23
 PAGE   1
  250(bytes(0x04,0x08,0x6f,0x3a,0x0c,0x52,0x50,0x47,0x3a,0x3a,0x53,0x45,0x08,0x3a,0x0a,0x40,0x6e,0x61,0x6d,0x65,0x49,0x22,0x09,0x4d,0x6f,0x76,0x65,0x06,0x3a,0x06,0x45,0x54,0x3a,0x0b,0x40,0x70,0x69,0x74,0x63,0x68,0x69,0x69,0x3a,0x0c,0x40,0x76,0x6f,0x6c,0x75,0x6d,0x65,0x69,0x55))
  TeleportPlayer(0,2,234,130,2,0)
  0()



EVENT   24
 PAGE   1
  250(bytes(0x04,0x08,0x6f,0x3a,0x0c,0x52,0x50,0x47,0x3a,0x3a,0x53,0x45,0x08,0x3a,0x0a,0x40,0x6e,0x61,0x6d,0x65,0x49,0x22,0x09,0x4d,0x6f,0x76,0x65,0x06,0x3a,0x06,0x45,0x54,0x3a,0x0b,0x40,0x70,0x69,0x74,0x63,0x68,0x69,0x69,0x3a,0x0c,0x40,0x76,0x6f,0x6c,0x75,0x6d,0x65,0x69,0x55))
  TeleportPlayer(0,2,234,130,2,0)
  0()



EVENT   25
 PAGE   1
  250(bytes(0x04,0x08,0x6f,0x3a,0x0c,0x52,0x50,0x47,0x3a,0x3a,0x53,0x45,0x08,0x3a,0x0a,0x40,0x6e,0x61,0x6d,0x65,0x49,0x22,0x09,0x4d,0x6f,0x76,0x65,0x06,0x3a,0x06,0x45,0x54,0x3a,0x0b,0x40,0x70,0x69,0x74,0x63,0x68,0x69,0x69,0x3a,0x0c,0x40,0x76,0x6f,0x6c,0x75,0x6d,0x65,0x69,0x55))
  TeleportPlayer(0,2,234,130,2,0)
  0()



EVENT   26
 PAGE   1
  250(bytes(0x04,0x08,0x6f,0x3a,0x0c,0x52,0x50,0x47,0x3a,0x3a,0x53,0x45,0x08,0x3a,0x0a,0x40,0x6e,0x61,0x6d,0x65,0x49,0x22,0x09,0x4d,0x6f,0x76,0x65,0x06,0x3a,0x06,0x45,0x54,0x3a,0x0b,0x40,0x70,0x69,0x74,0x63,0x68,0x69,0x69,0x3a,0x0c,0x40,0x76,0x6f,0x6c,0x75,0x6d,0x65,0x69,0x55))
  TeleportPlayer(0,2,234,130,2,0)
  0()



EVENT   27
 PAGE   1
  250(bytes(0x04,0x08,0x6f,0x3a,0x0c,0x52,0x50,0x47,0x3a,0x3a,0x53,0x45,0x08,0x3a,0x0a,0x40,0x6e,0x61,0x6d,0x65,0x49,0x22,0x09,0x4d,0x6f,0x76,0x65,0x06,0x3a,0x06,0x45,0x54,0x3a,0x0b,0x40,0x70,0x69,0x74,0x63,0x68,0x69,0x69,0x3a,0x0c,0x40,0x76,0x6f,0x6c,0x75,0x6d,0x65,0x69,0x55))
  TeleportPlayer(0,2,234,130,2,0)
  0()



EVENT   28
 PAGE   1
  250(bytes(0x04,0x08,0x6f,0x3a,0x0c,0x52,0x50,0x47,0x3a,0x3a,0x53,0x45,0x08,0x3a,0x0a,0x40,0x6e,0x61,0x6d,0x65,0x49,0x22,0x09,0x4d,0x6f,0x76,0x65,0x06,0x3a,0x06,0x45,0x54,0x3a,0x0b,0x40,0x70,0x69,0x74,0x63,0x68,0x69,0x69,0x3a,0x0c,0x40,0x76,0x6f,0x6c,0x75,0x6d,0x65,0x69,0x55))
  TeleportPlayer(0,2,234,130,2,0)
  0()



EVENT   29
 PAGE   1
  250(bytes(0x04,0x08,0x6f,0x3a,0x0c,0x52,0x50,0x47,0x3a,0x3a,0x53,0x45,0x08,0x3a,0x0a,0x40,0x6e,0x61,0x6d,0x65,0x49,0x22,0x09,0x4d,0x6f,0x76,0x65,0x06,0x3a,0x06,0x45,0x54,0x3a,0x0b,0x40,0x70,0x69,0x74,0x63,0x68,0x69,0x69,0x3a,0x0c,0x40,0x76,0x6f,0x6c,0x75,0x6d,0x65,0x69,0x55))
  TeleportPlayer(0,2,234,130,2,0)
  0()



EVENT   30
 PAGE   1
  250(bytes(0x04,0x08,0x6f,0x3a,0x0c,0x52,0x50,0x47,0x3a,0x3a,0x53,0x45,0x08,0x3a,0x0a,0x40,0x6e,0x61,0x6d,0x65,0x49,0x22,0x09,0x4d,0x6f,0x76,0x65,0x06,0x3a,0x06,0x45,0x54,0x3a,0x0b,0x40,0x70,0x69,0x74,0x63,0x68,0x69,0x69,0x3a,0x0c,0x40,0x76,0x6f,0x6c,0x75,0x6d,0x65,0x69,0x55))
  TeleportPlayer(0,2,234,130,2,0)
  0()



EVENT   31
 PAGE   1
  250(bytes(0x04,0x08,0x6f,0x3a,0x0c,0x52,0x50,0x47,0x3a,0x3a,0x53,0x45,0x08,0x3a,0x0a,0x40,0x6e,0x61,0x6d,0x65,0x49,0x22,0x09,0x4d,0x6f,0x76,0x65,0x06,0x3a,0x06,0x45,0x54,0x3a,0x0b,0x40,0x70,0x69,0x74,0x63,0x68,0x69,0x69,0x3a,0x0c,0x40,0x76,0x6f,0x6c,0x75,0x6d,0x65,0x69,0x55))
  TeleportPlayer(0,2,234,130,2,0)
  0()



EVENT   32
 PAGE   1
  250(bytes(0x04,0x08,0x6f,0x3a,0x0c,0x52,0x50,0x47,0x3a,0x3a,0x53,0x45,0x08,0x3a,0x0a,0x40,0x6e,0x61,0x6d,0x65,0x49,0x22,0x09,0x4d,0x6f,0x76,0x65,0x06,0x3a,0x06,0x45,0x54,0x3a,0x0b,0x40,0x70,0x69,0x74,0x63,0x68,0x69,0x69,0x3a,0x0c,0x40,0x76,0x6f,0x6c,0x75,0x6d,0x65,0x69,0x55))
  TeleportPlayer(0,2,234,130,2,0)
  0()



EVENT   33
 PAGE   1
  250(bytes(0x04,0x08,0x6f,0x3a,0x0c,0x52,0x50,0x47,0x3a,0x3a,0x53,0x45,0x08,0x3a,0x0a,0x40,0x6e,0x61,0x6d,0x65,0x49,0x22,0x09,0x4d,0x6f,0x76,0x65,0x06,0x3a,0x06,0x45,0x54,0x3a,0x0b,0x40,0x70,0x69,0x74,0x63,0x68,0x69,0x69,0x3a,0x0c,0x40,0x76,0x6f,0x6c,0x75,0x6d,0x65,0x69,0x55))
  TeleportPlayer(0,2,234,130,2,0)
  0()



EVENT   34
 PAGE   1
  250(bytes(0x04,0x08,0x6f,0x3a,0x0c,0x52,0x50,0x47,0x3a,0x3a,0x53,0x45,0x08,0x3a,0x0a,0x40,0x6e,0x61,0x6d,0x65,0x49,0x22,0x09,0x4d,0x6f,0x76,0x65,0x06,0x3a,0x06,0x45,0x54,0x3a,0x0b,0x40,0x70,0x69,0x74,0x63,0x68,0x69,0x69,0x3a,0x0c,0x40,0x76,0x6f,0x6c,0x75,0x6d,0x65,0x69,0x55))
  TeleportPlayer(0,2,234,130,2,0)
  0()



EVENT   35
 PAGE   1
  250(bytes(0x04,0x08,0x6f,0x3a,0x0c,0x52,0x50,0x47,0x3a,0x3a,0x53,0x45,0x08,0x3a,0x0a,0x40,0x6e,0x61,0x6d,0x65,0x49,0x22,0x09,0x4d,0x6f,0x76,0x65,0x06,0x3a,0x06,0x45,0x54,0x3a,0x0b,0x40,0x70,0x69,0x74,0x63,0x68,0x69,0x69,0x3a,0x0c,0x40,0x76,0x6f,0x6c,0x75,0x6d,0x65,0x69,0x55))
  TeleportPlayer(0,2,234,130,2,0)
  0()



EVENT   36
 PAGE   1
  250(bytes(0x04,0x08,0x6f,0x3a,0x0c,0x52,0x50,0x47,0x3a,0x3a,0x53,0x45,0x08,0x3a,0x0a,0x40,0x6e,0x61,0x6d,0x65,0x49,0x22,0x09,0x4d,0x6f,0x76,0x65,0x06,0x3a,0x06,0x45,0x54,0x3a,0x0b,0x40,0x70,0x69,0x74,0x63,0x68,0x69,0x69,0x3a,0x0c,0x40,0x76,0x6f,0x6c,0x75,0x6d,0x65,0x69,0x55))
  TeleportPlayer(0,2,234,130,2,0)
  0()



EVENT   37
 PAGE   1
  250(bytes(0x04,0x08,0x6f,0x3a,0x0c,0x52,0x50,0x47,0x3a,0x3a,0x53,0x45,0x08,0x3a,0x0a,0x40,0x6e,0x61,0x6d,0x65,0x49,0x22,0x09,0x4d,0x6f,0x76,0x65,0x06,0x3a,0x06,0x45,0x54,0x3a,0x0b,0x40,0x70,0x69,0x74,0x63,0x68,0x69,0x69,0x3a,0x0c,0x40,0x76,0x6f,0x6c,0x75,0x6d,0x65,0x69,0x55))
  TeleportPlayer(0,2,234,130,2,0)
  0()



EVENT   38
 PAGE   1
  250(bytes(0x04,0x08,0x6f,0x3a,0x0c,0x52,0x50,0x47,0x3a,0x3a,0x53,0x45,0x08,0x3a,0x0a,0x40,0x6e,0x61,0x6d,0x65,0x49,0x22,0x09,0x4d,0x6f,0x76,0x65,0x06,0x3a,0x06,0x45,0x54,0x3a,0x0b,0x40,0x70,0x69,0x74,0x63,0x68,0x69,0x69,0x3a,0x0c,0x40,0x76,0x6f,0x6c,0x75,0x6d,0x65,0x69,0x55))
  TeleportPlayer(0,2,234,130,2,0)
  0()



EVENT   39
 PAGE   1
  250(bytes(0x04,0x08,0x6f,0x3a,0x0c,0x52,0x50,0x47,0x3a,0x3a,0x53,0x45,0x08,0x3a,0x0a,0x40,0x6e,0x61,0x6d,0x65,0x49,0x22,0x09,0x4d,0x6f,0x76,0x65,0x06,0x3a,0x06,0x45,0x54,0x3a,0x0b,0x40,0x70,0x69,0x74,0x63,0x68,0x69,0x69,0x3a,0x0c,0x40,0x76,0x6f,0x6c,0x75,0x6d,0x65,0x69,0x55))
  TeleportPlayer(0,2,234,130,2,0)
  0()



EVENT   40
 PAGE   1
  250(bytes(0x04,0x08,0x6f,0x3a,0x0c,0x52,0x50,0x47,0x3a,0x3a,0x53,0x45,0x08,0x3a,0x0a,0x40,0x6e,0x61,0x6d,0x65,0x49,0x22,0x09,0x4d,0x6f,0x76,0x65,0x06,0x3a,0x06,0x45,0x54,0x3a,0x0b,0x40,0x70,0x69,0x74,0x63,0x68,0x69,0x69,0x3a,0x0c,0x40,0x76,0x6f,0x6c,0x75,0x6d,0x65,0x69,0x55))
  TeleportPlayer(0,2,234,130,2,0)
  0()



EVENT   41
 PAGE   1
  250(bytes(0x04,0x08,0x6f,0x3a,0x0c,0x52,0x50,0x47,0x3a,0x3a,0x53,0x45,0x08,0x3a,0x0a,0x40,0x6e,0x61,0x6d,0x65,0x49,0x22,0x09,0x4d,0x6f,0x76,0x65,0x06,0x3a,0x06,0x45,0x54,0x3a,0x0b,0x40,0x70,0x69,0x74,0x63,0x68,0x69,0x69,0x3a,0x0c,0x40,0x76,0x6f,0x6c,0x75,0x6d,0x65,0x69,0x55))
  TeleportPlayer(0,2,234,130,2,0)
  0()



EVENT   42
 PAGE   1
  ShowMessageFace("",0,0,2,1)
  ShowMessage("【魚売りのおばさん】")
  ShowMessage("とれたてピチピチの魚だよっ！")
  ShowMessage("そこの勇者さん、ぜひ買っていきな！")
  Shop(0,322,0,0,false)
  605(0,323,0,0)
  605(0,324,0,0)
  605(0,325,0,0)
  605(0,326,0,0)
  605(0,327,0,0)
  605(0,328,0,0)
  605(0,334,0,0)
  605(0,335,0,0)
  0()



EVENT   43
 PAGE   1
  ShowMessageFace("",0,0,2,1)
  ShowMessage("【船乗り】")
  ShowMessage("味わっていきな……異国の珍しい食べ物をよォ！")
  Shop(0,332,0,0,false)
  605(0,336,0,0)
  605(0,339,0,0)
  605(0,414,0,0)
  605(0,408,0,0)
  605(0,426,0,0)
  605(0,427,0,0)
  0()



EVENT   44
 PAGE   1
  ShowMessageFace("",0,0,2,1)
  ShowMessage("【老女】")
  ShowMessage("これは、聖地イリアスヴィルで採れた野菜じゃ。")
  ShowMessage("あの勇者ルカも、この野菜を食べて育ったんじゃぞ。")
  Shop(0,306,0,0,true)
  605(0,307,0,0)
  605(0,309,0,0)
  605(0,310,0,0)
  605(0,316,0,0)
  605(0,321,0,0)
  0()



EVENT   45
 PAGE   1
  ShowMessageFace("",0,0,2,1)
  ShowMessage("【商人】")
  ShowMessage("ミダス村のおいしい肉を、はるばるゴルドの地にお届け。")
  ShowMessage("さあ、今しかない大チャンスだよっ！")
  Shop(0,329,0,0,false)
  605(0,330,0,0)
  605(0,331,0,0)
  605(0,340,0,0)
  605(0,341,0,0)
  605(0,342,0,0)
  0()



EVENT   46
 PAGE   1
  250(bytes(0x04,0x08,0x6f,0x3a,0x0c,0x52,0x50,0x47,0x3a,0x3a,0x53,0x45,0x08,0x3a,0x0a,0x40,0x6e,0x61,0x6d,0x65,0x49,0x22,0x09,0x4d,0x6f,0x76,0x65,0x06,0x3a,0x06,0x45,0x54,0x3a,0x0b,0x40,0x70,0x69,0x74,0x63,0x68,0x69,0x69,0x3a,0x0c,0x40,0x76,0x6f,0x6c,0x75,0x6d,0x65,0x69,0x55))
  TeleportPlayer(0,2,234,130,2,0)
  0()



EVENT   47
 PAGE   1
  ShowMessageFace("",0,0,2,1)
  ShowMessage("【シーフ】")
  ShowMessage("チンチン痛い……")
  0()



EVENT   48
 PAGE   1
  ChangeSelfSwitch("A",0)
  If(0,4,0)
   ShowMessageFace("alice_fc5",1,0,2,1)
   ShowMessage("【アリス】")
   ShowMessage("ここがゴルドポートか……")
   ShowMessage("ふむ、なかなか活気のある港町だな。")
   0()
  EndIf()
  If(0,5,0)
   ShowMessageFace("iriasu_fc4",2,0,2,2)
   ShowMessage("【イリアス】")
   ShowMessage("ゴルドポート……イリアスクロイツ本拠地はないのでしたね。")
   ShowMessage("いえいえ、こっちの話です。")
   0()
  EndIf()
  If(4,12,0)
   ShowMessageFace("sylph_fc1",0,0,2,3)
   ShowMessage("【シルフ】")
   ShowMessage("びゅーびゅー、潮風～！")
   0()
  EndIf()
  If(4,14,0)
   ShowMessageFace("undine_fc1",0,0,2,4)
   ShowMessage("【ウンディーネ】")
   ShowMessage("潮風が吹いているわね……")
   ShowMessage("体が塩辛くなりそう。")
   0()
  EndIf()
  If(0,6,0)
   ShowMessageFace("sonia_fc1",0,0,2,5)
   ShowMessage("【ソニア】")
   ShowMessage("それじゃあ、さっそく情報を集めて……")
   0()
  Else()
   ShowMessageFace("ruka_fc1",0,0,2,6)
   ShowMessage("【ルカ】")
   ShowMessage("それじゃあ、さっそく情報を集めて……")
   0()
  EndIf()
  ShowSpeechBalloon(49,8,true)
  ShowMessageFace("serene_fc1",0,0,2,7)
  ShowMessage("【？？？】")
  ShowMessage("ねぇ、そこの少年勇者君。")
  ShowMessage("あなた達、とっても腕が立ちそうね……")
  205(-1,bytes(0x04,0x08,0x6f,0x3a,0x13,0x52,0x50,0x47,0x3a,0x3a,0x4d,0x6f,0x76,0x65,0x52,0x6f,0x75,0x74,0x65,0x09,0x3a,0x0c,0x40,0x72,0x65,0x70,0x65,0x61,0x74,0x46,0x3a,0x0f,0x40,0x73,0x6b,0x69,0x70,0x70,0x61,0x62,0x6c,0x65,0x46,0x3a,0x0a,0x40,0x77,0x61,0x69,0x74,0x54,0x3a,0x0a,0x40,0x6c,0x69,0x73,0x74,0x5b,0x07,0x6f,0x3a,0x15,0x52,0x50,0x47,0x3a,0x3a,0x4d,0x6f,0x76,0x65,0x43,0x6f,0x6d,0x6d,0x61,0x6e,0x64,0x07,0x3a,0x0a,0x40,0x63,0x6f,0x64,0x65,0x69,0x17,0x3a,0x10,0x40,0x70,0x61,0x72,0x61,0x6d,0x65,0x74,0x65,0x72,0x73,0x5b,0x00,0x6f,0x3b,0x0a,0x07,0x3b,0x0b,0x69,0x00,0x3b,0x0c,0x5b,0x00))
  ShowMessageFace("ruka_fc1",0,0,2,8)
  ShowMessage("【ルカ】")
  ShowMessage("えっ……？")
  PictureDisplay(5,"80_serene_st01",0,0,0,0,100,100,0,0)
  PictureMove(5,null,0,0,0,0,100,100,255,0,60,true)
  ShowMessageFace("serene_fc1",0,0,2,9)
  ShowMessage("【？？？】")
  ShowMessage("ふふっ……幽霊船に眠る財宝に興味はないかしら？")
  If(0,2149,0)
   ShowMessageFace("bonny_fc1",1,0,2,10)
   ShowMessage("【ボニー】")
   ShowMessage("もちろん、あるに決まってるぞ！")
   ShowMessageFace("ashel_fc1",0,0,2,11)
   ShowMessage("【アシェル】")
   ShowMessage("お嬢……うまい話に飛びつくなと言っているでしょう。")
   ShowMessageFace("ashel_fc1",1,0,2,12)
   ShowMessage("【アシェル】")
   ShowMessage("……もちろん、お宝には興味があるけどね。")
   0()
  EndIf()
  If(4,134,0)
   ShowMessageFace("chrom_fc2",0,0,2,13)
   ShowMessage("【クロム】")
   ShowMessage("財宝よりも、幽霊船の方に興味があるな。")
   ShowMessage("どんな幽霊がいるのかのう……？")
   0()
  EndIf()
  If(0,4,0)
   ShowMessageFace("alice_fc5",4,0,2,14)
   ShowMessage("【アリス】")
   ShowMessage("幽霊船などに興味はない。他をあたれ。")
   ShowMessage("断じて怖いのではない、忙しいのだ。")
   0()
  EndIf()
  If(0,5,0)
   ShowMessageFace("iriasu_fc4",4,0,2,15)
   ShowMessage("【イリアス】")
   ShowMessage("幽霊船など怖くはありませんが、そのような暇はないのです。")
   0()
  EndIf()
  ShowMessageFace("serene_fc1",0,0,2,16)
  ShowMessage("【セレナ】")
  ShowMessage("失礼、急にぶしつけだったわね……")
  ShowMessage("私はセレナ、しがない海賊よ。")
  If(4,203,0)
   ShowMessageFace("tatunoko_k_fc1",0,0,2,17)
   ShowMessage("【たつこ】")
   ShowMessage("海賊！？　悪い海賊なのですか？")
   ShowMessageFace("serene_fc1",1,0,2,18)
   ShowMessage("【セレナ】")
   ShowMessage("あら、可愛い海兵さん。")
   ShowMessage("私は、良い海賊よ……")
   ShowMessageFace("tatunoko_k_fc1",2,0,2,19)
   ShowMessage("【たつこ】")
   ShowMessage("じゃあ逮捕できないのです……")
   0()
  EndIf()
  ShowMessageFace("serene_fc1",0,0,2,20)
  ShowMessage("【セレナ】")
  ShowMessage("今、一緒に幽霊船を探索してくれる仲間を求めているの。")
  ShowMessage("興味があるなら、私の家に来てくれないかしら？")
  If(12,"exist_party_persona_id?(391)")
   ShowMessageFace("mefist_fc2",0,0,2,21)
   ShowMessage("【メフィスト】")
   ShowMessage("何かの罠……のようには思えませんね。")
   ShowMessage("さて、どうしますか？")
   0()
  Else()
   ShowMessageFace("mefist_fc1",0,0,2,22)
   ShowMessage("【メフィスト】")
   ShowMessage("何かの罠……のようには思えませんね。")
   ShowMessage("さて、どうしますか？")
   0()
  EndIf()
  ShowChoices(strings("今すぐ行く","後で行く","興味はない"),3)
  IfPlayerPicksChoice(0,null)
   ShowMessageFace("serene_fc1",0,0,2,23)
   ShowMessage("【セレナ】")
   ShowMessage("じゃあ、私の家にいらっしゃい……")
   ShowMessage("詳しく説明させてもらうわ。")
   PictureClear(5)
   ShowMessageFace("",0,0,2,24)
   ShowMessage("ルカは、セレナの家までついていった――")
   TeleportPlayer(0,144,14,54,8,0)
   ChangeVariable(1067,1067,0,0,1)
   EndEventProcessing()
   0()
  IfPlayerPicksChoice(1,null)
   PictureClear(5)
   ScrollMap(8,6,5)
   ScrollMap(6,3,5)
   ShowMessageFace("serene_fc1",0,0,2,25)
   ShowMessage("【セレナ】")
   ShowMessage("それじゃあ、また後で。")
   ShowMessage("私の家は、すぐそこにあるわ。")
   ScrollMap(4,3,5)
   ScrollMap(2,6,5)
   ShowMessageFace("serene_fc1",1,0,2,26)
   ShowMessage("【セレナ】")
   ShowMessage("待っているわね、ふふっ……")
   205(49,bytes(0x04,0x08,0x6f,0x3a,0x13,0x52,0x50,0x47,0x3a,0x3a,0x4d,0x6f,0x76,0x65,0x52,0x6f,0x75,0x74,0x65,0x09,0x3a,0x0c,0x40,0x72,0x65,0x70,0x65,0x61,0x74,0x46,0x3a,0x0f,0x40,0x73,0x6b,0x69,0x70,0x70,0x61,0x62,0x6c,0x65,0x46,0x3a,0x0a,0x40,0x77,0x61,0x69,0x74,0x54,0x3a,0x0a,0x40,0x6c,0x69,0x73,0x74,0x5b,0x0e,0x6f,0x3a,0x15,0x52,0x50,0x47,0x3a,0x3a,0x4d,0x6f,0x76,0x65,0x43,0x6f,0x6d,0x6d,0x61,0x6e,0x64,0x07,0x3a,0x0a,0x40,0x63,0x6f,0x64,0x65,0x69,0x09,0x3a,0x10,0x40,0x70,0x61,0x72,0x61,0x6d,0x65,0x74,0x65,0x72,0x73,0x5b,0x00,0x6f,0x3b,0x0a,0x07,0x3b,0x0b,0x69,0x09,0x3b,0x0c,0x5b,0x00,0x6f,0x3b,0x0a,0x07,0x3b,0x0b,0x69,0x09,0x3b,0x0c,0x5b,0x00,0x6f,0x3b,0x0a,0x07,0x3b,0x0b,0x69,0x09,0x3b,0x0c,0x5b,0x00,0x6f,0x3b,0x0a,0x07,0x3b,0x0b,0x69,0x09,0x3b,0x0c,0x5b,0x00,0x6f,0x3b,0x0a,0x07,0x3b,0x0b,0x69,0x09,0x3b,0x0c,0x5b,0x00,0x6f,0x3b,0x0a,0x07,0x3b,0x0b,0x69,0x08,0x3b,0x0c,0x5b,0x00,0x6f,0x3b,0x0a,0x07,0x3b,0x0b,0x69,0x2a,0x3b,0x0c,0x5b,0x00,0x6f,0x3b,0x0a,0x07,0x3b,0x0b,0x69,0x00,0x3b,0x0c,0x5b,0x00))
   250(bytes(0x04,0x08,0x6f,0x3a,0x0c,0x52,0x50,0x47,0x3a,0x3a,0x53,0x45,0x08,0x3a,0x0a,0x40,0x6e,0x61,0x6d,0x65,0x49,0x22,0x0a,0x4f,0x70,0x65,0x6e,0x31,0x06,0x3a,0x06,0x45,0x54,0x3a,0x0b,0x40,0x70,0x69,0x74,0x63,0x68,0x69,0x69,0x3a,0x0c,0x40,0x76,0x6f,0x6c,0x75,0x6d,0x65,0x69,0x55))
   205(19,bytes(0x04,0x08,0x6f,0x3a,0x13,0x52,0x50,0x47,0x3a,0x3a,0x4d,0x6f,0x76,0x65,0x52,0x6f,0x75,0x74,0x65,0x09,0x3a,0x0c,0x40,0x72,0x65,0x70,0x65,0x61,0x74,0x46,0x3a,0x0f,0x40,0x73,0x6b,0x69,0x70,0x70,0x61,0x62,0x6c,0x65,0x46,0x3a,0x0a,0x40,0x77,0x61,0x69,0x74,0x54,0x3a,0x0a,0x40,0x6c,0x69,0x73,0x74,0x5b,0x0b,0x6f,0x3a,0x15,0x52,0x50,0x47,0x3a,0x3a,0x4d,0x6f,0x76,0x65,0x43,0x6f,0x6d,0x6d,0x61,0x6e,0x64,0x07,0x3a,0x0a,0x40,0x63,0x6f,0x64,0x65,0x69,0x16,0x3a,0x10,0x40,0x70,0x61,0x72,0x61,0x6d,0x65,0x74,0x65,0x72,0x73,0x5b,0x00,0x6f,0x3b,0x0a,0x07,0x3b,0x0b,0x69,0x14,0x3b,0x0c,0x5b,0x06,0x69,0x08,0x6f,0x3b,0x0a,0x07,0x3b,0x0b,0x69,0x17,0x3b,0x0c,0x5b,0x00,0x6f,0x3b,0x0a,0x07,0x3b,0x0b,0x69,0x14,0x3b,0x0c,0x5b,0x06,0x69,0x08,0x6f,0x3b,0x0a,0x07,0x3b,0x0b,0x69,0x18,0x3b,0x0c,0x5b,0x00,0x6f,0x3b,0x0a,0x07,0x3b,0x0b,0x69,0x00,0x3b,0x0c,0x5b,0x00))
   205(49,bytes(0x04,0x08,0x6f,0x3a,0x13,0x52,0x50,0x47,0x3a,0x3a,0x4d,0x6f,0x76,0x65,0x52,0x6f,0x75,0x74,0x65,0x09,0x3a,0x0c,0x40,0x72,0x65,0x70,0x65,0x61,0x74,0x46,0x3a,0x0f,0x40,0x73,0x6b,0x69,0x70,0x70,0x61,0x62,0x6c,0x65,0x46,0x3a,0x0a,0x40,0x77,0x61,0x69,0x74,0x54,0x3a,0x0a,0x40,0x6c,0x69,0x73,0x74,0x5b,0x07,0x6f,0x3a,0x15,0x52,0x50,0x47,0x3a,0x3a,0x4d,0x6f,0x76,0x65,0x43,0x6f,0x6d,0x6d,0x61,0x6e,0x64,0x07,0x3a,0x0a,0x40,0x63,0x6f,0x64,0x65,0x69,0x09,0x3a,0x10,0x40,0x70,0x61,0x72,0x61,0x6d,0x65,0x74,0x65,0x72,0x73,0x5b,0x00,0x6f,0x3b,0x0a,0x07,0x3b,0x0b,0x69,0x00,0x3b,0x0c,0x5b,0x00))
   ChangeVariable(1067,1067,0,0,1)
   205(19,bytes(0x04,0x08,0x6f,0x3a,0x13,0x52,0x50,0x47,0x3a,0x3a,0x4d,0x6f,0x76,0x65,0x52,0x6f,0x75,0x74,0x65,0x09,0x3a,0x0c,0x40,0x72,0x65,0x70,0x65,0x61,0x74,0x46,0x3a,0x0f,0x40,0x73,0x6b,0x69,0x70,0x70,0x61,0x62,0x6c,0x65,0x46,0x3a,0x0a,0x40,0x77,0x61,0x69,0x74,0x54,0x3a,0x0a,0x40,0x6c,0x69,0x73,0x74,0x5b,0x07,0x6f,0x3a,0x15,0x52,0x50,0x47,0x3a,0x3a,0x4d,0x6f,0x76,0x65,0x43,0x6f,0x6d,0x6d,0x61,0x6e,0x64,0x07,0x3a,0x0a,0x40,0x63,0x6f,0x64,0x65,0x69,0x15,0x3a,0x10,0x40,0x70,0x61,0x72,0x61,0x6d,0x65,0x74,0x65,0x72,0x73,0x5b,0x00,0x6f,0x3b,0x0a,0x07,0x3b,0x0b,0x69,0x00,0x3b,0x0c,0x5b,0x00))
   EndEventProcessing()
   0()
  IfPlayerPicksChoice(2,null)
   PictureClear(5)
   ScrollMap(8,6,5)
   ScrollMap(6,3,5)
   ShowMessageFace("serene_fc1",0,0,2,27)
   ShowMessage("【セレナ】")
   ShowMessage("興味が湧いたら、私の所に来て。")
   ShowMessage("私の家は、すぐそこにあるわ……")
   ScrollMap(4,3,5)
   ScrollMap(2,6,5)
   ShowMessageFace("serene_fc1",1,0,2,28)
   ShowMessage("【セレナ】")
   ShowMessage("待っているわね、ふふっ……")
   205(49,bytes(0x04,0x08,0x6f,0x3a,0x13,0x52,0x50,0x47,0x3a,0x3a,0x4d,0x6f,0x76,0x65,0x52,0x6f,0x75,0x74,0x65,0x09,0x3a,0x0c,0x40,0x72,0x65,0x70,0x65,0x61,0x74,0x46,0x3a,0x0f,0x40,0x73,0x6b,0x69,0x70,0x70,0x61,0x62,0x6c,0x65,0x46,0x3a,0x0a,0x40,0x77,0x61,0x69,0x74,0x54,0x3a,0x0a,0x40,0x6c,0x69,0x73,0x74,0x5b,0x0e,0x6f,0x3a,0x15,0x52,0x50,0x47,0x3a,0x3a,0x4d,0x6f,0x76,0x65,0x43,0x6f,0x6d,0x6d,0x61,0x6e,0x64,0x07,0x3a,0x0a,0x40,0x63,0x6f,0x64,0x65,0x69,0x09,0x3a,0x10,0x40,0x70,0x61,0x72,0x61,0x6d,0x65,0x74,0x65,0x72,0x73,0x5b,0x00,0x6f,0x3b,0x0a,0x07,0x3b,0x0b,0x69,0x09,0x3b,0x0c,0x5b,0x00,0x6f,0x3b,0x0a,0x07,0x3b,0x0b,0x69,0x09,0x3b,0x0c,0x5b,0x00,0x6f,0x3b,0x0a,0x07,0x3b,0x0b,0x69,0x09,0x3b,0x0c,0x5b,0x00,0x6f,0x3b,0x0a,0x07,0x3b,0x0b,0x69,0x09,0x3b,0x0c,0x5b,0x00,0x6f,0x3b,0x0a,0x07,0x3b,0x0b,0x69,0x09,0x3b,0x0c,0x5b,0x00,0x6f,0x3b,0x0a,0x07,0x3b,0x0b,0x69,0x08,0x3b,0x0c,0x5b,0x00,0x6f,0x3b,0x0a,0x07,0x3b,0x0b,0x69,0x2a,0x3b,0x0c,0x5b,0x00,0x6f,0x3b,0x0a,0x07,0x3b,0x0b,0x69,0x00,0x3b,0x0c,0x5b,0x00))
   250(bytes(0x04,0x08,0x6f,0x3a,0x0c,0x52,0x50,0x47,0x3a,0x3a,0x53,0x45,0x08,0x3a,0x0a,0x40,0x6e,0x61,0x6d,0x65,0x49,0x22,0x0a,0x4f,0x70,0x65,0x6e,0x31,0x06,0x3a,0x06,0x45,0x54,0x3a,0x0b,0x40,0x70,0x69,0x74,0x63,0x68,0x69,0x69,0x3a,0x0c,0x40,0x76,0x6f,0x6c,0x75,0x6d,0x65,0x69,0x55))
   205(19,bytes(0x04,0x08,0x6f,0x3a,0x13,0x52,0x50,0x47,0x3a,0x3a,0x4d,0x6f,0x76,0x65,0x52,0x6f,0x75,0x74,0x65,0x09,0x3a,0x0c,0x40,0x72,0x65,0x70,0x65,0x61,0x74,0x46,0x3a,0x0f,0x40,0x73,0x6b,0x69,0x70,0x70,0x61,0x62,0x6c,0x65,0x46,0x3a,0x0a,0x40,0x77,0x61,0x69,0x74,0x54,0x3a,0x0a,0x40,0x6c,0x69,0x73,0x74,0x5b,0x0b,0x6f,0x3a,0x15,0x52,0x50,0x47,0x3a,0x3a,0x4d,0x6f,0x76,0x65,0x43,0x6f,0x6d,0x6d,0x61,0x6e,0x64,0x07,0x3a,0x0a,0x40,0x63,0x6f,0x64,0x65,0x69,0x16,0x3a,0x10,0x40,0x70,0x61,0x72,0x61,0x6d,0x65,0x74,0x65,0x72,0x73,0x5b,0x00,0x6f,0x3b,0x0a,0x07,0x3b,0x0b,0x69,0x14,0x3b,0x0c,0x5b,0x06,0x69,0x08,0x6f,0x3b,0x0a,0x07,0x3b,0x0b,0x69,0x17,0x3b,0x0c,0x5b,0x00,0x6f,0x3b,0x0a,0x07,0x3b,0x0b,0x69,0x14,0x3b,0x0c,0x5b,0x06,0x69,0x08,0x6f,0x3b,0x0a,0x07,0x3b,0x0b,0x69,0x18,0x3b,0x0c,0x5b,0x00,0x6f,0x3b,0x0a,0x07,0x3b,0x0b,0x69,0x00,0x3b,0x0c,0x5b,0x00))
   205(49,bytes(0x04,0x08,0x6f,0x3a,0x13,0x52,0x50,0x47,0x3a,0x3a,0x4d,0x6f,0x76,0x65,0x52,0x6f,0x75,0x74,0x65,0x09,0x3a,0x0c,0x40,0x72,0x65,0x70,0x65,0x61,0x74,0x46,0x3a,0x0f,0x40,0x73,0x6b,0x69,0x70,0x70,0x61,0x62,0x6c,0x65,0x46,0x3a,0x0a,0x40,0x77,0x61,0x69,0x74,0x54,0x3a,0x0a,0x40,0x6c,0x69,0x73,0x74,0x5b,0x07,0x6f,0x3a,0x15,0x52,0x50,0x47,0x3a,0x3a,0x4d,0x6f,0x76,0x65,0x43,0x6f,0x6d,0x6d,0x61,0x6e,0x64,0x07,0x3a,0x0a,0x40,0x63,0x6f,0x64,0x65,0x69,0x09,0x3a,0x10,0x40,0x70,0x61,0x72,0x61,0x6d,0x65,0x74,0x65,0x72,0x73,0x5b,0x00,0x6f,0x3b,0x0a,0x07,0x3b,0x0b,0x69,0x00,0x3b,0x0c,0x5b,0x00))
   ChangeVariable(1067,1067,0,0,1)
   205(19,bytes(0x04,0x08,0x6f,0x3a,0x13,0x52,0x50,0x47,0x3a,0x3a,0x4d,0x6f,0x76,0x65,0x52,0x6f,0x75,0x74,0x65,0x09,0x3a,0x0c,0x40,0x72,0x65,0x70,0x65,0x61,0x74,0x46,0x3a,0x0f,0x40,0x73,0x6b,0x69,0x70,0x70,0x61,0x62,0x6c,0x65,0x46,0x3a,0x0a,0x40,0x77,0x61,0x69,0x74,0x54,0x3a,0x0a,0x40,0x6c,0x69,0x73,0x74,0x5b,0x07,0x6f,0x3a,0x15,0x52,0x50,0x47,0x3a,0x3a,0x4d,0x6f,0x76,0x65,0x43,0x6f,0x6d,0x6d,0x61,0x6e,0x64,0x07,0x3a,0x0a,0x40,0x63,0x6f,0x64,0x65,0x69,0x15,0x3a,0x10,0x40,0x70,0x61,0x72,0x61,0x6d,0x65,0x74,0x65,0x72,0x73,0x5b,0x00,0x6f,0x3b,0x0a,0x07,0x3b,0x0b,0x69,0x00,0x3b,0x0c,0x5b,0x00))
   If(4,202,0)
    ShowMessageFace("bonny_fc1",0,0,2,29)
    ShowMessage("【ボニー】")
    ShowMessage("やっぱり、話を聞きに行かないか？")
    ShowMessage("なんだか気になるぞ……")
    0()
   EndIf()
   EndEventProcessing()
   0()
  404()
  0()
 PAGE   2
  // condition: self-switch A is ON
  0()



EVENT   49
 PAGE   1
  0()
 PAGE   2
  // condition: variable 1067 >= 1
  0()



EVENT   50
 PAGE   1
  // condition: variable 1067 >= 2
  If(1,1067,0,2,0)
   PictureDisplay(5,"80_serene_st11",0,0,0,0,100,100,0,0)
   PictureMove(5,null,0,0,0,0,100,100,255,0,30,true)
   ShowMessageFace("serene_fc1",3,0,2,1)
   ShowMessage("【セレナ】")
   ShowMessage("出港の準備は、すでに終わっているわ。")
   ShowMessage("あなた達が乗り込めば、いつでも行けるわよ。")
   If(0,4,0)
    ShowMessageFace("alice_fc5",2,0,2,2)
    ShowMessage("【アリス】")
    ShowMessage("なんと……非常に手際が良いのだな。")
    ShowMessage("それに、ここまで豪華な海賊船だとは思わなかったぞ。")
    0()
   EndIf()
   If(0,5,0)
    ShowMessageFace("iriasu_fc4",2,0,2,3)
    ShowMessage("【イリアス】")
    ShowMessage("ずいぶん準備が早いのですね……")
    ShowMessage("それに、実に豪華な海賊船のようです。")
    0()
   EndIf()
   If(4,202,0)
    ShowMessageFace("bonny_fc1",0,0,2,4)
    ShowMessage("【ボニー】")
    ShowMessage("おさかな号と同じくらい大きいぞ……！")
    0()
   EndIf()
   PictureDisplay(5,"80_serene_st12",0,0,0,0,100,100,255,0)
   ShowMessageFace("serene_fc1",4,0,2,5)
   ShowMessage("【セレナ】")
   ShowMessage("うふふっ……祖母の財産が、割とたっぷりあるからね。")
   ShowMessage("外海も航行できるし、幽霊船まであっという間よ。")
   PictureDisplay(5,"80_serene_st11",0,0,0,0,100,100,255,0)
   ShowMessageFace("serene_fc1",3,0,2,6)
   ShowMessage("【セレナ】")
   ShowMessage("それじゃあ、もう出航していいかしら？")
   ShowMessage("何があっても大丈夫なよう、準備は万全にね。")
   ShowChoices(strings("出航する","出航しない"),2)
   IfPlayerPicksChoice(0,null)
    ShowMessageFace("serene_fc1",3,0,2,7)
    ShowMessage("【セレナ】")
    ShowMessage("それじゃあ、碇上げ！")
    ShowMessage("いざ出航よ！")
    If(4,202,0)
     ShowMessageFace("bonny_fc1",1,0,2,8)
     ShowMessage("【ボニー】")
     ShowMessage("幽霊船の冒険、楽しみだな～！")
     0()
    EndIf()
    If(4,134,0)
     ShowMessageFace("chrom_fc2",1,0,2,9)
     ShowMessage("【クロム】")
     ShowMessage("幽霊船に着く前から、儂のゴーストレーダーは反応しっぱなしじゃ！")
     0()
    EndIf()
    221()
    PictureClear(5)
    211(0)
    250(bytes(0x04,0x08,0x6f,0x3a,0x0c,0x52,0x50,0x47,0x3a,0x3a,0x53,0x45,0x08,0x3a,0x0a,0x40,0x6e,0x61,0x6d,0x65,0x49,0x22,0x0b,0x57,0x61,0x74,0x65,0x72,0x31,0x06,0x3a,0x06,0x45,0x54,0x3a,0x0b,0x40,0x70,0x69,0x74,0x63,0x68,0x69,0x69,0x3a,0x0c,0x40,0x76,0x6f,0x6c,0x75,0x6d,0x65,0x69,0x55))
    Wait(60)
    ChangeVariable(1002,1002,0,0,42)
    TeleportPlayer(0,738,1,0,0,0)
    222()
    EndEventProcessing()
    0()
   IfPlayerPicksChoice(1,null)
    PictureClear(5)
    EndEventProcessing()
    0()
   404()
   0()
  EndIf()
  If(1,1067,0,3,0)
   PictureDisplay(5,"80_serene_st11",0,0,0,0,100,100,0,0)
   PictureMove(5,null,0,0,0,0,100,100,255,0,30,true)
   ShowMessageFace("serene_fc1",3,0,2,10)
   ShowMessage("【セレナ】")
   ShowMessage("それじゃあ、また幽霊船に戻っていいかしら？")
   ShowMessage("何があっても大丈夫なよう、準備は万全にね。")
   ShowChoices(strings("出航する","出航しない"),2)
   IfPlayerPicksChoice(0,null)
    ShowMessageFace("serene_fc1",3,0,2,11)
    ShowMessage("【セレナ】")
    ShowMessage("それじゃあ、碇上げ！")
    ShowMessage("いざ出航よ！")
    221()
    PictureClear(5)
    250(bytes(0x04,0x08,0x6f,0x3a,0x0c,0x52,0x50,0x47,0x3a,0x3a,0x53,0x45,0x08,0x3a,0x0a,0x40,0x6e,0x61,0x6d,0x65,0x49,0x22,0x0b,0x57,0x61,0x74,0x65,0x72,0x31,0x06,0x3a,0x06,0x45,0x54,0x3a,0x0b,0x40,0x70,0x69,0x74,0x63,0x68,0x69,0x69,0x3a,0x0c,0x40,0x76,0x6f,0x6c,0x75,0x6d,0x65,0x69,0x55))
    Wait(60)
    ChangeSwitch(100,100,0)
    281(0)
    ChangeVariable(1002,1002,0,0,42)
    TeleportPlayer(0,369,5,30,6,0)
    222()
    EndEventProcessing()
    0()
   IfPlayerPicksChoice(1,null)
    PictureClear(5)
    EndEventProcessing()
    0()
   404()
   0()
  EndIf()
  0()
 PAGE   2
  // condition: variable 1067 >= 5
  0()



EVENT   51
 PAGE   1
  // condition: variable 1067 >= 2
  ShowMessageFace("",0,0,2,1)
  ShowMessage("幽霊船に向かいますか？")
  ShowChoices(strings("出航する","出航しない"),2)
  IfPlayerPicksChoice(0,null)
   221()
   250(bytes(0x04,0x08,0x6f,0x3a,0x0c,0x52,0x50,0x47,0x3a,0x3a,0x53,0x45,0x08,0x3a,0x0a,0x40,0x6e,0x61,0x6d,0x65,0x49,0x22,0x0b,0x57,0x61,0x74,0x65,0x72,0x31,0x06,0x3a,0x06,0x45,0x54,0x3a,0x0b,0x40,0x70,0x69,0x74,0x63,0x68,0x69,0x69,0x3a,0x0c,0x40,0x76,0x6f,0x6c,0x75,0x6d,0x65,0x69,0x55))
   Wait(60)
   ChangeSwitch(251,251,0)
   ChangeSwitch(100,100,0)
   281(0)
   TeleportPlayer(0,369,5,30,6,0)
   222()
   0()
  IfPlayerPicksChoice(1,null)
   EndEventProcessing()
   0()
  404()
  0()



EVENT   52
 PAGE   1
  250(bytes(0x04,0x08,0x6f,0x3a,0x0c,0x52,0x50,0x47,0x3a,0x3a,0x53,0x45,0x08,0x3a,0x0a,0x40,0x6e,0x61,0x6d,0x65,0x49,0x22,0x0a,0x49,0x74,0x65,0x6d,0x31,0x06,0x3a,0x06,0x45,0x54,0x3a,0x0b,0x40,0x70,0x69,0x74,0x63,0x68,0x69,0x69,0x3a,0x0c,0x40,0x76,0x6f,0x6c,0x75,0x6d,0x65,0x69,0x55))
  ChangeSelfSwitch("A",0)
  ChangeInventory_Item(52,0,0,1)
  0()
 PAGE   2
  // condition: self-switch A is ON
  0()



EVENT   53
 PAGE   1
  ShowMessageFace("",0,0,2,1)
  ShowMessage("【あやしい男】")
  ShowMessage("商人やらギャンブラーやらの最上級職に就きたいよな。")
  ShowMessage("それに関する情報、10Gで買わないか？")
  ShowChoices(strings("買う","いらない"),2)
  IfPlayerPicksChoice(0,null)
   If(7,9,1)
    ShowMessageFace("",0,0,2,2)
    ShowMessage("【あやしい男】")
    ShowMessage("おいおい、金が足りてねーぞ……")
    0()
   EndIf()
   125(1,0,10)
   ShowMessageFace("",0,0,2,3)
   ShowMessage("ルカは10G支払った！")
   ShowMessageFace("",0,0,2,4)
   ShowMessage("【あやしい男】")
   ShowMessage("商人やらギャンブラーやらの最上級職に就くには……")
   ShowMessage("裏の世界で認められなきゃいけないんだ。")
   ShowMessageFace("",0,0,2,5)
   ShowMessage("【あやしい男】")
   ShowMessage("そうした職業の転職アイテムは、誰が管理してると思う？")
   ShowMessage("もちろん闇社会の頂点、ドン・ファーザーさ。")
   ShowMessageFace("",0,0,2,6)
   ShowMessage("【あやしい男】")
   ShowMessage("これ以上は……言わなくても分かるよな？")
   ShowMessage("つまり、素人さんにはどうにもならないって事さ。")
   If(0,6,0)
    ShowMessageFace("sonia_fc4",0,0,2,7)
    ShowMessage("【ソニア】")
    ShowMessage("ところが、ドン・ファーザーとは太いコネがあるのよね……")
    ShowMessage("全っ然、嬉しくないけど。")
    0()
   EndIf()
   0()
  IfPlayerPicksChoice(1,null)
   0()
  404()
  0()



EVENT   54
 PAGE   1
  ShowMessageFace("",0,0,2,1)
  ShowMessage("【ニート】")
  ShowMessage("おい、知っているか？")
  ShowMessage("「無職」に就いて、修行を積むとな……")
  ShowMessageFace("",0,0,2,2)
  ShowMessage("【ニート】")
  ShowMessage("驚くなかれ、何もない！")
  ShowMessage("何もないんだよ！")
  355("actor_label_jump")
  EndEventProcessing()
  DefineLabel("143")
  ShowMessageFace("eva_fc1",0,0,2,3)
  ShowMessage("【エヴァ】")
  ShowMessage("知ってるわよ。")
  EndEventProcessing()
  DefineLabel("226")
  ShowMessageFace("sirohebisama_fc1",0,0,2,4)
  ShowMessage("【白蛇様】")
  ShowMessage("無駄な時間を過ごしたのう……")
  EndEventProcessing()
  0()



EVENT   55
 PAGE   1
  ShowMessageFace("",0,0,2,1)
  ShowMessage("【疲れた戦士】")
  ShowMessage("上級職に就ける者は十人に一人。")
  ShowMessage("残り九割の冒険者は、一般職のまま生涯を終える――")
  ShowMessageFace("",0,0,2,2)
  ShowMessage("【疲れた戦士】")
  ShowMessage("まして最上級職など、なれる者は各職ごとに世界に2～3人。")
  ShowMessage("俺なんかが、がんばれる世界じゃなかったんだ……")
  0()



EVENT   56
 PAGE   1
  // condition: switch 1540 is ON
  241(bytes(0x04,0x08,0x6f,0x3a,0x0d,0x52,0x50,0x47,0x3a,0x3a,0x42,0x47,0x4d,0x08,0x3a,0x0a,0x40,0x6e,0x61,0x6d,0x65,0x49,0x22,0x0a,0x61,0x6d,0x69,0x72,0x61,0x06,0x3a,0x06,0x45,0x54,0x3a,0x0c,0x40,0x76,0x6f,0x6c,0x75,0x6d,0x65,0x69,0x69,0x3a,0x0b,0x40,0x70,0x69,0x74,0x63,0x68,0x69,0x69))
  If(2,"A",1)
   ChangeSelfSwitch("A",0)
   RunCommonEvent(322)
   0()
  Else()
   ShowMessageFace("amira_fc1",0,0,2,1)
   ShowMessage("【アミラ】")
   ShowMessage("このアミラは、もう見つけたわ。")
   ShowMessage("別のアミラを探して……")
   0()
  EndIf()
  241(bytes(0x04,0x08,0x6f,0x3a,0x0d,0x52,0x50,0x47,0x3a,0x3a,0x42,0x47,0x4d,0x08,0x3a,0x0a,0x40,0x6e,0x61,0x6d,0x65,0x49,0x22,0x0a,0x6d,0x75,0x72,0x61,0x34,0x06,0x3a,0x06,0x45,0x54,0x3a,0x0c,0x40,0x76,0x6f,0x6c,0x75,0x6d,0x65,0x69,0x69,0x3a,0x0b,0x40,0x70,0x69,0x74,0x63,0x68,0x69,0x69))
  EndEventProcessing()
  0()
 PAGE   2
  // condition: party contains actor #540
  0()



EVENT   57
 PAGE   1
  If(1,1001,0,28,2)
   ShowMessageFace("",0,0,2,1)
   ShowMessage("【中年女性】")
   ShowMessage("ここは、ガラがあんまり良くない町だからね……")
   ShowMessage("子供なんかは、ほとんどいないんだよ。")
   355("actor_label_jump")
   EndEventProcessing()
   DefineLabel("88")
   ShowMessageFace("jack_fc1",2,0,2,2)
   ShowMessage("【かぼちゃ】")
   ShowMessage("びくびく……")
   EndEventProcessing()
   0()
  EndIf()
  If(1,1001,0,29,1)
   ShowMessageFace("",0,0,2,3)
   ShowMessage("【中年女性】")
   ShowMessage("魔物が町をうろつくのは、正直勘弁願いたいねぇ……")
   ShowMessage("町中ぐらい、落ち着いていたいもんさ。")
   EndEventProcessing()
   0()
  EndIf()
  0()



EVENT   58
 PAGE   1
  ShowMessageFace("",0,0,2,1)
  ShowMessage("\\n<Guard>Hey there, stranger. Need a tour guide?")
  355("unlimited_choices(11, [\"Inn\",")
  655("\"Equipment Shop-Blacksmith\",")
  655("\"Item-Accessory Shop\",\"Pub\",")
  655("\"Church\",\"Nowhere\"])")
  If(1,11,0,0,0)
   TeleportPlayer(0,143,24,34,2,0)
   EndEventProcessing()
   0()
  EndIf()
  If(1,11,0,1,0)
   TeleportPlayer(0,143,45,34,2,0)
   EndEventProcessing()
   0()
  EndIf()
  If(1,11,0,2,0)
   TeleportPlayer(0,143,19,49,2,0)
   EndEventProcessing()
   0()
  EndIf()
  If(1,11,0,3,0)
   TeleportPlayer(0,143,29,33,2,0)
   EndEventProcessing()
   0()
  EndIf()
  If(1,11,0,4,0)
   TeleportPlayer(0,143,48,34,2,0)
   EndEventProcessing()
   0()
  EndIf()
  If(1,11,0,5,0)
   EndEventProcessing()
   0()
  EndIf()
  0()



EVENT   59
 PAGE   1
  If(1,1001,0,28,2)
   ShowMessageFace("",0,0,2,1)
   ShowMessage("【老人】")
   ShowMessage("溶岩鉱窟やゴルド火山といったダンジョンには、溶岩が流れておる。")
   ShowMessage("その上を通行すると、ダメージを受けてしまうぞ。")
   ShowMessageFace("",0,0,2,2)
   ShowMessage("【老人】")
   ShowMessage("しかし職業「冒険家」ならば、そのダメージを軽減できる。")
   ShowMessage("「シーフ」と「狩人」をマスターすれば、「冒険家」になれるぞ。")
   ShowMessageFace("",0,0,2,3)
   ShowMessage("【老人】")
   ShowMessage("また、床ダメージを軽減できるアクセサリもあるようじゃが……")
   ShowMessage("どこで手に入るのかのう？")
   EndEventProcessing()
   0()
  EndIf()
  If(1,1001,0,29,1)
   ShowMessageFace("",0,0,2,4)
   ShowMessage("【老人】")
   ShowMessage("いいか、魔物に気を許すでないぞ。")
   ShowMessage("グランゴルド王やサバサ女王が操られたのも、魔物に気を許したせいじゃ。")
   EndEventProcessing()
   0()
  EndIf()
  0()



EVENT   60
 PAGE   1
  ShowMessageFace("",0,0,2,1)
  ShowMessage("【青年】")
  ShowMessage("もう出ないよぉ……")
  0()



EVENT   61
 PAGE   1
  ShowMessageFace("",0,0,2,1)
  ShowMessage("【船乗り】")
  ShowMessage("はぅぅぅ……")
  0()



EVENT   62
 PAGE   1
  ShowMessageFace("",0,0,2,1)
  ShowMessage("【船乗り】")
  ShowMessage("この魚、目が四つもある……")
  ShowMessage("うぇぇ、気持ち悪ぃな。")
  ShowMessageFace("",0,0,2,2)
  ShowMessage("【船乗り】")
  ShowMessage("でも最近、こういう奇妙な魚がよく採れるんだ。")
  ShowMessage("深海にしかいない怪魚も、やたら引っ掛かるしな。")
  ShowMessageFace("",0,0,2,3)
  ShowMessage("【船乗り】")
  ShowMessage("正直、嫌な予感しかしないぜ……")
  ShowMessage("これも魔王の仕業じゃないだろうな。")
  355("actor_label_jump")
  EndEventProcessing()
  DefineLabel("41")
  ShowMessageFace("stein_fc2",0,0,2,4)
  ShowMessage("【プロメスティン】")
  ShowMessage("奇形魚もサンプルとして頂きましょう。")
  ShowMessage("やはり、遺伝子に異常が生じているようですね。")
  EndEventProcessing()
  DefineLabel("79")
  ShowMessageFace("nuruko_fc1",0,0,2,5)
  ShowMessage("【ヌルコ】")
  ShowMessage("きゅー！　きゅー！")
  ShowMessageFace("sonia_fc1",5,0,2,6)
  ShowMessage("【ソニア】")
  ShowMessage("そんな魚、食べちゃダメ！")
  ShowMessage("病気になっちゃうでしょ！")
  If(4,382,0)
   ShowMessageFace("morrigan_fc1",0,0,2,7)
   ShowMessage("【モリガン】")
   ShowMessage("どうせ同類だ、大丈夫だろ。")
   0()
  EndIf()
  EndEventProcessing()
  0()



EVENT   63
 PAGE   1
  ShowMessageFace("",0,0,2,1)
  ShowMessage("【神父】")
  ShowMessage("壁の中にいる教会にようこそ。")
  ShowMessage("何のご用ですかな？")
  ShowChoices(strings("Pray","Nothing"),2)
  IfPlayerPicksChoice(0,null)
   ChangeVariable(1002,1002,0,0,34)
   ShowMessageFace("",0,0,2,2)
   ShowMessage("\\n<Priest>Well then, let us pray to Ilias. ...there, you should feel a bond drawing you to this place.")
   ShowMessageFace("",0,0,2,3)
   ShowMessage("\\n<Priest>If something were to happen to you on your journey, the bond should lead you back here. May Ilias watch over you...")
   0()
  IfPlayerPicksChoice(1,null)
   ShowMessageFace("",0,0,2,4)
   ShowMessage("\\n<Priest>May Ilias watch over you...")
   0()
  404()
  0()



EVENT   64
 PAGE   1
  If(1,1001,0,28,2)
   ShowMessageFace("",0,0,2,1)
   ShowMessage("【戦士】")
   ShowMessage("ここから西に行くには、オリハルコン製の装備が欲しいところだな……")
   ShowMessage("俺は持ってないから、西には行かないぜ！")
   EndEventProcessing()
   0()
  EndIf()
  If(1,1001,0,29,1)
   ShowMessageFace("",0,0,2,2)
   ShowMessage("【戦士】")
   ShowMessage("魔物に対する憎悪が、日々高まっていくのを感じるよ。")
   ShowMessage("魔王討伐の期待も、今後ますます膨れ上がっていくのだろうな。")
   EndEventProcessing()
   0()
  EndIf()
  0()



EVENT   65
 PAGE   1
  If(1,1001,0,28,2)
   ShowMessageFace("",0,0,2,1)
   ShowMessage("【ごろつき】")
   ShowMessage("サキュバスの村は、移民を受け入れてくれる。")
   ShowMessage("後ろ暗い事情がある奴でも、大歓迎だそうだ。")
   ShowMessageFace("",0,0,2,2)
   ShowMessage("【ごろつき】")
   ShowMessage("なんだかうますぎる話にも思えるんだが……")
   ShowMessage("移民に行った奴も、ちょっと痩せたくらいで元気そうなんだよな。")
   If(0,4,0)
    ShowMessageFace("alice_fc5",0,0,2,3)
    ShowMessage("【アリス】")
    ShowMessage("あの村を支配する村長は、あれで苦労人だからな……")
    ShowMessage("行き場をなくした者は、来る者拒まずの精神らしい。")
    0()
   EndIf()
   If(0,5,0)
    ShowMessageFace("iriasu_fc4",2,0,2,4)
    ShowMessage("【イリアス】")
    ShowMessage("行き場をなくした連中の吹き溜まりですね……")
    ShowMessage("淫魔達も追われる者、慣れ合っているのでしょう。")
    0()
   EndIf()
   EndEventProcessing()
   0()
  EndIf()
  If(1,1001,0,29,1)
   ShowMessageFace("",0,0,2,5)
   ShowMessage("【ごろつき】")
   ShowMessage("魔王が各国を攻めている今、どの魔物も全く信用できなくなっちまった。")
   ShowMessage("あいつらはやっぱり、人間の敵なんだよ……")
   EndEventProcessing()
   0()
  EndIf()
  0()



EVENT   66
 PAGE   1
  ShowMessageFace("",0,0,2,1)
  ShowMessage("【老婆】")
  ShowMessage("勇者ルカは、あのハインリヒの再来に違いない。")
  ShowMessage("きっと、魔王を討ち倒してくれるんだよ……")
  355("actor_label_jump")
  EndEventProcessing()
  DefineLabel("538")
  ShowMessageFace("heinrich_fc1",7,0,2,2)
  ShowMessage("【ハインリヒ】")
  ShowMessage("英雄扱いも、なんだか照れ臭いよね……")
  EndEventProcessing()
  0()



EVENT   67
 PAGE   1
  If(1,1001,0,28,2)
   ShowMessageFace("",0,0,2,1)
   ShowMessage("【おじさんＡ】")
   ShowMessage("魔王が攻めてきたら、この町なんてひとたまりもないよ。")
   ShowMessage("グランゴルドあたりに逃げるしかないかねぇ……")
   ShowMessageFace(binary"",0,0,2,2)
   ShowMessage("【おじさんＢ】")
   ShowMessage("いや、都会はかえって狙われやすいんじゃないか？")
   ShowMessage("いっそ、ひなびた田舎に逃げた方がいいと思うぜ。")
   EndEventProcessing()
   0()
  EndIf()
  If(1,1001,0,29,1)
   ShowMessageFace("",0,0,2,3)
   ShowMessage("【おじさんＡ】")
   ShowMessage("やっぱり、都会は危険だね。")
   ShowMessage("何かあれば、真っ先に狙われちまうのさ。")
   ShowMessageFace("",0,0,2,4)
   ShowMessage("【おじさんＢ】")
   ShowMessage("田舎に逃げた方が良さそうだな……")
   ShowMessage("……正直、ここも十分田舎だと思うけど。")
   EndEventProcessing()
   0()
  EndIf()
  0()



EVENT   68
 PAGE   1
  If(1,1001,0,28,2)
   ShowMessageFace("",0,0,2,1)
   ShowMessage("【おじさんＡ】")
   ShowMessage("魔王が攻めてきたら、この町なんてひとたまりもないよ。")
   ShowMessage("グランゴルドあたりに逃げるしかないかねぇ……")
   ShowMessageFace(binary"",0,0,2,2)
   ShowMessage("【おじさんＢ】")
   ShowMessage("いや、都会はかえって狙われやすいんじゃないか？")
   ShowMessage("いっそ、ひなびた田舎に逃げた方がいいと思うぜ。")
   EndEventProcessing()
   0()
  EndIf()
  If(1,1001,0,29,1)
   ShowMessageFace("",0,0,2,3)
   ShowMessage("【おじさんＡ】")
   ShowMessage("やっぱり、都会は危険だね。")
   ShowMessage("何かあれば、真っ先に狙われちまうのさ。")
   ShowMessageFace("",0,0,2,4)
   ShowMessage("【おじさんＢ】")
   ShowMessage("田舎に逃げた方が良さそうだな……")
   ShowMessage("……正直、ここも十分田舎だと思うけど。")
   EndEventProcessing()
   0()
  EndIf()
  0()



EVENT   69
 PAGE   1
  ShowMessageFace("",0,0,2,1)
  ShowMessage("【旅の戦士】")
  ShowMessage("貴婦人の村の近くには、非常に風光明媚な山がある。")
  ShowMessage("それを目当てに、村に移住するセレブも多いようだ。")
  355("actor_label_jump")
  EndEventProcessing()
  DefineLabel("290")
  ShowMessageFace("madaminsect_fc1",0,0,2,2)
  ShowMessage("【シルヴィア】")
  ShowMessage("美しい光景は、心の癒やしになりますからね……")
  EndEventProcessing()
  DefineLabel("291")
  ShowMessageFace("madamumbrella_fc1",0,0,2,3)
  ShowMessage("【シャロン】")
  ShowMessage("風景には、あまり興味はありませんけれど……")
  ShowMessage("それで人が集まってくるなら、儲けものです。")
  EndEventProcessing()
  0()



EVENT   70
 PAGE   1
  ShowMessageFace("",0,0,2,1)
  ShowMessage("【兵士】")
  ShowMessage("町は不安で包まれ、人通りも減っています。")
  ShowMessage("普段は治安の悪い町ですが、かえって平和になったほどですよ……")
  355("actor_label_jump")
  EndEventProcessing()
  DefineLabel("529")
  ShowMessageFace("sara_fc1",4,0,2,2)
  ShowMessage("【サラ】")
  ShowMessage("それは、手放しでは喜べないわね……")
  EndEventProcessing()
  0()



EVENT   71
 PAGE   1
  ShowMessageFace("",0,0,2,1)
  ShowMessage("【おばさん】")
  ShowMessage("これから、何かあってもいいように……")
  ShowMessage("日持ちのする食べ物を、少し買い溜めしておこうかね。")
  0()



EVENT   72
 PAGE   1
  ShowMessageFace("",0,0,2,1)
  ShowMessage("【青年】")
  ShowMessage("サラマンダー様の聖山の方を向いて、毎日拝んでるんだ。")
  ShowMessage("どうか、魔王を倒したまえ……ってね。")
  ShowMessageFace("",0,0,2,2)
  ShowMessage("【青年】")
  ShowMessage("イリアスなんて、ご加護はないよ。")
  ShowMessage("何十年も誰も見てないって聞くし、もう死んじゃったんだろ。")
  355("actor_label_jump")
  EndEventProcessing()
  DefineLabel("15")
  ShowMessageFace("salamander_fc1",0,0,2,3)
  ShowMessage("【サラマンダー】")
  ShowMessage("聖山を拝まれても、私は今そこにいないのだがな……")
  EndEventProcessing()
  DefineLabel("26")
  ShowMessageFace("iriasu_fc5",0,0,2,4)
  ShowMessage("【イリアス】")
  ShowMessage("おのれ……")
  ShowMessage("魔王を滅ぼし、私の力を見せつけてやらねば。")
  If(0,6,0)
   ShowMessageFace("sonia_fc1",4,0,2,5)
   ShowMessage("【ソニア】")
   ShowMessage("（短絡的にこの青年を滅ぼそうとしないくらいには成長してる……）")
   0()
  EndIf()
  EndEventProcessing()
  DefineLabel("383")
  ShowMessageFace("eden_fc1",2,0,2,6)
  ShowMessage("【エデン】")
  ShowMessage("なんという不遜な言葉！")
  ShowMessage("骨を砕きますよ！")
  ShowMessageFace("",0,0,2,7)
  ShowMessage("【青年】")
  ShowMessage("や、やめてくれー！")
  EndEventProcessing()
  0()



EVENT   73
 PAGE   1
  ShowMessageFace("",0,0,2,1)
  ShowMessage("【戦士】")
  ShowMessage("ゴルド地方最西部の砂漠地帯に、タルタロスがあるんだが……")
  ShowMessage("その近くに、奇妙な遺跡があるらしい。")
  ShowMessageFace("",0,0,2,2)
  ShowMessage("【戦士】")
  ShowMessage("見た事のない魔物や、白衣の人物を見た……")
  ShowMessage("そこに踏み込んだ冒険家は、そう言ったらしいぜ。")
  ShowMessageFace("",0,0,2,3)
  ShowMessage("【戦士】")
  ShowMessage("ちなみにその冒険家は、そのまま死んだよ。")
  ShowMessage("ハーピーの羽で戻ってきたが、すでに瀕死の状態だったんだ。")
  355("actor_label_jump")
  EndEventProcessing()
  DefineLabel("41")
  ShowMessageFace("stein_fc2",0,0,2,4)
  ShowMessage("【プロメスティン】")
  ShowMessage("白衣の人物……気になりますね。")
  EndEventProcessing()
  0()



EVENT   74
 PAGE   1
  If(1,1001,0,28,2)
   ShowMessageFace(binary"",0,0,2,1)
   ShowMessage("【ごろつき】")
   ShowMessage("魔王の宣戦布告以来、何の動きもないじゃないか……")
   ShowMessage("誰かの手の込んだイタズラじゃないのか？")
   EndEventProcessing()
   0()
  EndIf()
  If(1,1001,0,29,1)
   ShowMessageFace("",0,0,2,2)
   ShowMessage("【ごろつき】")
   ShowMessage("勇者は、どこで道草食ってんだよ……")
   ShowMessage("魔王なんて、とっとと始末してくれよ……")
   EndEventProcessing()
   0()
  EndIf()
  0()



EVENT   75
 PAGE   1
  ShowMessageFace("",0,0,2,1)
  ShowMessage("【船乗り】")
  ShowMessage("幽霊船に出くわしたって奴がいる。")
  ShowMessage("なんと、キャプテン・セレーネの海賊旗を掲げてたって話さ。")
  ShowMessageFace("",0,0,2,2)
  ShowMessage("【船乗り】")
  ShowMessage("ホラ話と笑うなかれ、海ってのはまだまだ不思議な場所さ。")
  ShowMessage("何が起きても、変じゃねぇよ……")
  355("actor_label_jump")
  EndEventProcessing()
  DefineLabel("536")
  ShowMessageFace("serene_fc1",3,0,2,3)
  ShowMessage("【セレーネ】")
  ShowMessage("あの幽霊船、割と目撃されてるのよね……")
  EndEventProcessing()
  0()



EVENT   76
 PAGE   1
  0()



EVENT   77
 PAGE   1
  ShowMessageFace("",0,0,2,1)
  ShowMessage("【船乗り】")
  ShowMessage("外海ってのは、非常に危険だ。")
  ShowMessage("潮も風も安定しないし、魔物だって強い。")
  ShowMessageFace("",0,0,2,2)
  ShowMessage("【船乗り】")
  ShowMessage("だから俺達も、沿岸からは決して離れない。")
  ShowMessage("安定した航行ルートを外れる事は、死を意味するんだよ。")
  If(0,2148,0)
   ShowMessageFace("tatunoko_k_fc1",2,0,2,3)
   ShowMessage("【たつこ】")
   ShowMessage("外海は、すごく強い魔物もいるのです。")
   ShowMessage("マンタとか、イッカクとか……")
   ShowMessageFace("umiusi_k_fc1",0,0,2,4)
   ShowMessage("【ステイシー】")
   ShowMessage("海軍でさえ、外海に出る際は重武装で臨みます。")
   ShowMessage("用がないなら、行かない方が良いですね……")
   0()
  EndIf()
  If(0,2149,0)
   ShowMessageFace("bonny_fc1",1,0,2,5)
   ShowMessage("【ボニー】")
   ShowMessage("おさかな海賊団は、外海など恐れぬぞ！")
   ShowMessage("近いうち、外海への航海に乗り出すのだ！")
   ShowMessageFace("ashel_fc1",0,0,2,6)
   ShowMessage("【アシェル】")
   ShowMessage("心意気は認めますが……")
   ShowMessage("無茶は禁物ですよ、お嬢。")
   ShowMessageFace("bonny_fc1",0,0,2,7)
   ShowMessage("【ボニー】")
   ShowMessage("アシェル……")
   ShowMessage("お前は、私にガミガミ言うのが仕事なのか？")
   ShowMessageFace("ashel_fc1",0,0,2,8)
   ShowMessage("【アシェル】")
   ShowMessage("そうです。")
   0()
  EndIf()
  0()



EVENT   78
 PAGE   1
  0()



EVENT   79
 PAGE   1
  If(1,1001,0,28,2)
   ShowMessageFace("",0,0,2,1)
   ShowMessage("【兵士】")
   ShowMessage("魔王の軍勢が攻めてきても、戦い抜いてみせます！")
   ShowMessage("……私の墓は、あのヤシの木の側に建てて下さいね。")
   EndEventProcessing()
   0()
  EndIf()
  If(1,1001,0,29,1)
   ShowMessageFace("",0,0,2,2)
   ShowMessage("【兵士】")
   ShowMessage("魔物の軍勢が攻めてくるって話も、もはや冗談になりませんね。")
   ShowMessage("各国の王都があんな事になった以上、この町もどうなるか……")
   EndEventProcessing()
   0()
  EndIf()
  0()



EVENT   80
 PAGE   1
  ShowMessageFace("",0,0,2,1)
  ShowMessage("【漁師】")
  ShowMessage("最近、やたら大漁なのはいいんだが……")
  ShowMessage("戦争やら魔王の宣戦布告やらで、景気がメチャクチャなのが頭痛のタネだな。")
  0()



EVENT   81
 PAGE   1
  ShowMessageFace("",0,0,2,1)
  ShowMessage("【老人】")
  ShowMessage("つい数日前、大漁の魚の死骸が押し寄せてきおった……")
  ShowMessage("長い間生きているが、あんなのは見た事がないぞ。")
  ShowMessageFace("",0,0,2,2)
  ShowMessage("【老人】")
  ShowMessage("この海に、何か良くない事が起きておる。")
  ShowMessage("儂には分かるんじゃ……")
  355("actor_label_jump")
  EndEventProcessing()
  DefineLabel("41")
  ShowMessageFace("stein_fc2",0,0,2,3)
  ShowMessage("【プロメスティン】")
  ShowMessage("魚の死骸、そこにも浮いていますね……")
  ShowMessage("サンプルとして取っておきましょう。")
  ShowMessageFace("stein_fc2",0,0,2,4)
  ShowMessage("【プロメスティン】")
  ShowMessage("これ、やけに背骨が湾曲して……")
  ShowMessage("先天的な奇形でしょうか。")
  EndEventProcessing()
  0()



EVENT   82
 PAGE   1
  If(1,1001,0,28,2)
   ShowMessageFace("k_mermaid_fc1",0,0,2,1)
   ShowMessage("【海賊マーメイド】")
   ShowMessage("魔王様が、この地上を支配したら……")
   ShowMessage("また来るかな、海賊黄金時代！")
   355("actor_label_jump")
   EndEventProcessing()
   DefineLabel("202")
   ShowMessageFace("bonny_fc1",1,0,2,2)
   ShowMessage("【ボニー】")
   ShowMessage("その時には、おさかな海賊団が頂点に君臨するぞ！")
   EndEventProcessing()
   0()
  EndIf()
  If(1,1001,0,29,1)
   ShowMessageFace("k_mermaid_fc1",2,0,2,3)
   ShowMessage("【海賊マーメイド】")
   ShowMessage("なんかこの町、イヤな感じ……")
   ShowMessage("歩いてたら、石をぶつけられちゃったよぉ。")
   EndEventProcessing()
   0()
  EndIf()
  0()



EVENT   83
 PAGE   1
  ShowMessageFace("",0,0,2,1)
  ShowMessage("【あやしい男】")
  ShowMessage("10Gで、海に関するとある秘密を買わないか？")
  ShowChoices(strings("買う","いらない"),2)
  IfPlayerPicksChoice(0,null)
   If(7,9,1)
    ShowMessageFace("",0,0,2,2)
    ShowMessage("【あやしい男】")
    ShowMessage("おいおい、金が足りてねーぞ……")
    0()
   EndIf()
   125(1,0,10)
   ShowMessageFace("",0,0,2,3)
   ShowMessage("ルカは10G支払った！")
   ShowMessageFace("",0,0,2,4)
   ShowMessage("【あやしい男】")
   ShowMessage("最近、大漁が続いているが……")
   ShowMessage("見た事もないような、奇怪な魚もいっぱい捕れてるんだ。")
   ShowMessageFace("",0,0,2,5)
   ShowMessage("【あやしい男】")
   ShowMessage("そういう魚は、普通じゃ絶対売れないから……")
   ShowMessage("なんとカマボコにしてるみたいだぜ、これ豆な。")
   355("actor_label_jump")
   EndEventProcessing()
   DefineLabel("53")
   ShowMessageFace("slime_fc1",2,0,2,6)
   ShowMessage("【ライム】")
   ShowMessage("カマボコなのに、お豆なの……？")
   ShowMessageFace("sonia_fc1",0,0,2,7)
   ShowMessage("【ソニア】")
   ShowMessage("豆知識、っていう意味ね。")
   EndEventProcessing()
   DefineLabel("171")
   ShowMessageFace("lizardboss_fc1",3,0,2,8)
   ShowMessage("【ミランダ】")
   ShowMessage("知らず知らずのうちに、食べてるかもしれないのか……")
   ShowMessage("あんまり聞きたくなかった話だねぇ。")
   EndEventProcessing()
   DefineLabel("203")
   ShowMessageFace("tatunoko_k_fc1",2,0,2,9)
   ShowMessage("【たつこ】")
   ShowMessage("カマボコが食べられなくなったのです……")
   EndEventProcessing()
   0()
  IfPlayerPicksChoice(1,null)
   0()
  404()
  0()



EVENT   84
 PAGE   1
  ShowMessageFace("",0,0,2,1)
  ShowMessage("【元漁師】")
  ShowMessage("海を知る者は、みなこう思っておる……")
  ShowMessage("「近頃、海の様子がおかしい」とな。")
  ShowMessageFace("",0,0,2,2)
  ShowMessage("【元漁師】")
  ShowMessage("大量に採れる奇妙な魚、打ち上げられる魚の死骸、海鳴りに謎の光……")
  ShowMessage("この世の終わりが近付いているのかもしれんのう。")
  355("actor_label_jump")
  EndEventProcessing()
  DefineLabel("41")
  ShowMessageFace("stein_fc2",0,0,2,3)
  ShowMessage("【プロメスティン】")
  ShowMessage("海だけではありません。")
  ShowMessage("農作物の異常も、世界規模に広がりつつあります。")
  ShowMessageFace("stein_fc2",0,0,2,4)
  ShowMessage("【プロメスティン】")
  ShowMessage("滅びていった異世界と、状況は酷似していますね。")
  ShowMessage("いよいよ、この世界でも始まりつつあるのでしょう……")
  EndEventProcessing()
  0()



EVENT   85
 PAGE   1
  If(1,1001,0,29,2)
   ShowMessageFace("",0,0,2,1)
   ShowMessage("【男】")
   ShowMessage("宣戦布告以来、なんで魔王に動きがないのかねぇ……")
   ShowMessage("もしかして、すでに勇者ルカが倒しちまったんじゃないか？")
   EndEventProcessing()
   0()
  EndIf()
  If(1,1001,0,30,1)
   ShowMessageFace("",0,0,2,2)
   ShowMessage("【男】")
   ShowMessage("魔物なんて、みんな町の外に叩き出しちまえ！")
   ShowMessage("そうでないと、俺たち人間が滅ぼされるぞ！")
   EndEventProcessing()
   0()
  EndIf()
  0()



EVENT   86
 PAGE   1
  250(bytes(0x04,0x08,0x6f,0x3a,0x0c,0x52,0x50,0x47,0x3a,0x3a,0x53,0x45,0x08,0x3a,0x0a,0x40,0x6e,0x61,0x6d,0x65,0x49,0x22,0x0a,0x49,0x74,0x65,0x6d,0x31,0x06,0x3a,0x06,0x45,0x54,0x3a,0x0b,0x40,0x70,0x69,0x74,0x63,0x68,0x69,0x69,0x3a,0x0c,0x40,0x76,0x6f,0x6c,0x75,0x6d,0x65,0x69,0x55))
  ChangeSelfSwitch("A",0)
  ChangeInventory_Item(223,0,0,1)
  0()
 PAGE   2
  // condition: self-switch A is ON
  0()



EVENT   87
 PAGE   1
  250(bytes(0x04,0x08,0x6f,0x3a,0x0c,0x52,0x50,0x47,0x3a,0x3a,0x53,0x45,0x08,0x3a,0x0a,0x40,0x6e,0x61,0x6d,0x65,0x49,0x22,0x0a,0x49,0x74,0x65,0x6d,0x31,0x06,0x3a,0x06,0x45,0x54,0x3a,0x0b,0x40,0x70,0x69,0x74,0x63,0x68,0x69,0x69,0x3a,0x0c,0x40,0x76,0x6f,0x6c,0x75,0x6d,0x65,0x69,0x55))
  ChangeSelfSwitch("A",0)
  ChangeInventory_Item(61,0,0,1)
  0()
 PAGE   2
  // condition: self-switch A is ON
  0()



EVENT   88
 PAGE   1
  250(bytes(0x04,0x08,0x6f,0x3a,0x0c,0x52,0x50,0x47,0x3a,0x3a,0x53,0x45,0x08,0x3a,0x0a,0x40,0x6e,0x61,0x6d,0x65,0x49,0x22,0x0a,0x49,0x74,0x65,0x6d,0x31,0x06,0x3a,0x06,0x45,0x54,0x3a,0x0b,0x40,0x70,0x69,0x74,0x63,0x68,0x69,0x69,0x3a,0x0c,0x40,0x76,0x6f,0x6c,0x75,0x6d,0x65,0x69,0x55))
  ChangeSelfSwitch("A",0)
  ChangeInventory_Item(8,0,0,1)
  0()
 PAGE   2
  // condition: self-switch A is ON
  0()



EVENT   89
 PAGE   1
  250(bytes(0x04,0x08,0x6f,0x3a,0x0c,0x52,0x50,0x47,0x3a,0x3a,0x53,0x45,0x08,0x3a,0x0a,0x40,0x6e,0x61,0x6d,0x65,0x49,0x22,0x0a,0x49,0x74,0x65,0x6d,0x31,0x06,0x3a,0x06,0x45,0x54,0x3a,0x0b,0x40,0x70,0x69,0x74,0x63,0x68,0x69,0x69,0x3a,0x0c,0x40,0x76,0x6f,0x6c,0x75,0x6d,0x65,0x69,0x55))
  ChangeSelfSwitch("A",0)
  ChangeInventory_Item(447,0,0,1)
  0()
 PAGE   2
  // condition: self-switch A is ON
  0()



EVENT   90
 PAGE   1
  250(bytes(0x04,0x08,0x6f,0x3a,0x0c,0x52,0x50,0x47,0x3a,0x3a,0x53,0x45,0x08,0x3a,0x0a,0x40,0x6e,0x61,0x6d,0x65,0x49,0x22,0x0a,0x49,0x74,0x65,0x6d,0x31,0x06,0x3a,0x06,0x45,0x54,0x3a,0x0b,0x40,0x70,0x69,0x74,0x63,0x68,0x69,0x69,0x3a,0x0c,0x40,0x76,0x6f,0x6c,0x75,0x6d,0x65,0x69,0x55))
  ChangeSelfSwitch("A",0)
  ChangeInventory_Item(24,0,0,1)
  0()
 PAGE   2
  // condition: self-switch A is ON
  0()



EVENT   91
 PAGE   1
  ShowMessageFace("",0,0,2,1)
  ShowMessage("【腕の立ちそうな剣士】")
  ShowMessage("目当ての上級職も全てマスターして、そろそろ育成も頭打ちだな。")
  ShowMessage("ぜひ、最上級職に就いてみたいものだよ。")
  ShowMessageFace("",0,0,2,2)
  ShowMessage("【腕の立ちそうな剣士】")
  ShowMessage("ひょっとして、君達もそうなんじゃないか？")
  ShowChoices(strings("はい","いいえ"),2)
  IfPlayerPicksChoice(0,null)
   ShowMessageFace("",0,0,2,3)
   ShowMessage("【腕の立ちそうな剣士】")
   ShowMessage("お互い、大変だな。")
   ShowMessage("最上級職は、どれも転職アイテムがなければ転職できん。")
   ShowMessageFace("",0,0,2,4)
   ShowMessage("【腕の立ちそうな剣士】")
   ShowMessage("各国の王家が転職アイテムを持っているという話だが……")
   ShowMessage("当然ながら、そう簡単に譲ってくれるはずもないからな。")
   0()
  IfPlayerPicksChoice(1,null)
   ShowMessageFace("",0,0,2,5)
   ShowMessage("【腕の立ちそうな剣士】")
   ShowMessage("それは失礼……")
   0()
  404()
  0()



EVENT   92
 PAGE   1
  ShowMessageFace("",0,0,2,1)
  ShowMessage("【海賊】")
  ShowMessage("グロリア海賊団に捕まって、バトルファックの相手をさせられた事がある。")
  ShowMessage("魂まで搾られ尽くしたぜ……")
  ShowMessageFace("",0,0,2,2)
  ShowMessage("【海賊】")
  ShowMessage("仲間が身代金を払って助けてくれなかったら、搾り殺されてたな。")
  ShowMessage("魔物より怖い連中だよ、まったく……")
  If(0,2149,0)
   ShowMessageFace("bonny_fc1",0,0,2,3)
   ShowMessage("【ボニー】")
   ShowMessage("グロリア海賊団め、やりたい放題だな。")
   ShowMessage("いつか、我々が叩きのめしてやらねばならん……")
   0()
  EndIf()
  If(0,2148,0)
   ShowMessageFace("tatunoko_k_fc1",2,0,2,4)
   ShowMessage("【たつこ】")
   ShowMessage("グロリア海賊団の摘発は難しいです。")
   ShowMessage("狙うのは海賊ばかりなので、被害届が出ないのですよね……")
   0()
  EndIf()
  0()



EVENT   93
 PAGE   1
  // condition: switch 1102 is ON
  // condition: switch 1103 is ON
  241(bytes(0x04,0x08,0x6f,0x3a,0x0d,0x52,0x50,0x47,0x3a,0x3a,0x42,0x47,0x4d,0x08,0x3a,0x0a,0x40,0x6e,0x61,0x6d,0x65,0x49,0x22,0x13,0x73,0x63,0x65,0x6e,0x65,0x5f,0x6f,0x64,0x61,0x79,0x61,0x6b,0x61,0x31,0x06,0x3a,0x06,0x45,0x54,0x3a,0x0c,0x40,0x76,0x6f,0x6c,0x75,0x6d,0x65,0x69,0x69,0x3a,0x0b,0x40,0x70,0x69,0x74,0x63,0x68,0x69,0x69))
  ShowMessageFace("kamuro_fc1",0,0,2,1)
  ShowMessage("【かむろ】")
  ShowMessage("きつね先輩……")
  ShowMessage("なんで、船は大きいのに海に沈まないんですか？")
  ShowMessageFace("youko_fc1",0,0,2,2)
  ShowMessage("【きつね】")
  ShowMessage("浮力。")
  ShowMessageFace("kamuro_fc1",2,0,2,3)
  ShowMessage("【かむろ】")
  ShowMessage("えっ……？")
  ShowMessageFace("youko_fc1",0,0,2,4)
  ShowMessage("【きつね】")
  ShowMessage("水の上に浮いた物体に働く浮力は、")
  ShowMessage("それが排除した水の重さに等しいの。")
  ShowMessageFace("kamuro_fc1",2,0,2,5)
  ShowMessage("【かむろ】")
  ShowMessage("き、きつね先輩……いったいなぜ、そんな知識を？")
  ShowMessageFace("youko_fc1",1,0,2,6)
  ShowMessage("【きつね】")
  ShowMessage("あたし、おふねマニアだから……")
  ShowMessage("それなりに知識があるんだよね♪")
  ShowMessageFace("kamuro_fc1",2,0,2,7)
  ShowMessage("【かむろ】")
  ShowMessage("さ、さすがきつね先輩……")
  241(bytes(0x04,0x08,0x6f,0x3a,0x0d,0x52,0x50,0x47,0x3a,0x3a,0x42,0x47,0x4d,0x08,0x3a,0x0a,0x40,0x6e,0x61,0x6d,0x65,0x49,0x22,0x0a,0x6d,0x75,0x72,0x61,0x34,0x06,0x3a,0x06,0x45,0x54,0x3a,0x0c,0x40,0x76,0x6f,0x6c,0x75,0x6d,0x65,0x69,0x69,0x3a,0x0b,0x40,0x70,0x69,0x74,0x63,0x68,0x69,0x69))
  0()
 PAGE   2
  // condition: party contains actor #102
  0()
 PAGE   3
  // condition: party contains actor #103
  0()



EVENT   94
 PAGE   1
  // condition: switch 1102 is ON
  // condition: switch 1103 is ON
  241(bytes(0x04,0x08,0x6f,0x3a,0x0d,0x52,0x50,0x47,0x3a,0x3a,0x42,0x47,0x4d,0x08,0x3a,0x0a,0x40,0x6e,0x61,0x6d,0x65,0x49,0x22,0x13,0x73,0x63,0x65,0x6e,0x65,0x5f,0x6f,0x64,0x61,0x79,0x61,0x6b,0x61,0x31,0x06,0x3a,0x06,0x45,0x54,0x3a,0x0c,0x40,0x76,0x6f,0x6c,0x75,0x6d,0x65,0x69,0x69,0x3a,0x0b,0x40,0x70,0x69,0x74,0x63,0x68,0x69,0x69))
  ShowMessageFace("kamuro_fc1",0,0,2,1)
  ShowMessage("【かむろ】")
  ShowMessage("きつね先輩……")
  ShowMessage("なんで、船は大きいのに海に沈まないんですか？")
  ShowMessageFace("youko_fc1",0,0,2,2)
  ShowMessage("【きつね】")
  ShowMessage("浮力。")
  ShowMessageFace("kamuro_fc1",2,0,2,3)
  ShowMessage("【かむろ】")
  ShowMessage("えっ……？")
  ShowMessageFace("youko_fc1",0,0,2,4)
  ShowMessage("【きつね】")
  ShowMessage("水の上に浮いた物体に働く浮力は、")
  ShowMessage("それが排除した水の重さに等しいの。")
  ShowMessageFace("kamuro_fc1",2,0,2,5)
  ShowMessage("【かむろ】")
  ShowMessage("き、きつね先輩……いったいなぜ、そんな知識を？")
  ShowMessageFace("youko_fc1",1,0,2,6)
  ShowMessage("【きつね】")
  ShowMessage("あたし、おふねマニアだから……")
  ShowMessage("それなりに知識があるんだよね♪")
  ShowMessageFace("kamuro_fc1",2,0,2,7)
  ShowMessage("【かむろ】")
  ShowMessage("さ、さすがきつね先輩……")
  241(bytes(0x04,0x08,0x6f,0x3a,0x0d,0x52,0x50,0x47,0x3a,0x3a,0x42,0x47,0x4d,0x08,0x3a,0x0a,0x40,0x6e,0x61,0x6d,0x65,0x49,0x22,0x0a,0x6d,0x75,0x72,0x61,0x34,0x06,0x3a,0x06,0x45,0x54,0x3a,0x0c,0x40,0x76,0x6f,0x6c,0x75,0x6d,0x65,0x69,0x69,0x3a,0x0b,0x40,0x70,0x69,0x74,0x63,0x68,0x69,0x69))
  0()
 PAGE   2
  // condition: party contains actor #102
  0()
 PAGE   3
  // condition: party contains actor #103
  0()
