﻿
DisplayName "Fort Gold 2F"



EVENT   1
 PAGE   1
  250(bytes(0x04,0x08,0x6f,0x3a,0x0c,0x52,0x50,0x47,0x3a,0x3a,0x53,0x45,0x08,0x3a,0x0a,0x40,0x6e,0x61,0x6d,0x65,0x49,0x22,0x09,0x4d,0x6f,0x76,0x65,0x06,0x3a,0x06,0x45,0x54,0x3a,0x0b,0x40,0x70,0x69,0x74,0x63,0x68,0x69,0x69,0x3a,0x0c,0x40,0x76,0x6f,0x6c,0x75,0x6d,0x65,0x69,0x55))
  TeleportPlayer(0,291,20,19,0,0)
  0()



EVENT   2
 PAGE   1
  250(bytes(0x04,0x08,0x6f,0x3a,0x0c,0x52,0x50,0x47,0x3a,0x3a,0x53,0x45,0x08,0x3a,0x0a,0x40,0x6e,0x61,0x6d,0x65,0x49,0x22,0x09,0x4d,0x6f,0x76,0x65,0x06,0x3a,0x06,0x45,0x54,0x3a,0x0b,0x40,0x70,0x69,0x74,0x63,0x68,0x69,0x69,0x3a,0x0c,0x40,0x76,0x6f,0x6c,0x75,0x6d,0x65,0x69,0x55))
  TeleportPlayer(0,291,21,19,0,0)
  0()



EVENT   3
 PAGE   1
  250(bytes(0x04,0x08,0x6f,0x3a,0x0c,0x52,0x50,0x47,0x3a,0x3a,0x53,0x45,0x08,0x3a,0x0a,0x40,0x6e,0x61,0x6d,0x65,0x49,0x22,0x09,0x4d,0x6f,0x76,0x65,0x06,0x3a,0x06,0x45,0x54,0x3a,0x0b,0x40,0x70,0x69,0x74,0x63,0x68,0x69,0x69,0x3a,0x0c,0x40,0x76,0x6f,0x6c,0x75,0x6d,0x65,0x69,0x55))
  TeleportPlayer(0,291,33,19,0,0)
  0()



EVENT   4
 PAGE   1
  250(bytes(0x04,0x08,0x6f,0x3a,0x0c,0x52,0x50,0x47,0x3a,0x3a,0x53,0x45,0x08,0x3a,0x0a,0x40,0x6e,0x61,0x6d,0x65,0x49,0x22,0x09,0x4d,0x6f,0x76,0x65,0x06,0x3a,0x06,0x45,0x54,0x3a,0x0b,0x40,0x70,0x69,0x74,0x63,0x68,0x69,0x69,0x3a,0x0c,0x40,0x76,0x6f,0x6c,0x75,0x6d,0x65,0x69,0x55))
  TeleportPlayer(0,291,34,19,0,0)
  0()



EVENT   5
 PAGE   1
  250(bytes(0x04,0x08,0x6f,0x3a,0x0c,0x52,0x50,0x47,0x3a,0x3a,0x53,0x45,0x08,0x3a,0x0a,0x40,0x6e,0x61,0x6d,0x65,0x49,0x22,0x09,0x4d,0x6f,0x76,0x65,0x06,0x3a,0x06,0x45,0x54,0x3a,0x0b,0x40,0x70,0x69,0x74,0x63,0x68,0x69,0x69,0x3a,0x0c,0x40,0x76,0x6f,0x6c,0x75,0x6d,0x65,0x69,0x55))
  TeleportPlayer(0,291,13,42,0,0)
  0()



EVENT   6
 PAGE   1
  250(bytes(0x04,0x08,0x6f,0x3a,0x0c,0x52,0x50,0x47,0x3a,0x3a,0x53,0x45,0x08,0x3a,0x0a,0x40,0x6e,0x61,0x6d,0x65,0x49,0x22,0x09,0x4d,0x6f,0x76,0x65,0x06,0x3a,0x06,0x45,0x54,0x3a,0x0b,0x40,0x70,0x69,0x74,0x63,0x68,0x69,0x69,0x3a,0x0c,0x40,0x76,0x6f,0x6c,0x75,0x6d,0x65,0x69,0x55))
  TeleportPlayer(0,291,14,42,0,0)
  0()



EVENT   7
 PAGE   1
  250(bytes(0x04,0x08,0x6f,0x3a,0x0c,0x52,0x50,0x47,0x3a,0x3a,0x53,0x45,0x08,0x3a,0x0a,0x40,0x6e,0x61,0x6d,0x65,0x49,0x22,0x09,0x4d,0x6f,0x76,0x65,0x06,0x3a,0x06,0x45,0x54,0x3a,0x0b,0x40,0x70,0x69,0x74,0x63,0x68,0x69,0x69,0x3a,0x0c,0x40,0x76,0x6f,0x6c,0x75,0x6d,0x65,0x69,0x55))
  TeleportPlayer(0,291,12,42,0,0)
  0()



EVENT   8
 PAGE   1
  250(bytes(0x04,0x08,0x6f,0x3a,0x0c,0x52,0x50,0x47,0x3a,0x3a,0x53,0x45,0x08,0x3a,0x0a,0x40,0x6e,0x61,0x6d,0x65,0x49,0x22,0x09,0x4d,0x6f,0x76,0x65,0x06,0x3a,0x06,0x45,0x54,0x3a,0x0b,0x40,0x70,0x69,0x74,0x63,0x68,0x69,0x69,0x3a,0x0c,0x40,0x76,0x6f,0x6c,0x75,0x6d,0x65,0x69,0x55))
  TeleportPlayer(0,291,40,42,0,0)
  0()



EVENT   9
 PAGE   1
  250(bytes(0x04,0x08,0x6f,0x3a,0x0c,0x52,0x50,0x47,0x3a,0x3a,0x53,0x45,0x08,0x3a,0x0a,0x40,0x6e,0x61,0x6d,0x65,0x49,0x22,0x09,0x4d,0x6f,0x76,0x65,0x06,0x3a,0x06,0x45,0x54,0x3a,0x0b,0x40,0x70,0x69,0x74,0x63,0x68,0x69,0x69,0x3a,0x0c,0x40,0x76,0x6f,0x6c,0x75,0x6d,0x65,0x69,0x55))
  TeleportPlayer(0,291,41,42,0,0)
  0()



EVENT   10
 PAGE   1
  250(bytes(0x04,0x08,0x6f,0x3a,0x0c,0x52,0x50,0x47,0x3a,0x3a,0x53,0x45,0x08,0x3a,0x0a,0x40,0x6e,0x61,0x6d,0x65,0x49,0x22,0x09,0x4d,0x6f,0x76,0x65,0x06,0x3a,0x06,0x45,0x54,0x3a,0x0b,0x40,0x70,0x69,0x74,0x63,0x68,0x69,0x69,0x3a,0x0c,0x40,0x76,0x6f,0x6c,0x75,0x6d,0x65,0x69,0x55))
  TeleportPlayer(0,291,42,42,0,0)
  0()



EVENT   11
 PAGE   1
  250(bytes(0x04,0x08,0x6f,0x3a,0x0c,0x52,0x50,0x47,0x3a,0x3a,0x53,0x45,0x08,0x3a,0x0a,0x40,0x6e,0x61,0x6d,0x65,0x49,0x22,0x0a,0x43,0x68,0x65,0x73,0x74,0x06,0x3a,0x06,0x45,0x54,0x3a,0x0b,0x40,0x70,0x69,0x74,0x63,0x68,0x69,0x69,0x3a,0x0c,0x40,0x76,0x6f,0x6c,0x75,0x6d,0x65,0x69,0x55))
  205(0,bytes(0x04,0x08,0x6f,0x3a,0x13,0x52,0x50,0x47,0x3a,0x3a,0x4d,0x6f,0x76,0x65,0x52,0x6f,0x75,0x74,0x65,0x09,0x3a,0x0c,0x40,0x72,0x65,0x70,0x65,0x61,0x74,0x46,0x3a,0x0f,0x40,0x73,0x6b,0x69,0x70,0x70,0x61,0x62,0x6c,0x65,0x46,0x3a,0x0a,0x40,0x77,0x61,0x69,0x74,0x54,0x3a,0x0a,0x40,0x6c,0x69,0x73,0x74,0x5b,0x0b,0x6f,0x3a,0x15,0x52,0x50,0x47,0x3a,0x3a,0x4d,0x6f,0x76,0x65,0x43,0x6f,0x6d,0x6d,0x61,0x6e,0x64,0x07,0x3a,0x0a,0x40,0x63,0x6f,0x64,0x65,0x69,0x29,0x3a,0x10,0x40,0x70,0x61,0x72,0x61,0x6d,0x65,0x74,0x65,0x72,0x73,0x5b,0x00,0x6f,0x3b,0x0a,0x07,0x3b,0x0b,0x69,0x16,0x3b,0x0c,0x5b,0x00,0x6f,0x3b,0x0a,0x07,0x3b,0x0b,0x69,0x14,0x3b,0x0c,0x5b,0x06,0x69,0x08,0x6f,0x3b,0x0a,0x07,0x3b,0x0b,0x69,0x17,0x3b,0x0c,0x5b,0x00,0x6f,0x3b,0x0a,0x07,0x3b,0x0b,0x69,0x14,0x3b,0x0c,0x5b,0x06,0x69,0x08,0x6f,0x3b,0x0a,0x07,0x3b,0x0b,0x69,0x00,0x3b,0x0c,0x5b,0x00))
  ChangeSelfSwitch("A",0)
  ChangeInventory_Item(52,0,0,1)
  0()
 PAGE   2
  // condition: self-switch A is ON
  0()



EVENT   12
 PAGE   1
  250(bytes(0x04,0x08,0x6f,0x3a,0x0c,0x52,0x50,0x47,0x3a,0x3a,0x53,0x45,0x08,0x3a,0x0a,0x40,0x6e,0x61,0x6d,0x65,0x49,0x22,0x0a,0x43,0x68,0x65,0x73,0x74,0x06,0x3a,0x06,0x45,0x54,0x3a,0x0b,0x40,0x70,0x69,0x74,0x63,0x68,0x69,0x69,0x3a,0x0c,0x40,0x76,0x6f,0x6c,0x75,0x6d,0x65,0x69,0x55))
  205(0,bytes(0x04,0x08,0x6f,0x3a,0x13,0x52,0x50,0x47,0x3a,0x3a,0x4d,0x6f,0x76,0x65,0x52,0x6f,0x75,0x74,0x65,0x09,0x3a,0x0c,0x40,0x72,0x65,0x70,0x65,0x61,0x74,0x46,0x3a,0x0f,0x40,0x73,0x6b,0x69,0x70,0x70,0x61,0x62,0x6c,0x65,0x46,0x3a,0x0a,0x40,0x77,0x61,0x69,0x74,0x54,0x3a,0x0a,0x40,0x6c,0x69,0x73,0x74,0x5b,0x0b,0x6f,0x3a,0x15,0x52,0x50,0x47,0x3a,0x3a,0x4d,0x6f,0x76,0x65,0x43,0x6f,0x6d,0x6d,0x61,0x6e,0x64,0x07,0x3a,0x0a,0x40,0x63,0x6f,0x64,0x65,0x69,0x29,0x3a,0x10,0x40,0x70,0x61,0x72,0x61,0x6d,0x65,0x74,0x65,0x72,0x73,0x5b,0x00,0x6f,0x3b,0x0a,0x07,0x3b,0x0b,0x69,0x16,0x3b,0x0c,0x5b,0x00,0x6f,0x3b,0x0a,0x07,0x3b,0x0b,0x69,0x14,0x3b,0x0c,0x5b,0x06,0x69,0x08,0x6f,0x3b,0x0a,0x07,0x3b,0x0b,0x69,0x17,0x3b,0x0c,0x5b,0x00,0x6f,0x3b,0x0a,0x07,0x3b,0x0b,0x69,0x14,0x3b,0x0c,0x5b,0x06,0x69,0x08,0x6f,0x3b,0x0a,0x07,0x3b,0x0b,0x69,0x00,0x3b,0x0c,0x5b,0x00))
  ChangeSelfSwitch("A",0)
  ChangeInventory_Item(32,0,0,1)
  0()
 PAGE   2
  // condition: self-switch A is ON
  0()



EVENT   17
 PAGE   1
  ShowMessageFace("",0,0,2,1)
  ShowMessage("【兵士】")
  ShowMessage("夢精しちゃった……")
  ShowMessage("もう、夢なのか何なのか……")
  0()
 PAGE   2
  // condition: variable 1063 >= 13
  0()



EVENT   18
 PAGE   1
  ShowMessageFace("",0,0,2,1)
  ShowMessage("【兵士】")
  ShowMessage("冥土の土産ができたよ……")
  0()
 PAGE   2
  // condition: variable 1063 >= 13
  0()



EVENT   19
 PAGE   1
  ShowMessageFace("",0,0,2,1)
  ShowMessage("【兵士】")
  ShowMessage("おもらし、しちゃった……")
  0()
 PAGE   2
  // condition: variable 1063 >= 13
  0()



EVENT   20
 PAGE   1
  ShowMessageFace("",0,0,2,1)
  ShowMessage("【兵士】")
  ShowMessage("サキュバスって、すごい……")
  0()
 PAGE   2
  // condition: variable 1063 >= 13
  0()



EVENT   21
 PAGE   1
  ShowMessageFace("",0,0,2,1)
  ShowMessage("【兵士】")
  ShowMessage("はぅぅぅぅ……")
  0()
 PAGE   2
  // condition: variable 1063 >= 13
  0()



EVENT   22
 PAGE   1
  ShowMessageFace("",0,0,2,1)
  ShowMessage("【兵士】")
  ShowMessage("夢の世界……")
  0()
 PAGE   2
  // condition: variable 1063 >= 13
  0()



EVENT   23
 PAGE   1
  ShowMessageFace("",0,0,2,1)
  ShowMessage("【兵士】")
  ShowMessage("あなたの知らない世界……")
  0()
 PAGE   2
  // condition: variable 1063 >= 13
  0()



EVENT   24
 PAGE   1
  ShowMessageFace("",0,0,2,1)
  ShowMessage("【魔導師】")
  ShowMessage("女だから大丈夫だと思ったのに……")
  0()
 PAGE   2
  // condition: variable 1063 >= 13
  0()



EVENT   25
 PAGE   1
  ShowMessageFace("",0,0,2,1)
  ShowMessage("【兵士】")
  ShowMessage("ママぁ……")
  0()
 PAGE   2
  // condition: variable 1063 >= 13
  0()



EVENT   26
 PAGE   1
  ShowMessageFace("",0,0,2,1)
  ShowMessage("【兵士】")
  ShowMessage("あぅぅぅぅ……")
  0()
 PAGE   2
  // condition: variable 1063 >= 13
  0()



EVENT   27
 PAGE   1
  ShowMessageFace("",0,0,2,1)
  ShowMessage("【兵士】")
  ShowMessage("らめぇぇぇぇ……！！")
  0()
 PAGE   2
  // condition: variable 1063 >= 13
  0()



EVENT   28
 PAGE   1
  ShowMessageFace("",0,0,2,1)
  ShowMessage("【魔導師】")
  ShowMessage("昇天しちゃうわ……")
  0()
 PAGE   2
  // condition: variable 1063 >= 13
  0()



EVENT   29
 PAGE   1
  ShowMessageFace("",0,0,2,1)
  ShowMessage("【魔導師】")
  ShowMessage("こんなの、知っちゃったら……")
  0()
 PAGE   2
  // condition: variable 1063 >= 13
  0()



EVENT   30
 PAGE   1
  ShowMessageFace("",0,0,2,1)
  ShowMessage("【魔導師】")
  ShowMessage("はぅぅぅぅぅ……")
  0()
 PAGE   2
  // condition: variable 1063 >= 13
  0()



EVENT   31
 PAGE   1
  ShowMessageFace("",0,0,2,1)
  ShowMessage("【魔導師】")
  ShowMessage("体に力が入らないわ……")
  0()
 PAGE   2
  // condition: variable 1063 >= 13
  0()



EVENT   32
 PAGE   1
  ShowMessageFace("",0,0,2,1)
  ShowMessage("【騎士】")
  ShowMessage("む、無念……")
  0()
 PAGE   2
  // condition: variable 1063 >= 13
  0()



EVENT   33
 PAGE   1
  ShowMessageFace("",0,0,2,1)
  ShowMessage("【魔導師】")
  ShowMessage("こんなに良いなんて……")
  0()
 PAGE   2
  // condition: variable 1063 >= 13
  0()



EVENT   34
 PAGE   1
  ShowMessageFace("",0,0,2,1)
  ShowMessage("【騎士】")
  ShowMessage("こんなぁ……")
  0()
 PAGE   2
  // condition: variable 1063 >= 13
  0()



EVENT   35
 PAGE   1
  ShowMessageFace("",0,0,2,1)
  ShowMessage("【騎士】")
  ShowMessage("うぅぅぅぅ……")
  0()
 PAGE   2
  // condition: variable 1063 >= 13
  0()



EVENT   36
 PAGE   1
  ShowMessageFace("",0,0,2,1)
  ShowMessage("将軍の日誌がある……読んでみますか？")
  ShowChoices(strings("読んでみる","読まない"),2)
  IfPlayerPicksChoice(0,null)
   ShowMessageFace("",0,0,2,2)
   ShowMessage("4月1日")
   ShowMessage("王妃様ああ王妃様、王妃様……王妃様、王妃様、王妃様、ああ王妃様、王妃様")
   ShowMessage("あお王妃様。王妃様おお王妃様……あああおお王妃様、王妃様、王妃様、おお")
   ShowMessage("王妃様、王妃様あおおうひひ様、王妃様、おおう妃様様様……お王妃様ああ様")
   If(2,"A",1)
    If(0,6,0)
     ShowMessageFace("sonia_fc3",7,0,2,3)
     ShowMessage("【ソニア】")
     ShowMessage("なんなの、これ……？")
     0()
    Else()
     ShowMessageFace("ruka_fc1",0,0,2,4)
     ShowMessage("【ルカ】")
     ShowMessage("なんなんだ、これ……？")
     0()
    EndIf()
    0()
   EndIf()
   ShowMessageFace("",0,0,2,5)
   ShowMessage("4月8日")
   ShowMessage("ああ、王妃様……")
   ShowMessage("王妃様……ああ、王妃様……")
   ShowMessageFace("",0,0,2,6)
   ShowMessage("4月15日")
   ShowMessage("我々は、麗しの王妃様のために尽くす。")
   ShowMessage("王妃様のために、命を落としても本望だ。")
   ShowMessage("この命、王妃様のために捧げるのみ……")
   ShowMessageFace("",0,0,2,7)
   ShowMessage("4月22日")
   ShowMessage("この砦に赴任して三週間、徐々に理性が戻ってきた。")
   ShowMessage("しかし、王妃様に対する狂おしい想いはこの胸を支配し続ける。")
   ShowMessage("私だけでなく、この砦の皆が同じ気持ちだ。")
   ShowMessageFace("",0,0,2,8)
   ShowMessage("4月25日")
   ShowMessage("頭が冴えるにつれ、これまでの精神異常を自覚する。")
   ShowMessage("今も王妃様を敬愛しているが、かつてほど狂おしいものではない。")
   ShowMessage("これは明らかに異常だ、私の精神に何が起きていたのだろうか。")
   ShowMessageFace("",0,0,2,9)
   ShowMessage("5月3日")
   ShowMessage("同じく砦に赴任した兵達も、私ほどではないが正気を取り戻しつつある。")
   ShowMessage("グランゴルドから来て日の浅い兵ほど、精神の錯乱も深いようだ。")
   ShowMessageFace("",0,0,2,10)
   ShowMessage("5月15日")
   ShowMessage("もはや、明らかだ。")
   ShowMessage("グランゴルド城での我々は、洗脳されていた。")
   ShowMessage("城から離れれば離れるほど、その呪縛も弱まるようだ。")
   ShowMessageFace("",0,0,2,11)
   ShowMessage("思えば、あの王妃は何者なのだ？")
   ShowMessage("いつからあの女は、我が国の王妃となった？")
   ShowMessage("そしていつから、あの女は我が国を支配している？")
   ShowMessage("王は、王は――")
   ShowMessageFace("",0,0,2,12)
   ShowMessage("日誌はここで途切れている……")
   If(2,"A",1)
    ChangeSelfSwitch("A",0)
    If(0,4,0)
     ShowMessageFace("alice_fc5",3,0,2,13)
     ShowMessage("【アリス】")
     ShowMessage("……………………")
     0()
    EndIf()
    If(0,5,0)
     ShowMessageFace("iriasu_fc4",7,0,2,14)
     ShowMessage("【イリアス】")
     ShowMessage("……………………")
     0()
    EndIf()
    0()
   EndIf()
   0()
  IfPlayerPicksChoice(1,null)
   0()
  404()
  0()



EVENT   37
 PAGE   1
  ShowMessageFace("",0,0,2,1)
  ShowMessage("【兵士】")
  ShowMessage("最高でした……")
  0()
 PAGE   2
  // condition: variable 1063 >= 13
  0()



EVENT   38
 PAGE   1
  ShowMessageFace("",0,0,2,1)
  ShowMessage("すでに力尽きているようだ――")
  If(2,"A",1)
   ChangeSelfSwitch("A",0)
   If(1,1063,0,3,2)
    If(0,4,0)
     ShowMessageFace("alice_fc6",0,0,2,2)
     ShowMessage("【アリス】")
     ShowMessage("おい、アルマエルマ！")
     ShowMessage("貴様、まさか……！")
     0()
    EndIf()
    If(0,5,0)
     ShowMessageFace("iriasu_fc4",7,0,2,3)
     ShowMessage("【イリアス】")
     ShowMessage("アルマエルマ！！")
     ShowMessage("誰も殺していないのではなかったのですか！？")
     0()
    EndIf()
    ShowMessageFace("arumaeruma_fc2",2,0,2,4)
    ShowMessage("【アルマエルマ】")
    ShowMessage("濡れ衣よ……")
    ShowMessage("この人は、最初からここで死んでいたわ。")
    If(0,6,0)
     ShowMessageFace("sonia_fc2",2,0,2,5)
     ShowMessage("【ソニア】")
     ShowMessage("この人、亡くなってから数日は経ってるみたい……")
     ShowMessage("死因は不明だけど、外傷はないわね。")
     ShowMessageFace("ruka_fc1",0,0,2,6)
     ShowMessage("【ルカ】")
     ShowMessage("ソニア、そういうの分かるの？")
     ShowMessageFace("sonia_fc4",0,0,2,7)
     ShowMessage("【ソニア】")
     ShowMessage("ルカは忘れてるみたいだけど……")
     ShowMessage("私は神殿僧侶で、医療の基本も学んでるの。")
     0()
    Else()
     ShowMessageFace("ruka_fc1",0,0,2,8)
     ShowMessage("【ルカ】")
     ShowMessage("亡くなってから、何日か経ってるみたいだ……")
     ShowMessage("見たところ、傷はないみたいだね。")
     0()
    EndIf()
    If(0,4,0)
     ShowMessageFace("alice_fc6",0,0,2,9)
     ShowMessage("【アリス】")
     ShowMessage("いったいなぜ、この砦の責任者は死んだ？")
     ShowMessage("そして、なぜずっと放置されていたのだ……？")
     0()
    EndIf()
    If(0,5,0)
     ShowMessageFace("iriasu_fc4",2,0,2,10)
     ShowMessage("【イリアス】")
     ShowMessage("いったいなぜ、この砦の責任者は死んだのか……")
     ShowMessage("そして、なぜ放置されたままでいたのか……")
     0()
    EndIf()
    0()
   EndIf()
   0()
  EndIf()
  0()
 PAGE   2
  // condition: variable 1063 >= 13
  0()

EVENT   39
 PAGE   1
  ShowMessageFace("",0,0,2,1)
  ShowMessage("【魔導師】")
  ShowMessage("何度もイっちゃった……")
  0()
 PAGE   2
  // condition: variable 1063 >= 13
  0()



EVENT   40
 PAGE   1
  ShowMessageFace("",0,0,2,1)
  ShowMessage("【魔導師】")
  ShowMessage("こんな……屈辱……")
  0()
 PAGE   2
  // condition: variable 1063 >= 13
  0()


